<?xml version="1.0" encoding="UTF-8" standalone="no"?>
<!-- Created with Inkscape (http://www.inkscape.org/) -->

<svg
   xmlns:dc="http://purl.org/dc/elements/1.1/"
   xmlns:cc="http://creativecommons.org/ns#"
   xmlns:rdf="http://www.w3.org/1999/02/22-rdf-syntax-ns#"
   xmlns:svg="http://www.w3.org/2000/svg"
   xmlns="http://www.w3.org/2000/svg"
   xmlns:xlink="http://www.w3.org/1999/xlink"
   xmlns:sodipodi="http://sodipodi.sourceforge.net/DTD/sodipodi-0.dtd"
   xmlns:inkscape="http://www.inkscape.org/namespaces/inkscape"
   id="svg2"
   version="1.1"
   inkscape:version="0.48.4 r9939"
   width="639.08026"
   height="301.83603"
   xml:space="preserve"
   sodipodi:docname="2_TherapeutendatenVerwalten.svg"><metadata
     id="metadata8"><rdf:RDF><cc:Work
         rdf:about=""><dc:format>image/svg+xml</dc:format><dc:type
           rdf:resource="http://purl.org/dc/dcmitype/StillImage" /><dc:title /></cc:Work></rdf:RDF></metadata><defs
     id="defs6"><mask
       maskUnits="userSpaceOnUse"
       x="0"
       y="0"
       width="1"
       height="1"
       id="mask184"><image
         width="1"
         height="1"
         xlink:href="data:image/png;base64,iVBORw0KGgoAAAANSUhEUgAAACAAAAAgCAAAAABWESUoAAAAAXNCSVQI5gpbmQAAAGtJREFUOI29klEOwCAIQ+nuf+fuZzMWqpsxkR9D+xAkRuwG+oRVkoyuCNVX4nJ9+QXEWcA9U0SzqOEeHiQpP2fg0JncwKUWfdnqkAqYYQ/8KKiP96hAMxKB7GcCxU+JK5IUxhehbXL2jfbiBjDmGifp2BihAAAAAElFTkSuQmCC"
         id="image186" /></mask><mask
       maskUnits="userSpaceOnUse"
       x="0"
       y="0"
       width="1"
       height="1"
       id="mask212"><image
         width="1"
         height="1"
         xlink:href="data:image/png;base64,iVBORw0KGgoAAAANSUhEUgAAACAAAAAgCAAAAABWESUoAAAAAXNCSVQI5gpbmQAAAGtJREFUOI29klEOwCAIQ+nuf+fuZzMWqpsxkR9D+xAkRuwG+oRVkoyuCNVX4nJ9+QXEWcA9U0SzqOEeHiQpP2fg0JncwKUWfdnqkAqYYQ/8KKiP96hAMxKB7GcCxU+JK5IUxhehbXL2jfbiBjDmGifp2BihAAAAAElFTkSuQmCC"
         id="image214" /></mask></defs><sodipodi:namedview
     pagecolor="#ffffff"
     bordercolor="#666666"
     borderopacity="1"
     objecttolerance="10"
     gridtolerance="10"
     guidetolerance="10"
     inkscape:pageopacity="0"
     inkscape:pageshadow="2"
     inkscape:window-width="1364"
     inkscape:window-height="720"
     id="namedview4"
     showgrid="false"
     fit-margin-top="0"
     fit-margin-left="0"
     fit-margin-right="0"
     fit-margin-bottom="0"
     inkscape:zoom="1.2684253"
     inkscape:cx="252.88554"
     inkscape:cy="100.69167"
     inkscape:window-x="0"
     inkscape:window-y="0"
     inkscape:window-maximized="1"
     inkscape:current-layer="g10" /><g
     id="g10"
     inkscape:groupmode="layer"
     inkscape:label="1_Therapeutendaten verwalten"
     transform="matrix(1.25,0,0,-1.25,-43.263464,1009.197)"><g
       id="g12"
       transform="translate(475.2,586.64)"><path
         d="M 0,0 -100.5,0"
         style="fill:none;stroke:#cdcdcd;stroke-width:0.81699997;stroke-linecap:round;stroke-linejoin:round;stroke-miterlimit:10;stroke-opacity:1;stroke-dasharray:none"
         id="path14"
         inkscape:connector-curvature="0" /></g><path
       d="m 374.7,586.58 0.06,0 0,0.06 -0.06,0 0,-0.06 z"
       style="fill:#cdcdcd;fill-opacity:1;fill-rule:nonzero;stroke:none"
       id="path16"
       inkscape:connector-curvature="0" /><g
       id="g18"
       transform="translate(475.2,587.48)"><path
         d="M 0,0 -100.5,0"
         style="fill:none;stroke:#000000;stroke-width:0.81699997;stroke-linecap:round;stroke-linejoin:round;stroke-miterlimit:10;stroke-opacity:1;stroke-dasharray:none"
         id="path20"
         inkscape:connector-curvature="0" /></g><path
       d="m 374.7,587.42 0.06,0 0,0.06 -0.06,0 0,-0.06 z"
       style="fill:#000000;fill-opacity:1;fill-rule:nonzero;stroke:none"
       id="path22"
       inkscape:connector-curvature="0" /><g
       id="g24"
       transform="translate(385.32,583.4)"><path
         d="M 0,0 -10.62,4.08 0,8.16 -3.3,4.08 0,0 z"
         style="fill:#000000;fill-opacity:1;fill-rule:nonzero;stroke:#000000;stroke-width:0.81699997;stroke-linecap:round;stroke-linejoin:round;stroke-miterlimit:10;stroke-opacity:1;stroke-dasharray:none"
         id="path26"
         inkscape:connector-curvature="0" /></g><g
       id="g28"
       transform="translate(91.08,652.04)"><path
         d="M 0,0 109.5,0"
         style="fill:none;stroke:#cdcdcd;stroke-width:0.81699997;stroke-linecap:round;stroke-linejoin:round;stroke-miterlimit:10;stroke-opacity:1;stroke-dasharray:none"
         id="path30"
         inkscape:connector-curvature="0" /></g><path
       d="m 200.58,651.98 0.06,0 0,0.0599 -0.06,0 0,-0.0599 z"
       style="fill:#cdcdcd;fill-opacity:1;fill-rule:nonzero;stroke:none"
       id="path32"
       inkscape:connector-curvature="0" /><g
       id="g34"
       transform="translate(91.08,652.88)"><path
         d="M 0,0 109.5,0"
         style="fill:none;stroke:#000000;stroke-width:0.81699997;stroke-linecap:round;stroke-linejoin:round;stroke-miterlimit:10;stroke-opacity:1;stroke-dasharray:none"
         id="path36"
         inkscape:connector-curvature="0" /></g><path
       d="m 200.58,652.82 0.06,0 0,0.06 -0.06,0 0,-0.06 z"
       style="fill:#000000;fill-opacity:1;fill-rule:nonzero;stroke:none"
       id="path38"
       inkscape:connector-curvature="0" /><g
       id="g40"
       transform="translate(189.96,656.96)"><path
         d="M 0,0 10.62,-4.08 0,-8.16 3.24,-4.08 0,0 z"
         style="fill:#000000;fill-opacity:1;fill-rule:nonzero;stroke:#000000;stroke-width:0.81699997;stroke-linecap:round;stroke-linejoin:round;stroke-miterlimit:10;stroke-opacity:1;stroke-dasharray:none"
         id="path42"
         inkscape:connector-curvature="0" /></g><g
       id="g44"
       transform="translate(91.86,723.98)"><path
         d="M 0,0 0,-71.1"
         style="fill:none;stroke:#cdcdcd;stroke-width:0.81699997;stroke-linecap:round;stroke-linejoin:round;stroke-miterlimit:10;stroke-opacity:1;stroke-dasharray:none"
         id="path46"
         inkscape:connector-curvature="0" /></g><path
       d="m 91.86,652.82 0.06,0 0,0.06 -0.06,0 0,-0.06 z"
       style="fill:#cdcdcd;fill-opacity:1;fill-rule:nonzero;stroke:none"
       id="path48"
       inkscape:connector-curvature="0" /><g
       id="g50"
       transform="translate(91.08,723.98)"><path
         d="M 0,0 0,-71.1"
         style="fill:none;stroke:#000000;stroke-width:0.81699997;stroke-linecap:round;stroke-linejoin:round;stroke-miterlimit:10;stroke-opacity:1;stroke-dasharray:none"
         id="path52"
         inkscape:connector-curvature="0" /></g><path
       d="m 91.08,652.82 0.06,0 0,0.06 -0.06,0 0,-0.06 z"
       style="fill:#000000;fill-opacity:1;fill-rule:nonzero;stroke:none"
       id="path54"
       inkscape:connector-curvature="0" /><g
       id="g56"
       transform="translate(86.94,713.36)"><path
         d="M 0,0 4.14,10.62 8.22,0 4.14,3.24 0,0 z"
         style="fill:#000000;fill-opacity:1;fill-rule:nonzero;stroke:#000000;stroke-width:0.81699997;stroke-linecap:round;stroke-linejoin:round;stroke-miterlimit:10;stroke-opacity:1;stroke-dasharray:none"
         id="path58"
         inkscape:connector-curvature="0" /></g><g
       id="g60"
       transform="translate(476.04,770.54)"><path
         d="M 0,0 0,-183.06"
         style="fill:none;stroke:#cdcdcd;stroke-width:0.81699997;stroke-linecap:round;stroke-linejoin:round;stroke-miterlimit:10;stroke-opacity:1;stroke-dasharray:none"
         id="path62"
         inkscape:connector-curvature="0" /></g><path
       d="m 476.04,587.42 0.06,0 0,0.06 -0.06,0 0,-0.06 z"
       style="fill:#cdcdcd;fill-opacity:1;fill-rule:nonzero;stroke:none"
       id="path64"
       inkscape:connector-curvature="0" /><g
       id="g66"
       transform="translate(475.2,770.54)"><path
         d="M 0,0 0,-183.06"
         style="fill:none;stroke:#000000;stroke-width:0.81699997;stroke-linecap:round;stroke-linejoin:round;stroke-miterlimit:10;stroke-opacity:1;stroke-dasharray:none"
         id="path68"
         inkscape:connector-curvature="0" /></g><path
       d="m 475.2,587.42 0.06,0 0,0.06 -0.06,0 0,-0.06 z"
       style="fill:#000000;fill-opacity:1;fill-rule:nonzero;stroke:none"
       id="path70"
       inkscape:connector-curvature="0" /><g
       id="g72"
       transform="translate(471.12,759.92)"><path
         d="M 0,0 4.08,10.62 8.16,0 4.08,3.3 0,0 z"
         style="fill:#000000;fill-opacity:1;fill-rule:nonzero;stroke:#000000;stroke-width:0.81699997;stroke-linecap:round;stroke-linejoin:round;stroke-miterlimit:10;stroke-opacity:1;stroke-dasharray:none"
         id="path74"
         inkscape:connector-curvature="0" /></g><g
       id="g76"
       transform="translate(148.26,733.76)"><path
         d="M 0,0 63.78,-11.4"
         style="fill:none;stroke:#cdcdcd;stroke-width:0.81699997;stroke-linecap:round;stroke-linejoin:round;stroke-miterlimit:10;stroke-opacity:1;stroke-dasharray:none"
         id="path78"
         inkscape:connector-curvature="0" /></g><path
       d="m 212.04,722.3 0.06,0 0,0.06 -0.06,0 0,-0.06 z"
       style="fill:#cdcdcd;fill-opacity:1;fill-rule:nonzero;stroke:none"
       id="path80"
       inkscape:connector-curvature="0" /><g
       id="g82"
       transform="translate(148.26,734.6)"><path
         d="M 0,0 63.78,-11.46"
         style="fill:none;stroke:#000000;stroke-width:0.81699997;stroke-linecap:round;stroke-linejoin:round;stroke-miterlimit:10;stroke-opacity:1;stroke-dasharray:none"
         id="path84"
         inkscape:connector-curvature="0" /></g><path
       d="m 212.04,723.08 0.06,0 0,0.06 -0.06,0 0,-0.06 z"
       style="fill:#000000;fill-opacity:1;fill-rule:nonzero;stroke:none"
       id="path86"
       inkscape:connector-curvature="0" /><g
       id="g88"
       transform="translate(202.2,728.9)"><path
         d="M 0,0 9.84,-5.76 -1.62,-7.38 2.46,-4.08 0,0 z"
         style="fill:#000000;fill-opacity:1;fill-rule:nonzero;stroke:#000000;stroke-width:0.81699997;stroke-linecap:round;stroke-linejoin:round;stroke-miterlimit:10;stroke-opacity:1;stroke-dasharray:none"
         id="path90"
         inkscape:connector-curvature="0" /></g><g
       id="g92"
       transform="translate(158.1,728.9)"><path
         d="M 0,0 -9.84,5.7 1.62,7.32 -2.46,4.08 0,0 z"
         style="fill:#000000;fill-opacity:1;fill-rule:nonzero;stroke:#000000;stroke-width:0.81699997;stroke-linecap:round;stroke-linejoin:round;stroke-miterlimit:10;stroke-opacity:1;stroke-dasharray:none"
         id="path94"
         inkscape:connector-curvature="0" /></g><g
       id="g96"
       transform="translate(409.02,785.3)"><path
         d="M 0,0 -43.32,0"
         style="fill:none;stroke:#cdcdcd;stroke-width:0.81699997;stroke-linecap:round;stroke-linejoin:round;stroke-miterlimit:10;stroke-opacity:1;stroke-dasharray:none"
         id="path98"
         inkscape:connector-curvature="0" /></g><path
       d="m 365.7,785.24 0.06,0 0,0.06 -0.06,0 0,-0.06 z"
       style="fill:#cdcdcd;fill-opacity:1;fill-rule:nonzero;stroke:none"
       id="path100"
       inkscape:connector-curvature="0" /><g
       id="g102"
       transform="translate(409.02,786.08)"><path
         d="M 0,0 -43.32,0"
         style="fill:none;stroke:#000000;stroke-width:0.81699997;stroke-linecap:round;stroke-linejoin:round;stroke-miterlimit:10;stroke-opacity:1;stroke-dasharray:none"
         id="path104"
         inkscape:connector-curvature="0" /></g><path
       d="m 365.7,786.02 0.06,0 0,0.0601 -0.06,0 0,-0.0601 z"
       style="fill:#000000;fill-opacity:1;fill-rule:nonzero;stroke:none"
       id="path106"
       inkscape:connector-curvature="0" /><g
       id="g108"
       transform="translate(376.32,782)"><path
         d="M 0,0 -10.62,4.08 0,8.16 -3.3,4.08 0,0 z"
         style="fill:#000000;fill-opacity:1;fill-rule:nonzero;stroke:#000000;stroke-width:0.81699997;stroke-linecap:round;stroke-linejoin:round;stroke-miterlimit:10;stroke-opacity:1;stroke-dasharray:none"
         id="path110"
         inkscape:connector-curvature="0" /></g><g
       id="g112"
       transform="translate(398.4,790.16)"><path
         d="M 0,0 10.62,-4.08 0,-8.16 3.24,-4.08 0,0 z"
         style="fill:#000000;fill-opacity:1;fill-rule:nonzero;stroke:#000000;stroke-width:0.81699997;stroke-linecap:round;stroke-linejoin:round;stroke-miterlimit:10;stroke-opacity:1;stroke-dasharray:none"
         id="path114"
         inkscape:connector-curvature="0" /></g><g
       id="g116"
       transform="translate(375.42,585.92)"><path
         d="m 0,0 c 0,10.8 -38.64,19.56 -86.22,19.56 -47.58,0 -86.16,-8.76 -86.16,-19.56 0,-10.8 38.58,-19.62 86.16,-19.62 C -38.64,-19.62 0,-10.8 0,0 z"
         style="fill:#c0c0c0;fill-opacity:1;fill-rule:nonzero;stroke:#c0c0c0;stroke-width:0.81699997;stroke-linecap:round;stroke-linejoin:round;stroke-miterlimit:10;stroke-opacity:1;stroke-dasharray:none"
         id="path118"
         inkscape:connector-curvature="0" /></g><g
       id="g120"
       transform="translate(373.8,587.54)"><path
         d="m 0,0 c 0,10.8 -38.64,19.56 -86.22,19.56 -47.58,0 -86.16,-8.76 -86.16,-19.56 0,-10.8 38.58,-19.62 86.16,-19.62 C -38.64,-19.62 0,-10.8 0,0 z"
         style="fill:#b0e0df;fill-opacity:1;fill-rule:nonzero;stroke:#000000;stroke-width:0.81699997;stroke-linecap:round;stroke-linejoin:round;stroke-miterlimit:10;stroke-opacity:1;stroke-dasharray:none"
         id="path122"
         inkscape:connector-curvature="0" /></g><g
       id="g124"
       transform="translate(372.96,587.54)"><path
         d="m 0,0 c 0,10.38 -38.28,18.72 -85.38,18.72 -47.16,0 -85.38,-8.34 -85.38,-18.72 0,-10.38 38.22,-18.78 85.38,-18.78 47.1,0 85.38,8.4 85.38,18.78 z"
         style="fill:#b0e0df;fill-opacity:1;fill-rule:nonzero;stroke:#ffffff;stroke-width:0.81699997;stroke-linecap:round;stroke-linejoin:round;stroke-miterlimit:10;stroke-opacity:1;stroke-dasharray:none"
         id="path126"
         inkscape:connector-curvature="0" /></g><text
       transform="matrix(1,0,0,-0.97109683,243.9,589.1603)"
       id="text128"><tspan
         style="font-size:9.2585001px;font-variant:normal;font-weight:normal;font-stretch:normal;writing-mode:lr-tb;fill:#000000;fill-opacity:1;fill-rule:nonzero;stroke:none;font-family:Arial;-inkscape-font-specification:Helvetica"
         x="15.443178 21.100122 26.247847 31.395573 34.478653 39.626381 44.774105 49.921833 55.069557 57.643421 62.791145 67.938873 73.086601 78.234322 80.808189 85.955917"
         sodipodi:role="line"
         id="tspan130">Therapeutendaten</tspan><tspan
         style="font-size:9.2585001px;font-variant:normal;font-weight:normal;font-stretch:normal;writing-mode:lr-tb;fill:#000000;fill-opacity:1;fill-rule:nonzero;stroke:none;font-family:Arial;-inkscape-font-specification:Helvetica"
         x="27.780128 29.835516 34.983242 39.612492 44.241741 49.389469 54.537193"
         y="8.4030142"
         sodipodi:role="line"
         id="tspan132">löschen</tspan></text>
<g
       id="g134"
       transform="translate(375.42,651.26)"><path
         d="m 0,0 c 0,10.8 -38.64,19.56 -86.22,19.56 -47.58,0 -86.16,-8.76 -86.16,-19.56 0,-10.8 38.58,-19.56 86.16,-19.56 C -38.64,-19.56 0,-10.8 0,0 z"
         style="fill:#c0c0c0;fill-opacity:1;fill-rule:nonzero;stroke:#c0c0c0;stroke-width:0.81699997;stroke-linecap:round;stroke-linejoin:round;stroke-miterlimit:10;stroke-opacity:1;stroke-dasharray:none"
         id="path136"
         inkscape:connector-curvature="0" /></g><g
       id="g138"
       transform="translate(373.8,652.94)"><path
         d="m 0,0 c 0,10.8 -38.64,19.56 -86.22,19.56 -47.58,0 -86.16,-8.76 -86.16,-19.56 0,-10.8 38.58,-19.62 86.16,-19.62 C -38.64,-19.62 0,-10.8 0,0 z"
         style="fill:#b0e0df;fill-opacity:1;fill-rule:nonzero;stroke:#000000;stroke-width:0.81699997;stroke-linecap:round;stroke-linejoin:round;stroke-miterlimit:10;stroke-opacity:1;stroke-dasharray:none"
         id="path140"
         inkscape:connector-curvature="0" /></g><g
       id="g142"
       transform="translate(372.96,652.88)"><path
         d="m 0,0 c 0,10.38 -38.28,18.78 -85.38,18.78 -47.16,0 -85.38,-8.4 -85.38,-18.78 0,-10.32 38.22,-18.78 85.38,-18.78 C -38.28,-18.78 0,-10.32 0,0 z"
         style="fill:#b0e0df;fill-opacity:1;fill-rule:nonzero;stroke:#ffffff;stroke-width:0.81699997;stroke-linecap:round;stroke-linejoin:round;stroke-miterlimit:10;stroke-opacity:1;stroke-dasharray:none"
         id="path144"
         inkscape:connector-curvature="0" /></g><text
       transform="matrix(1,0,0,-0.97109683,243.9,654.5603)"
       id="text146"><tspan
         style="font-size:9.2585001px;font-variant:normal;font-weight:normal;font-stretch:normal;writing-mode:lr-tb;fill:#000000;fill-opacity:1;fill-rule:nonzero;stroke:none;font-family:Arial;-inkscape-font-specification:Helvetica"
         x="15.443178 21.100122 26.247847 31.395573 34.478653 39.626381 44.774105 49.921833 55.069557 57.643421 62.791145 67.938873 73.086601 78.234322 80.808189 85.955917"
         sodipodi:role="line"
         id="tspan148">Therapeutendaten</tspan><tspan
         style="font-size:9.2585001px;font-variant:normal;font-weight:normal;font-stretch:normal;writing-mode:lr-tb;fill:#000000;fill-opacity:1;fill-rule:nonzero;stroke:none;font-family:Arial;-inkscape-font-specification:Helvetica"
         x="29.399441 34.547169 39.694893 44.842617 49.990345 53.073425"
         y="8.4030142"
         sodipodi:role="line"
         id="tspan150">ändern</tspan></text>
<g
       id="g152"
       transform="translate(374.64,708.5)"><path
         d="m 0,0 c 0,10.8 -40.26,19.56 -89.88,19.56 -49.68,0 -89.88,-8.76 -89.88,-19.56 0,-10.8 40.2,-19.62 89.88,-19.62 C -40.26,-19.62 0,-10.8 0,0 z"
         style="fill:#c0c0c0;fill-opacity:1;fill-rule:nonzero;stroke:#c0c0c0;stroke-width:0.81699997;stroke-linecap:round;stroke-linejoin:round;stroke-miterlimit:10;stroke-opacity:1;stroke-dasharray:none"
         id="path154"
         inkscape:connector-curvature="0" /></g><g
       id="g156"
       transform="translate(372.96,710.12)"><path
         d="m 0,0 c 0,10.8 -40.26,19.56 -89.88,19.56 -49.68,0 -89.88,-8.76 -89.88,-19.56 0,-10.8 40.2,-19.62 89.88,-19.62 C -40.26,-19.62 0,-10.8 0,0 z"
         style="fill:#b0e0df;fill-opacity:1;fill-rule:nonzero;stroke:#000000;stroke-width:0.81699997;stroke-linecap:round;stroke-linejoin:round;stroke-miterlimit:10;stroke-opacity:1;stroke-dasharray:none"
         id="path158"
         inkscape:connector-curvature="0" /></g><g
       id="g160"
       transform="translate(372.18,710.12)"><path
         d="m 0,0 c 0,10.38 -39.9,18.78 -89.1,18.78 -49.2,0 -89.04,-8.4 -89.04,-18.78 0,-10.32 39.84,-18.78 89.04,-18.78 49.2,0 89.1,8.46 89.1,18.78 z"
         style="fill:#b0e0df;fill-opacity:1;fill-rule:nonzero;stroke:#ffffff;stroke-width:0.81699997;stroke-linecap:round;stroke-linejoin:round;stroke-miterlimit:10;stroke-opacity:1;stroke-dasharray:none"
         id="path162"
         inkscape:connector-curvature="0" /></g><text
       transform="matrix(1,0,0,-0.97109683,224.28,711.8003)"
       id="text164"><tspan
         style="font-size:9.2585001px;font-variant:normal;font-weight:normal;font-stretch:normal;writing-mode:lr-tb;fill:#000000;fill-opacity:1;fill-rule:nonzero;stroke:none;font-family:Arial;-inkscape-font-specification:Helvetica"
         x="15.443178 21.100122 26.247847 31.395573 34.478653 39.626381 44.774105 49.921833 55.069557 57.643421 62.791145 67.938873 69.994263 75.141983 77.715851 82.863579 85.946655 93.658989 98.806709 101.38058 103.43596 108.58369 113.73141 118.87914"
         sodipodi:role="line"
         id="tspan166">Therapeuteninformationen</tspan><tspan
         style="font-size:9.2585001px;font-variant:normal;font-weight:normal;font-stretch:normal;writing-mode:lr-tb;fill:#000000;fill-opacity:1;fill-rule:nonzero;stroke:none;font-family:Arial;-inkscape-font-specification:Helvetica"
         x="40.859612 46.007339 51.155064 55.784313 60.932041 62.987427 68.135155 73.282883"
         y="8.4030142"
         sodipodi:role="line"
         id="tspan168">anzeigen</tspan></text>
<path
       d="m 148.2,759.14 -112.74,0 0,-34.26 112.74,0 0,34.26 z"
       style="fill:#ffffff;fill-opacity:1;fill-rule:nonzero;stroke:#ffffff;stroke-width:0.81699997;stroke-linecap:round;stroke-linejoin:miter;stroke-miterlimit:10;stroke-opacity:1;stroke-dasharray:none"
       id="path170"
       inkscape:connector-curvature="0" /><path
       d="m 148.2,758.3 -112.74,0 0,-32.64 112.74,0 0,32.64 z"
       style="fill:#dedbd6;fill-opacity:1;fill-rule:nonzero;stroke:#dedbd6;stroke-width:0.81699997;stroke-linecap:round;stroke-linejoin:miter;stroke-miterlimit:10;stroke-opacity:1;stroke-dasharray:none"
       id="path172"
       inkscape:connector-curvature="0" /><g
       id="g174"
       transform="translate(35.46,759.92)"><path
         d="M 0,0 112.02,0"
         style="fill:none;stroke:#000065;stroke-width:1.63499999;stroke-linecap:round;stroke-linejoin:round;stroke-miterlimit:10;stroke-opacity:1;stroke-dasharray:none"
         id="path176"
         inkscape:connector-curvature="0" /><g
         id="g178"
         transform="translate(0,-35.94)"><path
           d="M 0,0 112.02,0"
           style="fill:none;stroke:#000065;stroke-width:1.63499999;stroke-linecap:round;stroke-linejoin:round;stroke-miterlimit:10;stroke-opacity:1;stroke-dasharray:none"
           id="path180"
           inkscape:connector-curvature="0" /></g></g><g
       id="g182"
       transform="matrix(26.16,0,0,26.16,40.38,728.9)"><rect
         x="0"
         y="0"
         width="1"
         height="1"
         transform="matrix(1,0,0,-1,0,1)"
         style="fill:#000000;fill-opacity:1;fill-rule:nonzero"
         mask="url(#mask184)"
         id="rect188" /></g><g
       id="g190"
       transform="matrix(26.16,0,0,26.16,40.38,728.9)"><image
         width="1"
         height="1"
         transform="matrix(1,0,0,-1,0,1)"
         xlink:href="data:image/png;base64,iVBORw0KGgoAAAANSUhEUgAAACAAAAAgCAYAAABzenr0AAAABHNCSVQICAgIfAhkiAAAATRJREFUWIXtlj8OgjAUxj+NB8BjcAOYmeAGLh4AHWFzZLMjXoDFG+DE5KA38Bh6gzogaqCl7SsRY/ySBpL++X59vD46AcAxoqZjmgPAzHRClFYoj5dux3lNAjCKQJRW8k4vJwFMoJkD7zvnp1U92d91BxpGYvAcYEVPlAQyzgFAsnOiRj8FfwDtUwC8jqGwDgBgsYtkGRgBGEWg3MoXp5g34qTm5RxezllR0eY/2pfmQJipZ16d+jm/qcceNtKuj0SgrzoKKyFb+MpFk/0JuDpaY1WiJVCY/XISqtT+9xMvIwAlCUUXD+JlxBzgzYjFLljsWkPoA7TMRe8UCD0AgXmyDJ613wZCDSAxb2QL0Q+gMB8CQg6gaW4LIQYwNLeB6AIQzakQ0k9AMe+FkIhWigfU6D+jO6ULp2w+qguaAAAAAElFTkSuQmCC"
         id="image192" /></g><text
       transform="matrix(1,0,0,-0.97109683,83.7,741.2003)"
       id="text194"><tspan
         style="font-size:9.2585001px;font-variant:normal;font-weight:normal;font-stretch:normal;writing-mode:lr-tb;fill:#000000;fill-opacity:1;fill-rule:nonzero;stroke:none;font-family:Arial;-inkscape-font-specification:Helvetica"
         x="0 5.6569433 10.804669 15.952395 19.035477 24.183203 29.330929 34.478653 39.626381"
         y="0"
         sodipodi:role="line"
         id="tspan196">Therapeut</tspan></text>
<path
       d="m 545.46,805.7 -133.98,0 0,-34.26 133.98,0 0,34.26 z"
       style="fill:#ffffff;fill-opacity:1;fill-rule:nonzero;stroke:#ffffff;stroke-width:0.81699997;stroke-linecap:round;stroke-linejoin:miter;stroke-miterlimit:10;stroke-opacity:1;stroke-dasharray:none"
       id="path198"
       inkscape:connector-curvature="0" /><path
       d="m 545.46,804.92 -133.98,0 0,-32.64 133.98,0 0,32.64 z"
       style="fill:#dedbd6;fill-opacity:1;fill-rule:nonzero;stroke:#dedbd6;stroke-width:0.81699997;stroke-linecap:round;stroke-linejoin:miter;stroke-miterlimit:10;stroke-opacity:1;stroke-dasharray:none"
       id="path200"
       inkscape:connector-curvature="0" /><g
       id="g202"
       transform="translate(411.48,806.54)"><path
         d="M 0,0 133.2,0"
         style="fill:none;stroke:#000065;stroke-width:1.63499999;stroke-linecap:round;stroke-linejoin:round;stroke-miterlimit:10;stroke-opacity:1;stroke-dasharray:none"
         id="path204"
         inkscape:connector-curvature="0" /><g
         id="g206"
         transform="translate(0,-36)"><path
           d="M 0,0 133.2,0"
           style="fill:none;stroke:#000065;stroke-width:1.63499999;stroke-linecap:round;stroke-linejoin:round;stroke-miterlimit:10;stroke-opacity:1;stroke-dasharray:none"
           id="path208"
           inkscape:connector-curvature="0" /></g></g><g
       id="g210"
       transform="matrix(26.16,0,0,26.16,416.34,775.46)"><rect
         x="0"
         y="0"
         width="1"
         height="1"
         transform="matrix(1,0,0,-1,0,1)"
         style="fill:#000000;fill-opacity:1;fill-rule:nonzero"
         mask="url(#mask212)"
         id="rect216" /></g><g
       id="g218"
       transform="matrix(26.16,0,0,26.16,416.34,775.46)"><image
         width="1"
         height="1"
         transform="matrix(1,0,0,-1,0,1)"
         xlink:href="data:image/png;base64,iVBORw0KGgoAAAANSUhEUgAAACAAAAAgCAYAAABzenr0AAAABHNCSVQICAgIfAhkiAAAATRJREFUWIXtlj8OgjAUxj+NB8BjcAOYmeAGLh4AHWFzZLMjXoDFG+DE5KA38Bh6gzogaqCl7SsRY/ySBpL++X59vD46AcAxoqZjmgPAzHRClFYoj5dux3lNAjCKQJRW8k4vJwFMoJkD7zvnp1U92d91BxpGYvAcYEVPlAQyzgFAsnOiRj8FfwDtUwC8jqGwDgBgsYtkGRgBGEWg3MoXp5g34qTm5RxezllR0eY/2pfmQJipZ16d+jm/qcceNtKuj0SgrzoKKyFb+MpFk/0JuDpaY1WiJVCY/XISqtT+9xMvIwAlCUUXD+JlxBzgzYjFLljsWkPoA7TMRe8UCD0AgXmyDJ613wZCDSAxb2QL0Q+gMB8CQg6gaW4LIQYwNLeB6AIQzakQ0k9AMe+FkIhWigfU6D+jO6ULp2w+qguaAAAAAElFTkSuQmCC"
         id="image220" /></g><g
       id="g222"
       transform="translate(544.68,771.38)"><path
         d="M 0,0 -8.16,0 0,8.16 0,0 z"
         style="fill:#0000ff;fill-opacity:1;fill-rule:nonzero;stroke:#0000ff;stroke-width:0.81699997;stroke-linecap:round;stroke-linejoin:round;stroke-miterlimit:10;stroke-opacity:1;stroke-dasharray:none"
         id="path224"
         inkscape:connector-curvature="0" /></g><text
       transform="matrix(1,0,0,-0.97109683,460.5,787.8203)"
       id="text226"><tspan
         style="font-size:9.2585001px;font-variant:normal;font-weight:normal;font-stretch:normal;writing-mode:lr-tb;fill:#000000;fill-opacity:1;fill-rule:nonzero;stroke:none;font-family:Arial;-inkscape-font-specification:Helvetica"
         x="0 5.1477261 10.804669 13.88775 19.035477 24.183203 29.330929 33.960178 39.107903 41.163292 45.792542 50.940266 56.087994"
         y="0"
         sodipodi:role="line"
         id="tspan228">8Fragezeichen</tspan></text>
<g
       id="g230"
       transform="translate(367.26,782.06)"><path
         d="m 0,0 c 0,10.8 -38.82,19.56 -86.64,19.56 -47.82,0 -86.58,-8.76 -86.58,-19.56 0,-10.8 38.76,-19.62 86.58,-19.62 C -38.82,-19.62 0,-10.8 0,0 z"
         style="fill:#c0c0c0;fill-opacity:1;fill-rule:nonzero;stroke:#c0c0c0;stroke-width:0.81699997;stroke-linecap:round;stroke-linejoin:round;stroke-miterlimit:10;stroke-opacity:1;stroke-dasharray:none"
         id="path232"
         inkscape:connector-curvature="0" /></g><g
       id="g234"
       transform="translate(365.64,783.68)"><path
         d="m 0,0 c 0,10.8 -38.82,19.56 -86.64,19.56 -47.82,0 -86.58,-8.76 -86.58,-19.56 0,-10.8 38.76,-19.62 86.58,-19.62 C -38.82,-19.62 0,-10.8 0,0 z"
         style="fill:#b0e0df;fill-opacity:1;fill-rule:nonzero;stroke:#000000;stroke-width:0.81699997;stroke-linecap:round;stroke-linejoin:round;stroke-miterlimit:10;stroke-opacity:1;stroke-dasharray:none"
         id="path236"
         inkscape:connector-curvature="0" /></g><g
       id="g238"
       transform="translate(364.8,783.68)"><path
         d="m 0,0 c 0,10.38 -38.46,18.78 -85.8,18.78 -47.4,0 -85.8,-8.4 -85.8,-18.78 0,-10.32 38.4,-18.78 85.8,-18.78 47.34,0 85.8,8.46 85.8,18.78 z"
         style="fill:#b0e0df;fill-opacity:1;fill-rule:nonzero;stroke:#ffffff;stroke-width:0.81699997;stroke-linecap:round;stroke-linejoin:round;stroke-miterlimit:10;stroke-opacity:1;stroke-dasharray:none"
         id="path240"
         inkscape:connector-curvature="0" /></g><text
       transform="matrix(1,0,0,-0.97109683,234.9,781.2803)"
       id="text242"><tspan
         style="font-size:9.2585001px;font-variant:normal;font-weight:normal;font-stretch:normal;writing-mode:lr-tb;fill:#000000;fill-opacity:1;fill-rule:nonzero;stroke:none;font-family:Arial;-inkscape-font-specification:Helvetica"
         x="12.869315 15.443178 21.100122 26.247847 31.395573 34.478653 39.626381 44.774105 49.921833 55.069557 57.643421 60.217285 65.365013 70.512733 72.568123 77.715851 82.863579 88.011299"
         sodipodi:role="line"
         id="tspan244"> Therapeut anlegen</tspan></text>
</g></svg>