<?xml version="1.0" encoding="UTF-8" standalone="no"?>
<!-- Created with Inkscape (http://www.inkscape.org/) -->

<svg
   xmlns:dc="http://purl.org/dc/elements/1.1/"
   xmlns:cc="http://creativecommons.org/ns#"
   xmlns:rdf="http://www.w3.org/1999/02/22-rdf-syntax-ns#"
   xmlns:svg="http://www.w3.org/2000/svg"
   xmlns="http://www.w3.org/2000/svg"
   xmlns:xlink="http://www.w3.org/1999/xlink"
   xmlns:sodipodi="http://sodipodi.sourceforge.net/DTD/sodipodi-0.dtd"
   xmlns:inkscape="http://www.inkscape.org/namespaces/inkscape"
   id="svg2"
   version="1.1"
   inkscape:version="0.48.4 r9939"
   width="636.18829"
   height="486.53436"
   xml:space="preserve"
   sodipodi:docname="3_AktivitaetsdatenVerwalten.svg"><metadata
     id="metadata8"><rdf:RDF><cc:Work
         rdf:about=""><dc:format>image/svg+xml</dc:format><dc:type
           rdf:resource="http://purl.org/dc/dcmitype/StillImage" /><dc:title /></cc:Work></rdf:RDF></metadata><defs
     id="defs6"><mask
       maskUnits="userSpaceOnUse"
       x="0"
       y="0"
       width="1"
       height="1"
       id="mask286"><image
         width="1"
         height="1"
         xlink:href="data:image/png;base64,iVBORw0KGgoAAAANSUhEUgAAACAAAAAgCAAAAABWESUoAAAAAXNCSVQI5gpbmQAAAGtJREFUOI29klEOwCAIQ+nuf+fuZzMWqpsxkR9D+xAkRuwG+oRVkoyuCNVX4nJ9+QXEWcA9U0SzqOEeHiQpP2fg0JncwKUWfdnqkAqYYQ/8KKiP96hAMxKB7GcCxU+JK5IUxhehbXL2jfbiBjDmGifp2BihAAAAAElFTkSuQmCC"
         id="image288" /></mask><mask
       maskUnits="userSpaceOnUse"
       x="0"
       y="0"
       width="1"
       height="1"
       id="mask332"><image
         width="1"
         height="1"
         xlink:href="data:image/png;base64,iVBORw0KGgoAAAANSUhEUgAAACAAAAAgCAAAAABWESUoAAAAAXNCSVQI5gpbmQAAAGtJREFUOI29klEOwCAIQ+nuf+fuZzMWqpsxkR9D+xAkRuwG+oRVkoyuCNVX4nJ9+QXEWcA9U0SzqOEeHiQpP2fg0JncwKUWfdnqkAqYYQ/8KKiP96hAMxKB7GcCxU+JK5IUxhehbXL2jfbiBjDmGifp2BihAAAAAElFTkSuQmCC"
         id="image334" /></mask></defs><sodipodi:namedview
     pagecolor="#ffffff"
     bordercolor="#666666"
     borderopacity="1"
     objecttolerance="10"
     gridtolerance="10"
     guidetolerance="10"
     inkscape:pageopacity="0"
     inkscape:pageshadow="2"
     inkscape:window-width="1364"
     inkscape:window-height="720"
     id="namedview4"
     showgrid="false"
     fit-margin-top="0"
     fit-margin-left="0"
     fit-margin-right="0"
     fit-margin-bottom="0"
     inkscape:zoom="1.2684253"
     inkscape:cx="459.07784"
     inkscape:cy="440.59626"
     inkscape:window-x="0"
     inkscape:window-y="0"
     inkscape:window-maximized="1"
     inkscape:current-layer="g10" /><g
     id="g10"
     inkscape:groupmode="layer"
     inkscape:label="4_Aktivitätsdaten verwalten"
     transform="matrix(1.25,0,0,-1.25,-44.671088,1008.2531)"><g
       id="g12"
       transform="translate(155.82,620.6)"><path
         d="M 0,0 41.46,0"
         style="fill:none;stroke:#cdcdcd;stroke-width:0.86299998;stroke-linecap:round;stroke-linejoin:round;stroke-miterlimit:10;stroke-opacity:1;stroke-dasharray:none"
         id="path14"
         inkscape:connector-curvature="0" /></g><path
       d="m 197.28,620.54 0.06,0 0,0.0601 -0.06,0 0,-0.0601 z"
       style="fill:#cdcdcd;fill-opacity:1;fill-rule:nonzero;stroke:none"
       id="path16"
       inkscape:connector-curvature="0" /><g
       id="g18"
       transform="translate(155.82,621.44)"><path
         d="M 0,0 41.46,0"
         style="fill:none;stroke:#000000;stroke-width:0.86299998;stroke-linecap:round;stroke-linejoin:round;stroke-miterlimit:10;stroke-opacity:1;stroke-dasharray:none"
         id="path20"
         inkscape:connector-curvature="0" /></g><path
       d="m 197.28,621.38 0.06,0 0,0.06 -0.06,0 0,-0.06 z"
       style="fill:#000000;fill-opacity:1;fill-rule:nonzero;stroke:none"
       id="path22"
       inkscape:connector-curvature="0" /><g
       id="g24"
       transform="translate(186,625.76)"><path
         d="M 0,0 11.28,-4.32 0,-8.64 3.48,-4.32 0,0 z"
         style="fill:#000000;fill-opacity:1;fill-rule:nonzero;stroke:#000000;stroke-width:0.86299998;stroke-linecap:round;stroke-linejoin:round;stroke-miterlimit:10;stroke-opacity:1;stroke-dasharray:none"
         id="path26"
         inkscape:connector-curvature="0" /></g><g
       id="g28"
       transform="translate(167.04,617.12)"><path
         d="M 0,0 -11.22,4.32 0,8.64 -3.48,4.32 0,0 z"
         style="fill:#000000;fill-opacity:1;fill-rule:nonzero;stroke:#000000;stroke-width:0.86299998;stroke-linecap:round;stroke-linejoin:round;stroke-miterlimit:10;stroke-opacity:1;stroke-dasharray:none"
         id="path30"
         inkscape:connector-curvature="0" /></g><g
       id="g32"
       transform="translate(155.82,611.96)"><path
         d="M 0,0 67.32,-33.66"
         style="fill:none;stroke:#cdcdcd;stroke-width:0.86299998;stroke-linecap:round;stroke-linejoin:round;stroke-miterlimit:10;stroke-opacity:1;stroke-dasharray:none"
         id="path34"
         inkscape:connector-curvature="0" /></g><path
       d="m 223.14,578.24 0.06,0 0,0.0599 -0.06,0 0,-0.0599 z"
       style="fill:#cdcdcd;fill-opacity:1;fill-rule:nonzero;stroke:none"
       id="path36"
       inkscape:connector-curvature="0" /><g
       id="g38"
       transform="translate(155.82,612.8)"><path
         d="M 0,0 67.32,-33.66"
         style="fill:none;stroke:#000000;stroke-width:0.86299998;stroke-linecap:round;stroke-linejoin:round;stroke-miterlimit:10;stroke-opacity:1;stroke-dasharray:none"
         id="path40"
         inkscape:connector-curvature="0" /></g><path
       d="m 223.14,579.08 0.06,0 0,0.06 -0.06,0 0,-0.06 z"
       style="fill:#000000;fill-opacity:1;fill-rule:nonzero;stroke:none"
       id="path42"
       inkscape:connector-curvature="0" /><g
       id="g44"
       transform="translate(214.5,587.78)"><path
         d="M 0,0 8.64,-8.64 -3.42,-6.9 1.74,-5.16 0,0 z"
         style="fill:#000000;fill-opacity:1;fill-rule:nonzero;stroke:#000000;stroke-width:0.86299998;stroke-linecap:round;stroke-linejoin:round;stroke-miterlimit:10;stroke-opacity:1;stroke-dasharray:none"
         id="path46"
         inkscape:connector-curvature="0" /></g><g
       id="g48"
       transform="translate(164.46,604.16)"><path
         d="M 0,0 -8.64,8.64 3.42,6.96 -1.74,5.22 0,0 z"
         style="fill:#000000;fill-opacity:1;fill-rule:nonzero;stroke:#000000;stroke-width:0.86299998;stroke-linecap:round;stroke-linejoin:round;stroke-miterlimit:10;stroke-opacity:1;stroke-dasharray:none"
         id="path50"
         inkscape:connector-curvature="0" /></g><g
       id="g52"
       transform="translate(148.02,601.58)"><path
         d="M 0,0 97.56,-139.86"
         style="fill:none;stroke:#cdcdcd;stroke-width:0.86299998;stroke-linecap:round;stroke-linejoin:round;stroke-miterlimit:10;stroke-opacity:1;stroke-dasharray:none"
         id="path54"
         inkscape:connector-curvature="0" /></g><path
       d="m 245.58,461.66 0.06,0 0,0.06 -0.06,0 0,-0.06 z"
       style="fill:#cdcdcd;fill-opacity:1;fill-rule:nonzero;stroke:none"
       id="path56"
       inkscape:connector-curvature="0" /><g
       id="g58"
       transform="translate(147.18,601.58)"><path
         d="M 0,0 97.56,-139.86"
         style="fill:none;stroke:#000000;stroke-width:0.86299998;stroke-linecap:round;stroke-linejoin:round;stroke-miterlimit:10;stroke-opacity:1;stroke-dasharray:none"
         id="path60"
         inkscape:connector-curvature="0" /></g><path
       d="m 244.74,461.66 0.06,0 0,0.06 -0.06,0 0,-0.06 z"
       style="fill:#000000;fill-opacity:1;fill-rule:nonzero;stroke:none"
       id="path62"
       inkscape:connector-curvature="0" /><g
       id="g64"
       transform="translate(241.26,473.84)"><path
         d="M 0,0 3.48,-12.12 -6,-5.22 -0.84,-6.06 0,0 z"
         style="fill:#000000;fill-opacity:1;fill-rule:nonzero;stroke:#000000;stroke-width:0.86299998;stroke-linecap:round;stroke-linejoin:round;stroke-miterlimit:10;stroke-opacity:1;stroke-dasharray:none"
         id="path66"
         inkscape:connector-curvature="0" /></g><g
       id="g68"
       transform="translate(150.66,589.52)"><path
         d="M 0,0 -3.48,12.06 6,5.16 0.84,6.06 0,0 z"
         style="fill:#000000;fill-opacity:1;fill-rule:nonzero;stroke:#000000;stroke-width:0.86299998;stroke-linecap:round;stroke-linejoin:round;stroke-miterlimit:10;stroke-opacity:1;stroke-dasharray:none"
         id="path70"
         inkscape:connector-curvature="0" /></g><g
       id="g72"
       transform="translate(422.58,637.88)"><path
         d="M 0,0 -50.94,-17.28"
         style="fill:none;stroke:#cdcdcd;stroke-width:0.86299998;stroke-linecap:round;stroke-linejoin:round;stroke-miterlimit:10;stroke-opacity:1;stroke-dasharray:none"
         id="path74"
         inkscape:connector-curvature="0" /></g><path
       d="m 371.64,620.54 0.06,0 0,0.0601 -0.06,0 0,-0.0601 z"
       style="fill:#cdcdcd;fill-opacity:1;fill-rule:nonzero;stroke:none"
       id="path76"
       inkscape:connector-curvature="0" /><g
       id="g78"
       transform="translate(422.58,638.72)"><path
         d="M 0,0 -50.94,-17.28"
         style="fill:none;stroke:#000000;stroke-width:0.86299998;stroke-linecap:round;stroke-linejoin:round;stroke-miterlimit:10;stroke-opacity:1;stroke-dasharray:none"
         id="path80"
         inkscape:connector-curvature="0" /></g><path
       d="m 371.64,621.38 0.06,0 0,0.06 -0.06,0 0,-0.06 z"
       style="fill:#000000;fill-opacity:1;fill-rule:nonzero;stroke:none"
       id="path82"
       inkscape:connector-curvature="0" /><g
       id="g84"
       transform="translate(410.52,638.72)"><path
         d="M 0,0 12.06,0 2.58,-7.8 5.16,-2.58 0,0 z"
         style="fill:#000000;fill-opacity:1;fill-rule:nonzero;stroke:#000000;stroke-width:0.86299998;stroke-linecap:round;stroke-linejoin:round;stroke-miterlimit:10;stroke-opacity:1;stroke-dasharray:none"
         id="path86"
         inkscape:connector-curvature="0" /></g><g
       id="g88"
       transform="translate(422.58,655.1)"><path
         d="M 0,0 -104.46,11.22"
         style="fill:none;stroke:#cdcdcd;stroke-width:0.86299998;stroke-linecap:round;stroke-linejoin:round;stroke-miterlimit:10;stroke-opacity:1;stroke-dasharray:none"
         id="path90"
         inkscape:connector-curvature="0" /></g><path
       d="m 318.12,666.26 0.06,0 0,0.06 -0.06,0 0,-0.06 z"
       style="fill:#cdcdcd;fill-opacity:1;fill-rule:nonzero;stroke:none"
       id="path92"
       inkscape:connector-curvature="0" /><g
       id="g94"
       transform="translate(422.58,656)"><path
         d="M 0,0 -104.46,11.22"
         style="fill:none;stroke:#000000;stroke-width:0.86299998;stroke-linecap:round;stroke-linejoin:round;stroke-miterlimit:10;stroke-opacity:1;stroke-dasharray:none"
         id="path96"
         inkscape:connector-curvature="0" /></g><path
       d="m 318.12,667.16 0.06,0 0,0.0601 -0.06,0 0,-0.0601 z"
       style="fill:#000000;fill-opacity:1;fill-rule:nonzero;stroke:none"
       id="path98"
       inkscape:connector-curvature="0" /><g
       id="g100"
       transform="translate(329.34,662)"><path
         d="M 0,0 -11.22,5.22 0.84,7.8 -3.48,4.32 0,0 z"
         style="fill:#000000;fill-opacity:1;fill-rule:nonzero;stroke:#000000;stroke-width:0.86299998;stroke-linecap:round;stroke-linejoin:round;stroke-miterlimit:10;stroke-opacity:1;stroke-dasharray:none"
         id="path102"
         inkscape:connector-curvature="0" /></g><g
       id="g104"
       transform="translate(411.36,661.16)"><path
         d="M 0,0 11.22,-5.16 -0.84,-7.74 3.48,-4.32 0,0 z"
         style="fill:#000000;fill-opacity:1;fill-rule:nonzero;stroke:#000000;stroke-width:0.86299998;stroke-linecap:round;stroke-linejoin:round;stroke-miterlimit:10;stroke-opacity:1;stroke-dasharray:none"
         id="path106"
         inkscape:connector-curvature="0" /></g><g
       id="g108"
       transform="translate(432.96,668.06)"><path
         d="M 0,0 -17.28,48.36"
         style="fill:none;stroke:#cdcdcd;stroke-width:0.86299998;stroke-linecap:round;stroke-linejoin:round;stroke-miterlimit:10;stroke-opacity:1;stroke-dasharray:none"
         id="path110"
         inkscape:connector-curvature="0" /></g><path
       d="m 415.68,716.36 0.06,0 0,0.06 -0.06,0 0,-0.06 z"
       style="fill:#cdcdcd;fill-opacity:1;fill-rule:nonzero;stroke:none"
       id="path112"
       inkscape:connector-curvature="0" /><g
       id="g114"
       transform="translate(432.06,668.06)"><path
         d="M 0,0 -17.22,48.36"
         style="fill:none;stroke:#000000;stroke-width:0.86299998;stroke-linecap:round;stroke-linejoin:round;stroke-miterlimit:10;stroke-opacity:1;stroke-dasharray:none"
         id="path116"
         inkscape:connector-curvature="0" /></g><path
       d="m 414.84,716.36 0.06,0 0,0.06 -0.06,0 0,-0.06 z"
       style="fill:#000000;fill-opacity:1;fill-rule:nonzero;stroke:none"
       id="path118"
       inkscape:connector-curvature="0" /><g
       id="g120"
       transform="translate(432.06,680.18)"><path
         d="M 0,0 0,-12.12 -7.74,-2.64 -2.58,-5.22 0,0 z"
         style="fill:#000000;fill-opacity:1;fill-rule:nonzero;stroke:#000000;stroke-width:0.86299998;stroke-linecap:round;stroke-linejoin:round;stroke-miterlimit:10;stroke-opacity:1;stroke-dasharray:none"
         id="path122"
         inkscape:connector-curvature="0" /></g><g
       id="g124"
       transform="translate(148.02,642.14)"><path
         d="M 0,0 8.64,108.78"
         style="fill:none;stroke:#cdcdcd;stroke-width:0.86299998;stroke-linecap:round;stroke-linejoin:round;stroke-miterlimit:10;stroke-opacity:1;stroke-dasharray:none"
         id="path126"
         inkscape:connector-curvature="0" /></g><path
       d="m 156.66,750.86 0.06,0 0,0.0599 -0.06,0 0,-0.0599 z"
       style="fill:#cdcdcd;fill-opacity:1;fill-rule:nonzero;stroke:none"
       id="path128"
       inkscape:connector-curvature="0" /><g
       id="g130"
       transform="translate(147.18,642.14)"><path
         d="M 0,0 8.64,108.78"
         style="fill:none;stroke:#000000;stroke-width:0.86299998;stroke-linecap:round;stroke-linejoin:round;stroke-miterlimit:10;stroke-opacity:1;stroke-dasharray:none"
         id="path132"
         inkscape:connector-curvature="0" /></g><path
       d="m 155.82,750.86 0.06,0 0,0.0599 -0.06,0 0,-0.0599 z"
       style="fill:#000000;fill-opacity:1;fill-rule:nonzero;stroke:none"
       id="path134"
       inkscape:connector-curvature="0" /><g
       id="g136"
       transform="translate(152.34,653.42)"><path
         d="M 0,0 -5.16,-11.28 -8.64,0 -4.32,-3.48 0,0 z"
         style="fill:#000000;fill-opacity:1;fill-rule:nonzero;stroke:#000000;stroke-width:0.86299998;stroke-linecap:round;stroke-linejoin:round;stroke-miterlimit:10;stroke-opacity:1;stroke-dasharray:none"
         id="path138"
         inkscape:connector-curvature="0" /></g><g
       id="g140"
       transform="translate(321.6,784.64)"><path
         d="M 0,0 48.3,0"
         style="fill:none;stroke:#9affff;stroke-width:0.86299998;stroke-linecap:round;stroke-linejoin:round;stroke-miterlimit:10;stroke-opacity:1;stroke-dasharray:none"
         id="path142"
         inkscape:connector-curvature="0" /></g><path
       d="m 369.9,784.58 0.06,0 0,0.06 -0.06,0 0,-0.06 z"
       style="fill:#9affff;fill-opacity:1;fill-rule:nonzero;stroke:none"
       id="path144"
       inkscape:connector-curvature="0" /><g
       id="g146"
       transform="translate(321.6,785.48)"><path
         d="M 0,0 48.3,0"
         style="fill:none;stroke:#008080;stroke-width:0.86299998;stroke-linecap:round;stroke-linejoin:round;stroke-miterlimit:10;stroke-opacity:1;stroke-dasharray:none"
         id="path148"
         inkscape:connector-curvature="0" /></g><path
       d="m 369.9,785.42 0.06,0 0,0.0601 -0.06,0 0,-0.0601 z"
       style="fill:#008080;fill-opacity:1;fill-rule:nonzero;stroke:none"
       id="path150"
       inkscape:connector-curvature="0" /><g
       id="g152"
       transform="translate(358.68,789.8)"><path
         d="M 0,0 11.22,-4.32 0,-8.64 0,0 z"
         style="fill:#008080;fill-opacity:1;fill-rule:nonzero;stroke:#008080;stroke-width:0.86299998;stroke-linecap:round;stroke-linejoin:round;stroke-miterlimit:10;stroke-opacity:1;stroke-dasharray:none"
         id="path154"
         inkscape:connector-curvature="0" /></g><g
       id="g156"
       transform="translate(147.18,600.74)"><path
         d="M 0,0 89.76,-80.28"
         style="fill:none;stroke:#cdcdcd;stroke-width:0.86299998;stroke-linecap:round;stroke-linejoin:round;stroke-miterlimit:10;stroke-opacity:1;stroke-dasharray:none"
         id="path158"
         inkscape:connector-curvature="0" /></g><path
       d="m 236.94,520.4 0.06,0 0,0.06 -0.06,0 0,-0.06 z"
       style="fill:#cdcdcd;fill-opacity:1;fill-rule:nonzero;stroke:none"
       id="path160"
       inkscape:connector-curvature="0" /><g
       id="g162"
       transform="translate(147.18,601.58)"><path
         d="M 0,0 89.76,-80.28"
         style="fill:none;stroke:#000000;stroke-width:0.86299998;stroke-linecap:round;stroke-linejoin:round;stroke-miterlimit:10;stroke-opacity:1;stroke-dasharray:none"
         id="path164"
         inkscape:connector-curvature="0" /></g><path
       d="m 236.94,521.24 0.06,0 0,0.0599 -0.06,0 0,-0.0599 z"
       style="fill:#000000;fill-opacity:1;fill-rule:nonzero;stroke:none"
       id="path166"
       inkscape:connector-curvature="0" /><g
       id="g168"
       transform="translate(230.94,531.68)"><path
         d="M 0,0 6,-10.38 -5.22,-6.06 0,-5.22 0,0 z"
         style="fill:#000000;fill-opacity:1;fill-rule:nonzero;stroke:#000000;stroke-width:0.86299998;stroke-linecap:round;stroke-linejoin:round;stroke-miterlimit:10;stroke-opacity:1;stroke-dasharray:none"
         id="path170"
         inkscape:connector-curvature="0" /></g><g
       id="g172"
       transform="translate(153.24,591.26)"><path
         d="M 0,0 -6.06,10.32 5.16,6 0,5.16 0,0 z"
         style="fill:#000000;fill-opacity:1;fill-rule:nonzero;stroke:#000000;stroke-width:0.86299998;stroke-linecap:round;stroke-linejoin:round;stroke-miterlimit:10;stroke-opacity:1;stroke-dasharray:none"
         id="path174"
         inkscape:connector-curvature="0" /></g><g
       id="g180"
       transform="translate(371.64,620.6)"><path
         d="M 0,0 -50.04,0"
         style="fill:none;stroke:#cdcdcd;stroke-width:0.86299998;stroke-linecap:round;stroke-linejoin:round;stroke-miterlimit:10;stroke-opacity:1;stroke-dasharray:none"
         id="path182"
         inkscape:connector-curvature="0" /></g><path
       d="m 321.6,620.54 0.06,0 0,0.0601 -0.06,0 0,-0.0601 z"
       style="fill:#cdcdcd;fill-opacity:1;fill-rule:nonzero;stroke:none"
       id="path184"
       inkscape:connector-curvature="0" /><g
       id="g186"
       transform="translate(371.64,621.44)"><path
         d="M 0,0 -50.04,0"
         style="fill:none;stroke:#000000;stroke-width:0.86299998;stroke-linecap:round;stroke-linejoin:round;stroke-miterlimit:10;stroke-opacity:1;stroke-dasharray:none"
         id="path188"
         inkscape:connector-curvature="0" /></g><path
       d="m 321.6,621.38 0.06,0 0,0.06 -0.06,0 0,-0.06 z"
       style="fill:#000000;fill-opacity:1;fill-rule:nonzero;stroke:none"
       id="path190"
       inkscape:connector-curvature="0" /><g
       id="g192"
       transform="translate(332.82,617.12)"><path
         d="M 0,0 -11.22,4.32 0,8.64 -3.48,4.32 0,0 z"
         style="fill:#000000;fill-opacity:1;fill-rule:nonzero;stroke:#000000;stroke-width:0.86299998;stroke-linecap:round;stroke-linejoin:round;stroke-miterlimit:10;stroke-opacity:1;stroke-dasharray:none"
         id="path194"
         inkscape:connector-curvature="0" /></g><g
       id="g200"
       transform="translate(147.18,641.3)"><path
         d="M 0,0 85.44,63.9"
         style="fill:none;stroke:#cdcdcd;stroke-width:0.86299998;stroke-linecap:round;stroke-linejoin:round;stroke-miterlimit:10;stroke-opacity:1;stroke-dasharray:none"
         id="path202"
         inkscape:connector-curvature="0" /></g><path
       d="m 232.62,705.14 0.06,0 0,0.0601 -0.06,0 0,-0.0601 z"
       style="fill:#cdcdcd;fill-opacity:1;fill-rule:nonzero;stroke:none"
       id="path204"
       inkscape:connector-curvature="0" /><g
       id="g206"
       transform="translate(147.18,642.14)"><path
         d="M 0,0 85.44,63.9"
         style="fill:none;stroke:#000000;stroke-width:0.86299998;stroke-linecap:round;stroke-linejoin:round;stroke-miterlimit:10;stroke-opacity:1;stroke-dasharray:none"
         id="path208"
         inkscape:connector-curvature="0" /></g><path
       d="m 232.62,705.98 0.06,0 0,0.0599 -0.06,0 0,-0.0599 z"
       style="fill:#000000;fill-opacity:1;fill-rule:nonzero;stroke:none"
       id="path210"
       inkscape:connector-curvature="0" /><g
       id="g212"
       transform="translate(221.4,702.62)"><path
         d="M 0,0 11.22,3.42 4.32,-6.9 5.22,-0.9 0,0 z"
         style="fill:#000000;fill-opacity:1;fill-rule:nonzero;stroke:#000000;stroke-width:0.86299998;stroke-linecap:round;stroke-linejoin:round;stroke-miterlimit:10;stroke-opacity:1;stroke-dasharray:none"
         id="path214"
         inkscape:connector-curvature="0" /></g><g
       id="g216"
       transform="translate(158.4,645.62)"><path
         d="M 0,0 -11.22,-3.48 -4.32,6.9 -5.16,0.84 0,0 z"
         style="fill:#000000;fill-opacity:1;fill-rule:nonzero;stroke:#000000;stroke-width:0.86299998;stroke-linecap:round;stroke-linejoin:round;stroke-miterlimit:10;stroke-opacity:1;stroke-dasharray:none"
         id="path218"
         inkscape:connector-curvature="0" /></g><g
       id="g224"
       transform="translate(414.84,715.52)"><path
         d="M 0,0 -117.42,52.68"
         style="fill:none;stroke:#cdcdcd;stroke-width:0.86299998;stroke-linecap:round;stroke-linejoin:round;stroke-miterlimit:10;stroke-opacity:1;stroke-dasharray:none"
         id="path226"
         inkscape:connector-curvature="0" /></g><path
       d="m 297.42,768.14 0.06,0 0,0.06 -0.06,0 0,-0.06 z"
       style="fill:#cdcdcd;fill-opacity:1;fill-rule:nonzero;stroke:none"
       id="path228"
       inkscape:connector-curvature="0" /><g
       id="g230"
       transform="translate(414.84,716.42)"><path
         d="M 0,0 -117.42,52.68"
         style="fill:none;stroke:#000000;stroke-width:0.86299998;stroke-linecap:round;stroke-linejoin:round;stroke-miterlimit:10;stroke-opacity:1;stroke-dasharray:none"
         id="path232"
         inkscape:connector-curvature="0" /></g><path
       d="m 297.42,769.04 0.06,0 0,0.0601 -0.06,0 0,-0.0601 z"
       style="fill:#000000;fill-opacity:1;fill-rule:nonzero;stroke:none"
       id="path234"
       inkscape:connector-curvature="0" /><g
       id="g236"
       transform="translate(306.06,760.46)"><path
         d="M 0,0 -8.64,8.64 3.42,7.74 -1.74,5.16 0,0 z"
         style="fill:#000000;fill-opacity:1;fill-rule:nonzero;stroke:#000000;stroke-width:0.86299998;stroke-linecap:round;stroke-linejoin:round;stroke-miterlimit:10;stroke-opacity:1;stroke-dasharray:none"
         id="path238"
         inkscape:connector-curvature="0" /></g><g
       id="g240"
       transform="translate(155.82,750.08)"><path
         d="M 0,0 58.68,19.86"
         style="fill:none;stroke:#cdcdcd;stroke-width:0.86299998;stroke-linecap:round;stroke-linejoin:round;stroke-miterlimit:10;stroke-opacity:1;stroke-dasharray:none"
         id="path242"
         inkscape:connector-curvature="0" /></g><path
       d="m 214.5,769.88 0.06,0 0,0.06 -0.06,0 0,-0.06 z"
       style="fill:#cdcdcd;fill-opacity:1;fill-rule:nonzero;stroke:none"
       id="path244"
       inkscape:connector-curvature="0" /><g
       id="g246"
       transform="translate(155.82,750.92)"><path
         d="M 0,0 58.68,19.86"
         style="fill:none;stroke:#000000;stroke-width:0.86299998;stroke-linecap:round;stroke-linejoin:round;stroke-miterlimit:10;stroke-opacity:1;stroke-dasharray:none"
         id="path248"
         inkscape:connector-curvature="0" /></g><path
       d="m 214.5,770.72 0.06,0 0,0.0599 -0.06,0 0,-0.0599 z"
       style="fill:#000000;fill-opacity:1;fill-rule:nonzero;stroke:none"
       id="path250"
       inkscape:connector-curvature="0" /><g
       id="g252"
       transform="translate(202.44,770.78)"><path
         d="M 0,0 12.06,0 2.58,-7.74 5.16,-2.58 0,0 z"
         style="fill:#000000;fill-opacity:1;fill-rule:nonzero;stroke:#000000;stroke-width:0.86299998;stroke-linecap:round;stroke-linejoin:round;stroke-miterlimit:10;stroke-opacity:1;stroke-dasharray:none"
         id="path254"
         inkscape:connector-curvature="0" /></g><g
       id="g256"
       transform="translate(322.38,619.76)"><path
         d="m 0,0 c 0,11.46 -27.48,20.7 -61.26,20.7 -33.84,0 -61.26,-9.24 -61.26,-20.7 0,-11.4 27.42,-20.7 61.26,-20.7 C -27.48,-20.7 0,-11.4 0,0 z"
         style="fill:#c0c0c0;fill-opacity:1;fill-rule:nonzero;stroke:#c0c0c0;stroke-width:0.86299998;stroke-linecap:round;stroke-linejoin:round;stroke-miterlimit:10;stroke-opacity:1;stroke-dasharray:none"
         id="path258"
         inkscape:connector-curvature="0" /></g><g
       id="g260"
       transform="translate(320.64,621.5)"><path
         d="m 0,0 c 0,11.4 -27.48,20.64 -61.26,20.64 -33.84,0 -61.26,-9.24 -61.26,-20.64 0,-11.4 27.42,-20.7 61.26,-20.7 C -27.48,-20.7 0,-11.4 0,0 z"
         style="fill:#b0e0df;fill-opacity:1;fill-rule:nonzero;stroke:#000000;stroke-width:0.86299998;stroke-linecap:round;stroke-linejoin:round;stroke-miterlimit:10;stroke-opacity:1;stroke-dasharray:none"
         id="path262"
         inkscape:connector-curvature="0" /></g><g
       id="g264"
       transform="translate(319.8,621.5)"><path
         d="m 0,0 c 0,10.92 -27.06,19.8 -60.42,19.8 -33.42,0 -60.42,-8.88 -60.42,-19.8 0,-10.98 27,-19.86 60.42,-19.86 C -27.06,-19.86 0,-10.98 0,0 z"
         style="fill:#b0e0df;fill-opacity:1;fill-rule:nonzero;stroke:#ffffff;stroke-width:0.86299998;stroke-linecap:round;stroke-linejoin:round;stroke-miterlimit:10;stroke-opacity:1;stroke-dasharray:none"
         id="path266"
         inkscape:connector-curvature="0" /></g><text
       transform="matrix(1,0,0,-0.9710511,217.98,618.9803)"
       id="text268"><tspan
         style="font-size:9.77929974px;font-variant:normal;font-weight:normal;font-stretch:normal;writing-mode:lr-tb;fill:#000000;fill-opacity:1;fill-rule:nonzero;stroke:none;font-family:Arial;-inkscape-font-specification:Helvetica"
         x="16.311872 22.834665 27.724316 30.442961 32.613964 37.503616 39.674622 42.393265 47.830555 50.549202 53.267849 58.157497 63.594788 68.484436 73.92173 79.359016"
         sodipodi:role="line"
         id="tspan270">Aktivität suchen</tspan></text>
<path
       d="m 155.76,638.72 -119.1,0 0,-36.18 119.1,0 0,36.18 z"
       style="fill:#ffffff;fill-opacity:1;fill-rule:nonzero;stroke:#ffffff;stroke-width:0.86299998;stroke-linecap:round;stroke-linejoin:miter;stroke-miterlimit:10;stroke-opacity:1;stroke-dasharray:none"
       id="path272"
       inkscape:connector-curvature="0" /><path
       d="m 155.76,637.88 -119.1,0 0,-34.5 119.1,0 0,34.5 z"
       style="fill:#dedbd6;fill-opacity:1;fill-rule:nonzero;stroke:#dedbd6;stroke-width:0.86299998;stroke-linecap:round;stroke-linejoin:miter;stroke-miterlimit:10;stroke-opacity:1;stroke-dasharray:none"
       id="path274"
       inkscape:connector-curvature="0" /><g
       id="g276"
       transform="translate(36.66,639.56)"><path
         d="M 0,0 118.26,0"
         style="fill:none;stroke:#000065;stroke-width:1.72599995;stroke-linecap:round;stroke-linejoin:round;stroke-miterlimit:10;stroke-opacity:1;stroke-dasharray:none"
         id="path278"
         inkscape:connector-curvature="0" /><g
         id="g280"
         transform="translate(0,-37.98)"><path
           d="M 0,0 118.26,0"
           style="fill:none;stroke:#000065;stroke-width:1.72599995;stroke-linecap:round;stroke-linejoin:round;stroke-miterlimit:10;stroke-opacity:1;stroke-dasharray:none"
           id="path282"
           inkscape:connector-curvature="0" /></g></g><g
       id="g284"
       transform="matrix(27.66,0,0,27.6,41.82,606.8)"><rect
         x="0"
         y="0"
         width="1"
         height="1"
         transform="matrix(1,0,0,-1,0,1)"
         style="fill:#000000;fill-opacity:1;fill-rule:nonzero"
         mask="url(#mask286)"
         id="rect290" /></g><g
       id="g292"
       transform="matrix(27.66,0,0,27.6,41.82,606.8)"><image
         width="1"
         height="1"
         transform="matrix(1,0,0,-1,0,1)"
         xlink:href="data:image/png;base64,iVBORw0KGgoAAAANSUhEUgAAACAAAAAgCAYAAABzenr0AAAABHNCSVQICAgIfAhkiAAAATRJREFUWIXtlj8OgjAUxj+NB8BjcAOYmeAGLh4AHWFzZLMjXoDFG+DE5KA38Bh6gzogaqCl7SsRY/ySBpL++X59vD46AcAxoqZjmgPAzHRClFYoj5dux3lNAjCKQJRW8k4vJwFMoJkD7zvnp1U92d91BxpGYvAcYEVPlAQyzgFAsnOiRj8FfwDtUwC8jqGwDgBgsYtkGRgBGEWg3MoXp5g34qTm5RxezllR0eY/2pfmQJipZ16d+jm/qcceNtKuj0SgrzoKKyFb+MpFk/0JuDpaY1WiJVCY/XISqtT+9xMvIwAlCUUXD+JlxBzgzYjFLljsWkPoA7TMRe8UCD0AgXmyDJ613wZCDSAxb2QL0Q+gMB8CQg6gaW4LIQYwNLeB6AIQzakQ0k9AMe+FkIhWigfU6D+jO6ULp2w+qguaAAAAAElFTkSuQmCC"
         id="image294" /></g><text
       transform="matrix(1,0,0,-0.9710511,87.6,619.8203)"
       id="text296"><tspan
         style="font-size:9.77929974px;font-variant:normal;font-weight:normal;font-stretch:normal;writing-mode:lr-tb;fill:#000000;fill-opacity:1;fill-rule:nonzero;stroke:none;font-family:Arial;-inkscape-font-specification:Helvetica"
         x="0 5.9751525 11.412443 16.849733 20.106241 25.543531 30.980822 36.418114 41.855404"
         y="0"
         sodipodi:role="line"
         id="tspan298">Therapeut</tspan></text>
<g
       id="g300"
       transform="translate(322.38,559.34)"><path
         d="m 0,0 c 0,11.46 -27.48,20.7 -61.26,20.7 -33.84,0 -61.26,-9.24 -61.26,-20.7 0,-11.4 27.42,-20.7 61.26,-20.7 C -27.48,-20.7 0,-11.4 0,0 z"
         style="fill:#c0c0c0;fill-opacity:1;fill-rule:nonzero;stroke:#c0c0c0;stroke-width:0.86299998;stroke-linecap:round;stroke-linejoin:round;stroke-miterlimit:10;stroke-opacity:1;stroke-dasharray:none"
         id="path302"
         inkscape:connector-curvature="0" /></g><g
       id="g304"
       transform="translate(320.64,561.08)"><path
         d="m 0,0 c 0,11.4 -27.48,20.64 -61.26,20.64 -33.84,0 -61.26,-9.24 -61.26,-20.64 0,-11.4 27.42,-20.7 61.26,-20.7 C -27.48,-20.7 0,-11.4 0,0 z"
         style="fill:#b0e0df;fill-opacity:1;fill-rule:nonzero;stroke:#000000;stroke-width:0.86299998;stroke-linecap:round;stroke-linejoin:round;stroke-miterlimit:10;stroke-opacity:1;stroke-dasharray:none"
         id="path306"
         inkscape:connector-curvature="0" /></g><g
       id="g308"
       transform="translate(319.8,561.08)"><path
         d="m 0,0 c 0,10.92 -27.06,19.8 -60.42,19.8 -33.42,0 -60.42,-8.88 -60.42,-19.8 0,-10.98 27,-19.86 60.42,-19.86 C -27.06,-19.86 0,-10.98 0,0 z"
         style="fill:#b0e0df;fill-opacity:1;fill-rule:nonzero;stroke:#ffffff;stroke-width:0.86299998;stroke-linecap:round;stroke-linejoin:round;stroke-miterlimit:10;stroke-opacity:1;stroke-dasharray:none"
         id="path310"
         inkscape:connector-curvature="0" /></g><text
       transform="matrix(1,0,0,-0.9710511,235.26,562.8803)"
       id="text312"><tspan
         style="font-size:9.77929974px;font-variant:normal;font-weight:normal;font-stretch:normal;writing-mode:lr-tb;fill:#000000;fill-opacity:1;fill-rule:nonzero;stroke:none;font-family:Arial;-inkscape-font-specification:Helvetica"
         x="16.311872 22.834665 27.724316 30.442961 32.613964 37.503616 39.674622 42.393265 47.830555"
         sodipodi:role="line"
         id="tspan314">Aktivität</tspan><tspan
         style="font-size:9.77929974px;font-variant:normal;font-weight:normal;font-stretch:normal;writing-mode:lr-tb;fill:#000000;fill-opacity:1;fill-rule:nonzero;stroke:none;font-family:Arial;-inkscape-font-specification:Helvetica"
         x="1.6800838 7.1173744 12.554666 17.991957 21.248463 26.685755 32.123043 34.294048 37.012695 42.449986"
         y="8.8972073"
         sodipodi:role="line"
         id="tspan316">bearbeiten</tspan></text>
<path
       d="m 544.26,664.64 -119.1,0 0,-36.24 119.1,0 0,36.24 z"
       style="fill:#ffffff;fill-opacity:1;fill-rule:nonzero;stroke:#ffffff;stroke-width:0.86299998;stroke-linecap:round;stroke-linejoin:miter;stroke-miterlimit:10;stroke-opacity:1;stroke-dasharray:none"
       id="path318"
       inkscape:connector-curvature="0" /><path
       d="m 544.26,663.74 -119.1,0 0,-34.44 119.1,0 0,34.44 z"
       style="fill:#dedbd6;fill-opacity:1;fill-rule:nonzero;stroke:#dedbd6;stroke-width:0.86299998;stroke-linecap:round;stroke-linejoin:miter;stroke-miterlimit:10;stroke-opacity:1;stroke-dasharray:none"
       id="path320"
       inkscape:connector-curvature="0" /><g
       id="g322"
       transform="translate(425.16,665.48)"><path
         d="M 0,0 118.32,0"
         style="fill:none;stroke:#000065;stroke-width:1.72599995;stroke-linecap:round;stroke-linejoin:round;stroke-miterlimit:10;stroke-opacity:1;stroke-dasharray:none"
         id="path324"
         inkscape:connector-curvature="0" /><g
         id="g326"
         transform="translate(0,-37.98)"><path
           d="M 0,0 118.32,0"
           style="fill:none;stroke:#000065;stroke-width:1.72599995;stroke-linecap:round;stroke-linejoin:round;stroke-miterlimit:10;stroke-opacity:1;stroke-dasharray:none"
           id="path328"
           inkscape:connector-curvature="0" /></g></g><g
       id="g330"
       transform="matrix(27.6,0,0,27.66,430.38,632.66)"><rect
         x="0"
         y="0"
         width="1"
         height="1"
         transform="matrix(1,0,0,-1,0,1)"
         style="fill:#000000;fill-opacity:1;fill-rule:nonzero"
         mask="url(#mask332)"
         id="rect336" /></g><g
       id="g338"
       transform="matrix(27.6,0,0,27.66,430.38,632.66)"><image
         width="1"
         height="1"
         transform="matrix(1,0,0,-1,0,1)"
         xlink:href="data:image/png;base64,iVBORw0KGgoAAAANSUhEUgAAACAAAAAgCAYAAABzenr0AAAABHNCSVQICAgIfAhkiAAAATRJREFUWIXtlj8OgjAUxj+NB8BjcAOYmeAGLh4AHWFzZLMjXoDFG+DE5KA38Bh6gzogaqCl7SsRY/ySBpL++X59vD46AcAxoqZjmgPAzHRClFYoj5dux3lNAjCKQJRW8k4vJwFMoJkD7zvnp1U92d91BxpGYvAcYEVPlAQyzgFAsnOiRj8FfwDtUwC8jqGwDgBgsYtkGRgBGEWg3MoXp5g34qTm5RxezllR0eY/2pfmQJipZ16d+jm/qcceNtKuj0SgrzoKKyFb+MpFk/0JuDpaY1WiJVCY/XISqtT+9xMvIwAlCUUXD+JlxBzgzYjFLljsWkPoA7TMRe8UCD0AgXmyDJ613wZCDSAxb2QL0Q+gMB8CQg6gaW4LIQYwNLeB6AIQzakQ0k9AMe+FkIhWigfU6D+jO6ULp2w+qguaAAAAAElFTkSuQmCC"
         id="image340" /></g><text
       transform="matrix(1,0,0,-0.9710511,483,645.7403)"
       id="text342"><tspan
         style="font-size:9.77929974px;font-variant:normal;font-weight:normal;font-stretch:normal;writing-mode:lr-tb;fill:#000000;fill-opacity:1;fill-rule:nonzero;stroke:none;font-family:Arial;-inkscape-font-specification:Helvetica"
         x="0 6.5227933 11.960084 14.678729 16.849733 22.287025 27.724316"
         y="0"
         sodipodi:role="line"
         id="tspan344">Patient</tspan></text>
<g
       id="g346"
       transform="translate(322.38,671.54)"><path
         d="m 0,0 c 0,11.46 -27.48,20.7 -61.26,20.7 -33.84,0 -61.26,-9.24 -61.26,-20.7 0,-11.4 27.42,-20.7 61.26,-20.7 C -27.48,-20.7 0,-11.4 0,0 z"
         style="fill:#c0c0c0;fill-opacity:1;fill-rule:nonzero;stroke:#c0c0c0;stroke-width:0.86299998;stroke-linecap:round;stroke-linejoin:round;stroke-miterlimit:10;stroke-opacity:1;stroke-dasharray:none"
         id="path348"
         inkscape:connector-curvature="0" /></g><g
       id="g350"
       transform="translate(320.64,673.28)"><path
         d="m 0,0 c 0,11.46 -27.48,20.7 -61.26,20.7 -33.84,0 -61.26,-9.24 -61.26,-20.7 0,-11.4 27.42,-20.7 61.26,-20.7 C -27.48,-20.7 0,-11.4 0,0 z"
         style="fill:#b0e0df;fill-opacity:1;fill-rule:nonzero;stroke:#000000;stroke-width:0.86299998;stroke-linecap:round;stroke-linejoin:round;stroke-miterlimit:10;stroke-opacity:1;stroke-dasharray:none"
         id="path352"
         inkscape:connector-curvature="0" /></g><g
       id="g354"
       transform="translate(319.8,673.28)"><path
         d="m 0,0 c 0,10.98 -27.06,19.8 -60.42,19.8 -33.42,0 -60.42,-8.82 -60.42,-19.8 0,-10.92 27,-19.8 60.42,-19.8 C -27.06,-19.8 0,-10.92 0,0 z"
         style="fill:#b0e0df;fill-opacity:1;fill-rule:nonzero;stroke:#ffffff;stroke-width:0.86299998;stroke-linecap:round;stroke-linejoin:round;stroke-miterlimit:10;stroke-opacity:1;stroke-dasharray:none"
         id="path356"
         inkscape:connector-curvature="0" /></g><text
       transform="matrix(1,0,0,-0.9710511,235.26,675.0803)"
       id="text358"><tspan
         style="font-size:9.77929974px;font-variant:normal;font-weight:normal;font-stretch:normal;writing-mode:lr-tb;fill:#000000;fill-opacity:1;fill-rule:nonzero;stroke:none;font-family:Arial;-inkscape-font-specification:Helvetica"
         x="16.311872 22.834665 27.724316 30.442961 32.613964 37.503616 39.674622 42.393265 47.830555"
         sodipodi:role="line"
         id="tspan360">Aktivität</tspan><tspan
         style="font-size:9.77929974px;font-variant:normal;font-weight:normal;font-stretch:normal;writing-mode:lr-tb;fill:#000000;fill-opacity:1;fill-rule:nonzero;stroke:none;font-family:Arial;-inkscape-font-specification:Helvetica"
         x="-1.7397375 3.6975534 9.1348438 14.024494 18.914145 24.351435 26.52244 28.693443 34.130733 40.105888 45.543179"
         y="8.8972073"
         sodipodi:role="line"
         id="tspan362">abschließen</tspan></text>
<g
       id="g364"
       transform="translate(322.38,438.5)"><path
         d="m 0,0 c 0,11.4 -27.48,20.64 -61.26,20.64 -33.84,0 -61.26,-9.24 -61.26,-20.64 0,-11.4 27.42,-20.7 61.26,-20.7 C -27.48,-20.7 0,-11.4 0,0 z"
         style="fill:#c0c0c0;fill-opacity:1;fill-rule:nonzero;stroke:#c0c0c0;stroke-width:0.86299998;stroke-linecap:round;stroke-linejoin:round;stroke-miterlimit:10;stroke-opacity:1;stroke-dasharray:none"
         id="path366"
         inkscape:connector-curvature="0" /></g><g
       id="g368"
       transform="translate(320.64,440.18)"><path
         d="m 0,0 c 0,11.46 -27.48,20.7 -61.26,20.7 -33.84,0 -61.26,-9.24 -61.26,-20.7 0,-11.4 27.42,-20.7 61.26,-20.7 C -27.48,-20.7 0,-11.4 0,0 z"
         style="fill:#b0e0df;fill-opacity:1;fill-rule:nonzero;stroke:#000000;stroke-width:0.86299998;stroke-linecap:round;stroke-linejoin:round;stroke-miterlimit:10;stroke-opacity:1;stroke-dasharray:none"
         id="path370"
         inkscape:connector-curvature="0" /></g><g
       id="g372"
       transform="translate(319.8,440.24)"><path
         d="m 0,0 c 0,10.92 -27.06,19.8 -60.42,19.8 -33.42,0 -60.42,-8.88 -60.42,-19.8 0,-10.98 27,-19.86 60.42,-19.86 C -27.06,-19.86 0,-10.98 0,0 z"
         style="fill:#b0e0df;fill-opacity:1;fill-rule:nonzero;stroke:#ffffff;stroke-width:0.86299998;stroke-linecap:round;stroke-linejoin:round;stroke-miterlimit:10;stroke-opacity:1;stroke-dasharray:none"
         id="path374"
         inkscape:connector-curvature="0" /></g><text
       transform="matrix(1,0,0,-0.9710511,235.26,441.9803)"
       id="text376"><tspan
         style="font-size:9.77929974px;font-variant:normal;font-weight:normal;font-stretch:normal;writing-mode:lr-tb;fill:#000000;fill-opacity:1;fill-rule:nonzero;stroke:none;font-family:Arial;-inkscape-font-specification:Helvetica"
         x="16.311872 22.834665 27.724316 30.442961 32.613964 37.503616 39.674622 42.393265 47.830555"
         sodipodi:role="line"
         id="tspan378">Aktivität</tspan><tspan
         style="font-size:9.77929974px;font-variant:normal;font-weight:normal;font-stretch:normal;writing-mode:lr-tb;fill:#000000;fill-opacity:1;fill-rule:nonzero;stroke:none;font-family:Arial;-inkscape-font-specification:Helvetica"
         x="0.84004188 6.2773328 8.4483376 13.885628 18.775278 24.212568 26.931213 32.368504 37.805798 43.243088"
         y="8.8972073"
         sodipodi:role="line"
         id="tspan380">hinzufügen</tspan></text>
<g
       id="g382"
       transform="translate(322.38,498.92)"><path
         d="m 0,0 c 0,11.4 -27.48,20.64 -61.26,20.64 -33.84,0 -61.26,-9.24 -61.26,-20.64 0,-11.4 27.42,-20.7 61.26,-20.7 C -27.48,-20.7 0,-11.4 0,0 z"
         style="fill:#c0c0c0;fill-opacity:1;fill-rule:nonzero;stroke:#c0c0c0;stroke-width:0.86299998;stroke-linecap:round;stroke-linejoin:round;stroke-miterlimit:10;stroke-opacity:1;stroke-dasharray:none"
         id="path384"
         inkscape:connector-curvature="0" /></g><g
       id="g386"
       transform="translate(320.64,500.66)"><path
         d="m 0,0 c 0,11.4 -27.48,20.64 -61.26,20.64 -33.84,0 -61.26,-9.24 -61.26,-20.64 0,-11.4 27.42,-20.7 61.26,-20.7 C -27.48,-20.7 0,-11.4 0,0 z"
         style="fill:#b0e0df;fill-opacity:1;fill-rule:nonzero;stroke:#000000;stroke-width:0.86299998;stroke-linecap:round;stroke-linejoin:round;stroke-miterlimit:10;stroke-opacity:1;stroke-dasharray:none"
         id="path388"
         inkscape:connector-curvature="0" /></g><g
       id="g390"
       transform="translate(319.8,500.66)"><path
         d="m 0,0 c 0,10.92 -27.06,19.8 -60.42,19.8 -33.42,0 -60.42,-8.88 -60.42,-19.8 0,-10.98 27,-19.86 60.42,-19.86 C -27.06,-19.86 0,-10.98 0,0 z"
         style="fill:#b0e0df;fill-opacity:1;fill-rule:nonzero;stroke:#ffffff;stroke-width:0.86299998;stroke-linecap:round;stroke-linejoin:round;stroke-miterlimit:10;stroke-opacity:1;stroke-dasharray:none"
         id="path392"
         inkscape:connector-curvature="0" /></g><text
       transform="matrix(1,0,0,-0.9710511,235.26,502.4003)"
       id="text394"><tspan
         style="font-size:9.77929974px;font-variant:normal;font-weight:normal;font-stretch:normal;writing-mode:lr-tb;fill:#000000;fill-opacity:1;fill-rule:nonzero;stroke:none;font-family:Arial;-inkscape-font-specification:Helvetica"
         x="16.311872 22.834665 27.724316 30.442961 32.613964 37.503616 39.674622 42.393265 47.830555"
         sodipodi:role="line"
         id="tspan396">Aktivität</tspan><tspan
         style="font-size:9.77929974px;font-variant:normal;font-weight:normal;font-stretch:normal;writing-mode:lr-tb;fill:#000000;fill-opacity:1;fill-rule:nonzero;stroke:none;font-family:Arial;-inkscape-font-specification:Helvetica"
         x="7.7403159 9.9113207 15.348611 20.238262 25.127911 30.565203 36.002495"
         y="8.835597"
         sodipodi:role="line"
         id="tspan398">löschen</tspan></text>
<g
       id="g400"
       transform="translate(322.38,723.38)"><path
         d="m 0,0 c 0,11.4 -27.48,20.64 -61.26,20.64 -33.84,0 -61.26,-9.24 -61.26,-20.64 0,-11.4 27.42,-20.7 61.26,-20.7 C -27.48,-20.7 0,-11.4 0,0 z"
         style="fill:#c0c0c0;fill-opacity:1;fill-rule:nonzero;stroke:#c0c0c0;stroke-width:0.86299998;stroke-linecap:round;stroke-linejoin:round;stroke-miterlimit:10;stroke-opacity:1;stroke-dasharray:none"
         id="path402"
         inkscape:connector-curvature="0" /></g><g
       id="g404"
       transform="translate(320.64,725.06)"><path
         d="m 0,0 c 0,11.46 -27.48,20.7 -61.26,20.7 -33.84,0 -61.26,-9.24 -61.26,-20.7 0,-11.4 27.42,-20.7 61.26,-20.7 C -27.48,-20.7 0,-11.4 0,0 z"
         style="fill:#b0e0df;fill-opacity:1;fill-rule:nonzero;stroke:#000000;stroke-width:0.86299998;stroke-linecap:round;stroke-linejoin:round;stroke-miterlimit:10;stroke-opacity:1;stroke-dasharray:none"
         id="path406"
         inkscape:connector-curvature="0" /></g><g
       id="g408"
       transform="translate(319.8,725.12)"><path
         d="m 0,0 c 0,10.92 -27.06,19.8 -60.42,19.8 -33.42,0 -60.42,-8.88 -60.42,-19.8 0,-10.98 27,-19.86 60.42,-19.86 C -27.06,-19.86 0,-10.98 0,0 z"
         style="fill:#b0e0df;fill-opacity:1;fill-rule:nonzero;stroke:#ffffff;stroke-width:0.86299998;stroke-linecap:round;stroke-linejoin:round;stroke-miterlimit:10;stroke-opacity:1;stroke-dasharray:none"
         id="path410"
         inkscape:connector-curvature="0" /></g><g
       id="g418"
       transform="translate(534.78,783.8)"><path
         d="M 0,0 C 0,11.4 -36.36,20.64 -81.18,20.64 -126,20.64 -162.3,11.4 -162.3,0 c 0,-11.4 36.3,-20.7 81.12,-20.7 C -36.36,-20.7 0,-11.4 0,0 z"
         style="fill:#c0c0c0;fill-opacity:1;fill-rule:nonzero;stroke:#c0c0c0;stroke-width:0.86299998;stroke-linecap:round;stroke-linejoin:round;stroke-miterlimit:10;stroke-opacity:1;stroke-dasharray:none"
         id="path420"
         inkscape:connector-curvature="0" /></g><g
       id="g422"
       transform="translate(533.04,785.54)"><path
         d="m 0,0 c 0,11.4 -36.36,20.64 -81.12,20.64 -44.82,0 -81.12,-9.24 -81.12,-20.64 0,-11.4 36.3,-20.7 81.12,-20.7 C -36.36,-20.7 0,-11.4 0,0 z"
         style="fill:#b0e0df;fill-opacity:1;fill-rule:nonzero;stroke:#000000;stroke-width:0.86299998;stroke-linecap:round;stroke-linejoin:round;stroke-miterlimit:10;stroke-opacity:1;stroke-dasharray:none"
         id="path424"
         inkscape:connector-curvature="0" /></g><g
       id="g426"
       transform="translate(532.14,785.54)"><path
         d="m 0,0 c 0,10.92 -35.94,19.8 -80.28,19.8 -44.34,0 -80.22,-8.88 -80.22,-19.8 0,-10.98 35.88,-19.86 80.22,-19.86 C -35.94,-19.86 0,-10.98 0,0 z"
         style="fill:#b0e0df;fill-opacity:1;fill-rule:nonzero;stroke:#ffffff;stroke-width:0.86299998;stroke-linecap:round;stroke-linejoin:round;stroke-miterlimit:10;stroke-opacity:1;stroke-dasharray:none"
         id="path428"
         inkscape:connector-curvature="0" /></g><text
       transform="matrix(1,0,0,-0.9710511,407.88,787.3403)"
       id="text430"><tspan
         style="font-size:9.77929974px;font-variant:normal;font-weight:normal;font-stretch:normal;writing-mode:lr-tb;fill:#000000;fill-opacity:1;fill-rule:nonzero;stroke:none;font-family:Arial;-inkscape-font-specification:Helvetica"
         x="24.467808 30.990602 35.880253 38.598896 40.769901 45.659554 47.830555 50.549202 55.986492 58.705139 63.594788 69.032082 74.469368 77.188011 82.625305 84.79631 86.967316"
         sodipodi:role="line"
         id="tspan432">Aktivitätsdetails</tspan><tspan
         style="font-size:9.77929974px;font-variant:normal;font-weight:normal;font-stretch:normal;writing-mode:lr-tb;fill:#000000;fill-opacity:1;fill-rule:nonzero;stroke:none;font-family:Arial;-inkscape-font-specification:Helvetica"
         x="25.920034 31.357325 36.794617 41.684265 47.121555 52.558849 57.99614"
         y="8.8972073"
         sodipodi:role="line"
         id="tspan434">ansehen</tspan></text>
<g
       id="g436"
       transform="translate(322.38,783.8)"><path
         d="m 0,0 c 0,11.4 -27.48,20.64 -61.26,20.64 -33.84,0 -61.26,-9.24 -61.26,-20.64 0,-11.4 27.42,-20.7 61.26,-20.7 C -27.48,-20.7 0,-11.4 0,0 z"
         style="fill:#c0c0c0;fill-opacity:1;fill-rule:nonzero;stroke:#c0c0c0;stroke-width:0.86299998;stroke-linecap:round;stroke-linejoin:round;stroke-miterlimit:10;stroke-opacity:1;stroke-dasharray:none"
         id="path438"
         inkscape:connector-curvature="0" /></g><g
       id="g440"
       transform="translate(320.64,785.54)"><path
         d="m 0,0 c 0,11.4 -27.48,20.64 -61.26,20.64 -33.84,0 -61.26,-9.24 -61.26,-20.64 0,-11.4 27.42,-20.7 61.26,-20.7 C -27.48,-20.7 0,-11.4 0,0 z"
         style="fill:#b0e0df;fill-opacity:1;fill-rule:nonzero;stroke:#000000;stroke-width:0.86299998;stroke-linecap:round;stroke-linejoin:round;stroke-miterlimit:10;stroke-opacity:1;stroke-dasharray:none"
         id="path442"
         inkscape:connector-curvature="0" /></g><g
       id="g444"
       transform="translate(319.8,785.54)"><path
         d="m 0,0 c 0,10.92 -27.06,19.8 -60.42,19.8 -33.42,0 -60.42,-8.88 -60.42,-19.8 0,-10.98 27,-19.86 60.42,-19.86 C -27.06,-19.86 0,-10.98 0,0 z"
         style="fill:#b0e0df;fill-opacity:1;fill-rule:nonzero;stroke:#ffffff;stroke-width:0.86299998;stroke-linecap:round;stroke-linejoin:round;stroke-miterlimit:10;stroke-opacity:1;stroke-dasharray:none"
         id="path446"
         inkscape:connector-curvature="0" /></g><text
       style="font-size:11.82503128px"
       y="-800.52301"
       x="226.55606"
       id="text3197"
       transform="scale(1.0147965,-0.98541925)"><tspan
         id="tspan3201"
         sodipodi:role="line"
         style="font-size:9.63671017px;font-variant:normal;font-weight:normal;font-stretch:normal;writing-mode:lr-tb;fill:#000000;fill-opacity:1;fill-rule:nonzero;stroke:none;font-family:Arial;-inkscape-font-specification:Helvetica"
         x="226.55606"
         y="-800.52301">Aktivitätenliste</tspan><tspan
         sodipodi:role="line"
         style="font-size:9.63671017px;font-variant:normal;font-weight:normal;font-stretch:normal;writing-mode:lr-tb;fill:#000000;fill-opacity:1;fill-rule:nonzero;stroke:none;font-family:Arial;-inkscape-font-specification:Helvetica"
         x="226.55606"
         y="-788.47711"
         id="tspan3205">anzeigen</tspan></text>
<text
       transform="scale(1.0147965,-0.98541925)"
       id="text3198"
       x="237.12167"
       y="-737.7995"
       style="font-size:11.82503128px"><tspan
         id="tspan3202"
         y="-737.7995"
         x="237.12167"
         style="font-size:9.63671017px;font-variant:normal;font-weight:normal;font-stretch:normal;writing-mode:lr-tb;fill:#000000;fill-opacity:1;fill-rule:nonzero;stroke:none;font-family:Arial;-inkscape-font-specification:Helvetica"
         sodipodi:role="line">Aktivität</tspan><tspan
         y="-725.7536"
         x="237.12167"
         style="font-size:9.63671017px;font-variant:normal;font-weight:normal;font-stretch:normal;writing-mode:lr-tb;fill:#000000;fill-opacity:1;fill-rule:nonzero;stroke:none;font-family:Arial;-inkscape-font-specification:Helvetica"
         sodipodi:role="line"
         id="tspan3206">erstellen</tspan></text>
</g></svg>