<?xml version="1.0" encoding="UTF-8" standalone="no"?>
<!-- Created with Inkscape (http://www.inkscape.org/) -->

<svg
   xmlns:dc="http://purl.org/dc/elements/1.1/"
   xmlns:cc="http://creativecommons.org/ns#"
   xmlns:rdf="http://www.w3.org/1999/02/22-rdf-syntax-ns#"
   xmlns:svg="http://www.w3.org/2000/svg"
   xmlns="http://www.w3.org/2000/svg"
   xmlns:xlink="http://www.w3.org/1999/xlink"
   xmlns:sodipodi="http://sodipodi.sourceforge.net/DTD/sodipodi-0.dtd"
   xmlns:inkscape="http://www.inkscape.org/namespaces/inkscape"
   id="svg2"
   version="1.1"
   inkscape:version="0.48.4 r9939"
   width="628.25"
   height="173.78751"
   xml:space="preserve"
   sodipodi:docname="4_NachrichtendatenVerwalten.svg"><metadata
     id="metadata8"><rdf:RDF><cc:Work
         rdf:about=""><dc:format>image/svg+xml</dc:format><dc:type
           rdf:resource="http://purl.org/dc/dcmitype/StillImage" /><dc:title /></cc:Work></rdf:RDF></metadata><defs
     id="defs6"><mask
       maskUnits="userSpaceOnUse"
       x="0"
       y="0"
       width="1"
       height="1"
       id="mask172"><image
         width="1"
         height="1"
         xlink:href="data:image/png;base64,iVBORw0KGgoAAAANSUhEUgAAACAAAAAgCAAAAABWESUoAAAAAXNCSVQI5gpbmQAAAGtJREFUOI29klEOwCAIQ+nuf+fuZzMWqpsxkR9D+xAkRuwG+oRVkoyuCNVX4nJ9+QXEWcA9U0SzqOEeHiQpP2fg0JncwKUWfdnqkAqYYQ/8KKiP96hAMxKB7GcCxU+JK5IUxhehbXL2jfbiBjDmGifp2BihAAAAAElFTkSuQmCC"
         id="image174" /></mask><mask
       maskUnits="userSpaceOnUse"
       x="0"
       y="0"
       width="1"
       height="1"
       id="mask200"><image
         width="1"
         height="1"
         xlink:href="data:image/png;base64,iVBORw0KGgoAAAANSUhEUgAAACAAAAAgCAAAAABWESUoAAAAAXNCSVQI5gpbmQAAAGtJREFUOI29klEOwCAIQ+nuf+fuZzMWqpsxkR9D+xAkRuwG+oRVkoyuCNVX4nJ9+QXEWcA9U0SzqOEeHiQpP2fg0JncwKUWfdnqkAqYYQ/8KKiP96hAMxKB7GcCxU+JK5IUxhehbXL2jfbiBjDmGifp2BihAAAAAElFTkSuQmCC"
         id="image202" /></mask></defs><sodipodi:namedview
     pagecolor="#ffffff"
     bordercolor="#666666"
     borderopacity="1"
     objecttolerance="10"
     gridtolerance="10"
     guidetolerance="10"
     inkscape:pageopacity="0"
     inkscape:pageshadow="2"
     inkscape:window-width="1364"
     inkscape:window-height="720"
     id="namedview4"
     showgrid="false"
     fit-margin-top="0"
     fit-margin-left="0"
     fit-margin-right="0"
     fit-margin-bottom="0"
     inkscape:zoom="1.2684253"
     inkscape:cx="286.22305"
     inkscape:cy="62.894497"
     inkscape:window-x="0"
     inkscape:window-y="0"
     inkscape:window-maximized="1"
     inkscape:current-layer="g10" /><g
     id="g10"
     inkscape:groupmode="layer"
     inkscape:label="3_Nachrichtendaten verwalten"
     transform="matrix(1.25,0,0,-1.25,-48.625,1004.5063)"><g
       id="g12"
       transform="translate(472.02,778.46)"><path
         d="M 0,0 -116.4,0"
         style="fill:none;stroke:#cdcdcd;stroke-width:0.986;stroke-linecap:round;stroke-linejoin:round;stroke-miterlimit:10;stroke-opacity:1;stroke-dasharray:none"
         id="path14"
         inkscape:connector-curvature="0" /></g><path
       d="m 355.62,778.4 0.06,0 0,0.0601 -0.06,0 0,-0.0601 z"
       style="fill:#cdcdcd;fill-opacity:1;fill-rule:nonzero;stroke:none"
       id="path16"
       inkscape:connector-curvature="0" /><g
       id="g18"
       transform="translate(472.02,779.42)"><path
         d="M 0,0 -116.4,0"
         style="fill:none;stroke:#000000;stroke-width:0.986;stroke-linecap:round;stroke-linejoin:round;stroke-miterlimit:10;stroke-opacity:1;stroke-dasharray:none"
         id="path20"
         inkscape:connector-curvature="0" /></g><path
       d="m 355.62,779.36 0.06,0 0,0.0599 -0.06,0 0,-0.0599 z"
       style="fill:#000000;fill-opacity:1;fill-rule:nonzero;stroke:none"
       id="path22"
       inkscape:connector-curvature="0" /><g
       id="g24"
       transform="translate(368.46,774.5)"><path
         d="M 0,0 -12.84,4.92 0,9.9 -3.96,4.92 0,0 z"
         style="fill:#000000;fill-opacity:1;fill-rule:nonzero;stroke:#000000;stroke-width:0.986;stroke-linecap:round;stroke-linejoin:round;stroke-miterlimit:10;stroke-opacity:1;stroke-dasharray:none"
         id="path26"
         inkscape:connector-curvature="0" /></g><g
       id="g28"
       transform="translate(472.02,689.66)"><path
         d="M 0,0 -116.4,0"
         style="fill:none;stroke:#cdcdcd;stroke-width:0.986;stroke-linecap:round;stroke-linejoin:round;stroke-miterlimit:10;stroke-opacity:1;stroke-dasharray:none"
         id="path30"
         inkscape:connector-curvature="0" /></g><path
       d="m 355.62,689.6 0.06,0 0,0.0599 -0.06,0 0,-0.0599 z"
       style="fill:#cdcdcd;fill-opacity:1;fill-rule:nonzero;stroke:none"
       id="path32"
       inkscape:connector-curvature="0" /><g
       id="g34"
       transform="translate(472.02,690.68)"><path
         d="M 0,0 -116.4,0"
         style="fill:none;stroke:#000000;stroke-width:0.986;stroke-linecap:round;stroke-linejoin:round;stroke-miterlimit:10;stroke-opacity:1;stroke-dasharray:none"
         id="path36"
         inkscape:connector-curvature="0" /></g><path
       d="m 355.62,690.62 0.06,0 0,0.06 -0.06,0 0,-0.06 z"
       style="fill:#000000;fill-opacity:1;fill-rule:nonzero;stroke:none"
       id="path38"
       inkscape:connector-curvature="0" /><g
       id="g40"
       transform="translate(368.46,685.76)"><path
         d="M 0,0 -12.84,4.92 0,9.84 -3.96,4.92 0,0 z"
         style="fill:#000000;fill-opacity:1;fill-rule:nonzero;stroke:#000000;stroke-width:0.986;stroke-linecap:round;stroke-linejoin:round;stroke-miterlimit:10;stroke-opacity:1;stroke-dasharray:none"
         id="path42"
         inkscape:connector-curvature="0" /></g><g
       id="g44"
       transform="translate(106.98,689.66)"><path
         d="M 0,0 106.56,0"
         style="fill:none;stroke:#cdcdcd;stroke-width:0.986;stroke-linecap:round;stroke-linejoin:round;stroke-miterlimit:10;stroke-opacity:1;stroke-dasharray:none"
         id="path46"
         inkscape:connector-curvature="0" /></g><path
       d="m 213.54,689.6 0.06,0 0,0.0599 -0.06,0 0,-0.0599 z"
       style="fill:#cdcdcd;fill-opacity:1;fill-rule:nonzero;stroke:none"
       id="path48"
       inkscape:connector-curvature="0" /><g
       id="g50"
       transform="translate(106.98,690.68)"><path
         d="M 0,0 106.56,0"
         style="fill:none;stroke:#000000;stroke-width:0.986;stroke-linecap:round;stroke-linejoin:round;stroke-miterlimit:10;stroke-opacity:1;stroke-dasharray:none"
         id="path52"
         inkscape:connector-curvature="0" /></g><path
       d="m 213.54,690.62 0.06,0 0,0.06 -0.06,0 0,-0.06 z"
       style="fill:#000000;fill-opacity:1;fill-rule:nonzero;stroke:none"
       id="path54"
       inkscape:connector-curvature="0" /><g
       id="g56"
       transform="translate(200.7,695.6)"><path
         d="M 0,0 12.84,-4.92 0,-9.84 3.96,-4.92 0,0 z"
         style="fill:#000000;fill-opacity:1;fill-rule:nonzero;stroke:#000000;stroke-width:0.986;stroke-linecap:round;stroke-linejoin:round;stroke-miterlimit:10;stroke-opacity:1;stroke-dasharray:none"
         id="path58"
         inkscape:connector-curvature="0" /></g><g
       id="g60"
       transform="translate(473.04,717.32)"><path
         d="M 0,0 0,-26.64"
         style="fill:none;stroke:#cdcdcd;stroke-width:0.986;stroke-linecap:round;stroke-linejoin:round;stroke-miterlimit:10;stroke-opacity:1;stroke-dasharray:none"
         id="path62"
         inkscape:connector-curvature="0" /></g><path
       d="m 473.04,690.62 0.06,0 0,0.06 -0.06,0 0,-0.06 z"
       style="fill:#cdcdcd;fill-opacity:1;fill-rule:nonzero;stroke:none"
       id="path64"
       inkscape:connector-curvature="0" /><g
       id="g66"
       transform="translate(472.02,717.32)"><path
         d="M 0,0 0,-26.64"
         style="fill:none;stroke:#000000;stroke-width:0.986;stroke-linecap:round;stroke-linejoin:round;stroke-miterlimit:10;stroke-opacity:1;stroke-dasharray:none"
         id="path68"
         inkscape:connector-curvature="0" /></g><path
       d="m 472.02,690.62 0.06,0 0,0.06 -0.06,0 0,-0.06 z"
       style="fill:#000000;fill-opacity:1;fill-rule:nonzero;stroke:none"
       id="path70"
       inkscape:connector-curvature="0" /><g
       id="g72"
       transform="translate(467.1,704.48)"><path
         d="M 0,0 4.92,12.84 9.9,0 4.92,3.96 0,0 z"
         style="fill:#000000;fill-opacity:1;fill-rule:nonzero;stroke:#000000;stroke-width:0.986;stroke-linecap:round;stroke-linejoin:round;stroke-miterlimit:10;stroke-opacity:1;stroke-dasharray:none"
         id="path74"
         inkscape:connector-curvature="0" /></g><g
       id="g76"
       transform="translate(107.94,717.32)"><path
         d="M 0,0 0,-26.64"
         style="fill:none;stroke:#cdcdcd;stroke-width:0.986;stroke-linecap:round;stroke-linejoin:round;stroke-miterlimit:10;stroke-opacity:1;stroke-dasharray:none"
         id="path78"
         inkscape:connector-curvature="0" /></g><path
       d="m 107.94,690.62 0.06,0 0,0.06 -0.06,0 0,-0.06 z"
       style="fill:#cdcdcd;fill-opacity:1;fill-rule:nonzero;stroke:none"
       id="path80"
       inkscape:connector-curvature="0" /><g
       id="g82"
       transform="translate(106.98,717.32)"><path
         d="M 0,0 0,-26.64"
         style="fill:none;stroke:#000000;stroke-width:0.986;stroke-linecap:round;stroke-linejoin:round;stroke-miterlimit:10;stroke-opacity:1;stroke-dasharray:none"
         id="path84"
         inkscape:connector-curvature="0" /></g><path
       d="m 106.98,690.62 0.06,0 0,0.06 -0.06,0 0,-0.06 z"
       style="fill:#000000;fill-opacity:1;fill-rule:nonzero;stroke:none"
       id="path86"
       inkscape:connector-curvature="0" /><g
       id="g88"
       transform="translate(102.06,704.48)"><path
         d="M 0,0 4.92,12.84 9.84,0 4.92,3.96 0,0 z"
         style="fill:#000000;fill-opacity:1;fill-rule:nonzero;stroke:#000000;stroke-width:0.986;stroke-linecap:round;stroke-linejoin:round;stroke-miterlimit:10;stroke-opacity:1;stroke-dasharray:none"
         id="path90"
         inkscape:connector-curvature="0" /></g><g
       id="g92"
       transform="translate(473.04,763.64)"><path
         d="M 0,0 0,15.78"
         style="fill:none;stroke:#cdcdcd;stroke-width:0.986;stroke-linecap:round;stroke-linejoin:round;stroke-miterlimit:10;stroke-opacity:1;stroke-dasharray:none"
         id="path94"
         inkscape:connector-curvature="0" /></g><path
       d="m 473.04,779.36 0.06,0 0,0.0599 -0.06,0 0,-0.0599 z"
       style="fill:#cdcdcd;fill-opacity:1;fill-rule:nonzero;stroke:none"
       id="path96"
       inkscape:connector-curvature="0" /><g
       id="g98"
       transform="translate(472.02,763.64)"><path
         d="M 0,0 0,15.78"
         style="fill:none;stroke:#000000;stroke-width:0.986;stroke-linecap:round;stroke-linejoin:round;stroke-miterlimit:10;stroke-opacity:1;stroke-dasharray:none"
         id="path100"
         inkscape:connector-curvature="0" /></g><path
       d="m 472.02,779.36 0.06,0 0,0.0599 -0.06,0 0,-0.0599 z"
       style="fill:#000000;fill-opacity:1;fill-rule:nonzero;stroke:none"
       id="path102"
       inkscape:connector-curvature="0" /><g
       id="g104"
       transform="translate(477,776.48)"><path
         d="M 0,0 -4.98,-12.84 -9.9,0 -4.98,-3.96 0,0 z"
         style="fill:#000000;fill-opacity:1;fill-rule:nonzero;stroke:#000000;stroke-width:0.986;stroke-linecap:round;stroke-linejoin:round;stroke-miterlimit:10;stroke-opacity:1;stroke-dasharray:none"
         id="path106"
         inkscape:connector-curvature="0" /></g><g
       id="g108"
       transform="translate(116.82,778.46)"><path
         d="M 0,0 96.72,0"
         style="fill:none;stroke:#cdcdcd;stroke-width:0.986;stroke-linecap:round;stroke-linejoin:round;stroke-miterlimit:10;stroke-opacity:1;stroke-dasharray:none"
         id="path110"
         inkscape:connector-curvature="0" /></g><path
       d="m 213.54,778.4 0.06,0 0,0.0601 -0.06,0 0,-0.0601 z"
       style="fill:#cdcdcd;fill-opacity:1;fill-rule:nonzero;stroke:none"
       id="path112"
       inkscape:connector-curvature="0" /><g
       id="g114"
       transform="translate(116.82,779.42)"><path
         d="M 0,0 96.72,0"
         style="fill:none;stroke:#000000;stroke-width:0.986;stroke-linecap:round;stroke-linejoin:round;stroke-miterlimit:10;stroke-opacity:1;stroke-dasharray:none"
         id="path116"
         inkscape:connector-curvature="0" /></g><path
       d="m 213.54,779.36 0.06,0 0,0.0599 -0.06,0 0,-0.0599 z"
       style="fill:#000000;fill-opacity:1;fill-rule:nonzero;stroke:none"
       id="path118"
       inkscape:connector-curvature="0" /><g
       id="g120"
       transform="translate(200.7,784.4)"><path
         d="M 0,0 12.84,-4.98 0,-9.9 3.96,-4.98 0,0 z"
         style="fill:#000000;fill-opacity:1;fill-rule:nonzero;stroke:#000000;stroke-width:0.986;stroke-linecap:round;stroke-linejoin:round;stroke-miterlimit:10;stroke-opacity:1;stroke-dasharray:none"
         id="path122"
         inkscape:connector-curvature="0" /></g><g
       id="g124"
       transform="translate(117.84,763.64)"><path
         d="M 0,0 0,15.78"
         style="fill:none;stroke:#cdcdcd;stroke-width:0.986;stroke-linecap:round;stroke-linejoin:round;stroke-miterlimit:10;stroke-opacity:1;stroke-dasharray:none"
         id="path126"
         inkscape:connector-curvature="0" /></g><path
       d="m 117.84,779.36 0.06,0 0,0.0599 -0.06,0 0,-0.0599 z"
       style="fill:#cdcdcd;fill-opacity:1;fill-rule:nonzero;stroke:none"
       id="path128"
       inkscape:connector-curvature="0" /><g
       id="g130"
       transform="translate(116.82,763.64)"><path
         d="M 0,0 0,15.78"
         style="fill:none;stroke:#000000;stroke-width:0.986;stroke-linecap:round;stroke-linejoin:round;stroke-miterlimit:10;stroke-opacity:1;stroke-dasharray:none"
         id="path132"
         inkscape:connector-curvature="0" /></g><path
       d="m 116.82,779.36 0.06,0 0,0.0599 -0.06,0 0,-0.0599 z"
       style="fill:#000000;fill-opacity:1;fill-rule:nonzero;stroke:none"
       id="path134"
       inkscape:connector-curvature="0" /><g
       id="g136"
       transform="translate(121.74,776.48)"><path
         d="M 0,0 -4.92,-12.84 -9.84,0 -4.92,-3.96 0,0 z"
         style="fill:#000000;fill-opacity:1;fill-rule:nonzero;stroke:#000000;stroke-width:0.986;stroke-linecap:round;stroke-linejoin:round;stroke-miterlimit:10;stroke-opacity:1;stroke-dasharray:none"
         id="path138"
         inkscape:connector-curvature="0" /></g><g
       id="g140"
       transform="translate(356.52,688.7)"><path
         d="m 0,0 c 0,13.08 -31.38,23.64 -70.02,23.64 -38.7,0 -70.02,-10.56 -70.02,-23.64 0,-13.02 31.32,-23.64 70.02,-23.64 C -31.38,-23.64 0,-13.02 0,0 z"
         style="fill:#c0c0c0;fill-opacity:1;fill-rule:nonzero;stroke:#c0c0c0;stroke-width:0.986;stroke-linecap:round;stroke-linejoin:round;stroke-miterlimit:10;stroke-opacity:1;stroke-dasharray:none"
         id="path142"
         inkscape:connector-curvature="0" /></g><g
       id="g144"
       transform="translate(354.54,690.68)"><path
         d="m 0,0 c 0,13.08 -31.38,23.64 -70.02,23.64 -38.7,0 -70.02,-10.56 -70.02,-23.64 0,-13.02 31.32,-23.64 70.02,-23.64 C -31.38,-23.64 0,-13.02 0,0 z"
         style="fill:#b0e0df;fill-opacity:1;fill-rule:nonzero;stroke:#000000;stroke-width:0.986;stroke-linecap:round;stroke-linejoin:round;stroke-miterlimit:10;stroke-opacity:1;stroke-dasharray:none"
         id="path146"
         inkscape:connector-curvature="0" /></g><g
       id="g148"
       transform="translate(353.58,690.74)"><path
         d="m 0,0 c 0,12.48 -30.96,22.62 -69.06,22.62 -38.1,0 -69,-10.14 -69,-22.62 0,-12.48 30.9,-22.68 69,-22.68 C -30.96,-22.68 0,-12.48 0,0 z"
         style="fill:#b0e0df;fill-opacity:1;fill-rule:nonzero;stroke:#ffffff;stroke-width:0.986;stroke-linecap:round;stroke-linejoin:round;stroke-miterlimit:10;stroke-opacity:1;stroke-dasharray:none"
         id="path150"
         inkscape:connector-curvature="0" /></g><text
       transform="matrix(1,0,0,-0.97083139,253.02,692.7203)"
       id="text152"><tspan
         style="font-size:11.17640018px;font-variant:normal;font-weight:normal;font-stretch:normal;writing-mode:lr-tb;fill:#000000;fill-opacity:1;fill-rule:nonzero;stroke:none;font-family:Arial;-inkscape-font-specification:Helvetica"
         x="18.642235 26.711596 32.925674 38.513874 44.727951 48.449696 50.930855 56.519054 62.733131"
         sodipodi:role="line"
         id="tspan154">Nachricht</tspan><tspan
         style="font-size:11.17640018px;font-variant:normal;font-weight:normal;font-stretch:normal;writing-mode:lr-tb;fill:#000000;fill-opacity:1;fill-rule:nonzero;stroke:none;font-family:Arial;-inkscape-font-specification:Helvetica"
         x="13.799501 19.387701 25.60178 31.815857 38.029938 44.244015"
         y="10.135877"
         sodipodi:role="line"
         id="tspan156">senden</tspan></text>
<path
       d="m 541.02,759.74 -136.08,0 0,-41.4 136.08,0 0,41.4 z"
       style="fill:#ffffff;fill-opacity:1;fill-rule:nonzero;stroke:#ffffff;stroke-width:0.986;stroke-linecap:round;stroke-linejoin:miter;stroke-miterlimit:10;stroke-opacity:1;stroke-dasharray:none"
       id="path158"
       inkscape:connector-curvature="0" /><path
       d="m 541.02,758.72 -136.08,0 0,-39.36 136.08,0 0,39.36 z"
       style="fill:#dedbd6;fill-opacity:1;fill-rule:nonzero;stroke:#dedbd6;stroke-width:0.986;stroke-linecap:round;stroke-linejoin:miter;stroke-miterlimit:10;stroke-opacity:1;stroke-dasharray:none"
       id="path160"
       inkscape:connector-curvature="0" /><g
       id="g162"
       transform="translate(404.94,760.7)"><path
         d="M 0,0 135.18,0"
         style="fill:none;stroke:#000065;stroke-width:1.97300005;stroke-linecap:round;stroke-linejoin:round;stroke-miterlimit:10;stroke-opacity:1;stroke-dasharray:none"
         id="path164"
         inkscape:connector-curvature="0" /><g
         id="g166"
         transform="translate(0,-43.38)"><path
           d="M 0,0 135.18,0"
           style="fill:none;stroke:#000065;stroke-width:1.97300005;stroke-linecap:round;stroke-linejoin:round;stroke-miterlimit:10;stroke-opacity:1;stroke-dasharray:none"
           id="path168"
           inkscape:connector-curvature="0" /></g></g><g
       id="g170"
       transform="matrix(31.56,0,0,31.56,410.88,723.2)"><rect
         x="0"
         y="0"
         width="1"
         height="1"
         transform="matrix(1,0,0,-1,0,1)"
         style="fill:#000000;fill-opacity:1;fill-rule:nonzero"
         mask="url(#mask172)"
         id="rect176" /></g><g
       id="g178"
       transform="matrix(31.56,0,0,31.56,410.88,723.2)"><image
         width="1"
         height="1"
         transform="matrix(1,0,0,-1,0,1)"
         xlink:href="data:image/png;base64,iVBORw0KGgoAAAANSUhEUgAAACAAAAAgCAYAAABzenr0AAAABHNCSVQICAgIfAhkiAAAATRJREFUWIXtlj8OgjAUxj+NB8BjcAOYmeAGLh4AHWFzZLMjXoDFG+DE5KA38Bh6gzogaqCl7SsRY/ySBpL++X59vD46AcAxoqZjmgPAzHRClFYoj5dux3lNAjCKQJRW8k4vJwFMoJkD7zvnp1U92d91BxpGYvAcYEVPlAQyzgFAsnOiRj8FfwDtUwC8jqGwDgBgsYtkGRgBGEWg3MoXp5g34qTm5RxezllR0eY/2pfmQJipZ16d+jm/qcceNtKuj0SgrzoKKyFb+MpFk/0JuDpaY1WiJVCY/XISqtT+9xMvIwAlCUUXD+JlxBzgzYjFLljsWkPoA7TMRe8UCD0AgXmyDJ613wZCDSAxb2QL0Q+gMB8CQg6gaW4LIQYwNLeB6AIQzakQ0k9AMe+FkIhWigfU6D+jO6ULp2w+qguaAAAAAElFTkSuQmCC"
         id="image180" /></g><text
       transform="matrix(1,0,0,-0.97083139,463.14,738.0803)"
       id="text182"><tspan
         style="font-size:11.17640018px;font-variant:normal;font-weight:normal;font-stretch:normal;writing-mode:lr-tb;fill:#000000;fill-opacity:1;fill-rule:nonzero;stroke:none;font-family:Arial;-inkscape-font-specification:Helvetica"
         x="0 6.8287802 13.042859 19.256937 22.978678 29.192757 35.406834 41.620914 47.834991"
         y="0"
         sodipodi:role="line"
         id="tspan184">Therapeut</tspan></text>
<path
       d="m 175.98,759.74 -136.08,0 0,-41.4 136.08,0 0,41.4 z"
       style="fill:#ffffff;fill-opacity:1;fill-rule:nonzero;stroke:#ffffff;stroke-width:0.986;stroke-linecap:round;stroke-linejoin:miter;stroke-miterlimit:10;stroke-opacity:1;stroke-dasharray:none"
       id="path186"
       inkscape:connector-curvature="0" /><path
       d="m 175.98,758.72 -136.08,0 0,-39.36 136.08,0 0,39.36 z"
       style="fill:#dedbd6;fill-opacity:1;fill-rule:nonzero;stroke:#dedbd6;stroke-width:0.986;stroke-linecap:round;stroke-linejoin:miter;stroke-miterlimit:10;stroke-opacity:1;stroke-dasharray:none"
       id="path188"
       inkscape:connector-curvature="0" /><g
       id="g190"
       transform="translate(39.9,760.7)"><path
         d="M 0,0 135.18,0"
         style="fill:none;stroke:#000065;stroke-width:1.97300005;stroke-linecap:round;stroke-linejoin:round;stroke-miterlimit:10;stroke-opacity:1;stroke-dasharray:none"
         id="path192"
         inkscape:connector-curvature="0" /><g
         id="g194"
         transform="translate(0,-43.38)"><path
           d="M 0,0 135.18,0"
           style="fill:none;stroke:#000065;stroke-width:1.97300005;stroke-linecap:round;stroke-linejoin:round;stroke-miterlimit:10;stroke-opacity:1;stroke-dasharray:none"
           id="path196"
           inkscape:connector-curvature="0" /></g></g><g
       id="g198"
       transform="matrix(31.56,0,0,31.56,45.78,723.2)"><rect
         x="0"
         y="0"
         width="1"
         height="1"
         transform="matrix(1,0,0,-1,0,1)"
         style="fill:#000000;fill-opacity:1;fill-rule:nonzero"
         mask="url(#mask200)"
         id="rect204" /></g><g
       id="g206"
       transform="matrix(31.56,0,0,31.56,45.78,723.2)"><image
         width="1"
         height="1"
         transform="matrix(1,0,0,-1,0,1)"
         xlink:href="data:image/png;base64,iVBORw0KGgoAAAANSUhEUgAAACAAAAAgCAYAAABzenr0AAAABHNCSVQICAgIfAhkiAAAATRJREFUWIXtlj8OgjAUxj+NB8BjcAOYmeAGLh4AHWFzZLMjXoDFG+DE5KA38Bh6gzogaqCl7SsRY/ySBpL++X59vD46AcAxoqZjmgPAzHRClFYoj5dux3lNAjCKQJRW8k4vJwFMoJkD7zvnp1U92d91BxpGYvAcYEVPlAQyzgFAsnOiRj8FfwDtUwC8jqGwDgBgsYtkGRgBGEWg3MoXp5g34qTm5RxezllR0eY/2pfmQJipZ16d+jm/qcceNtKuj0SgrzoKKyFb+MpFk/0JuDpaY1WiJVCY/XISqtT+9xMvIwAlCUUXD+JlxBzgzYjFLljsWkPoA7TMRe8UCD0AgXmyDJ613wZCDSAxb2QL0Q+gMB8CQg6gaW4LIQYwNLeB6AIQzakQ0k9AMe+FkIhWigfU6D+jO6ULp2w+qguaAAAAAElFTkSuQmCC"
         id="image208" /></g><text
       transform="matrix(1,0,0,-0.97083139,105.96,738.0803)"
       id="text210"><tspan
         style="font-size:11.17640018px;font-variant:normal;font-weight:normal;font-stretch:normal;writing-mode:lr-tb;fill:#000000;fill-opacity:1;fill-rule:nonzero;stroke:none;font-family:Arial;-inkscape-font-specification:Helvetica"
         x="0 7.454659 13.668737 16.775776 19.256937 25.471016 31.685095"
         y="0"
         sodipodi:role="line"
         id="tspan212">Patient</tspan></text>
<g
       id="g214"
       transform="translate(356.52,777.5)"><path
         d="m 0,0 c 0,13.08 -31.38,23.64 -70.02,23.64 -38.7,0 -70.02,-10.56 -70.02,-23.64 0,-13.02 31.32,-23.64 70.02,-23.64 C -31.38,-23.64 0,-13.02 0,0 z"
         style="fill:#c0c0c0;fill-opacity:1;fill-rule:nonzero;stroke:#c0c0c0;stroke-width:0.986;stroke-linecap:round;stroke-linejoin:round;stroke-miterlimit:10;stroke-opacity:1;stroke-dasharray:none"
         id="path216"
         inkscape:connector-curvature="0" /></g><g
       id="g218"
       transform="translate(354.54,779.48)"><path
         d="m 0,0 c 0,13.08 -31.38,23.64 -70.02,23.64 -38.7,0 -70.02,-10.56 -70.02,-23.64 0,-13.02 31.32,-23.64 70.02,-23.64 C -31.38,-23.64 0,-13.02 0,0 z"
         style="fill:#b0e0df;fill-opacity:1;fill-rule:nonzero;stroke:#000000;stroke-width:0.986;stroke-linecap:round;stroke-linejoin:round;stroke-miterlimit:10;stroke-opacity:1;stroke-dasharray:none"
         id="path220"
         inkscape:connector-curvature="0" /></g><g
       id="g222"
       transform="translate(353.58,779.48)"><path
         d="m 0,0 c 0,12.54 -30.96,22.68 -69.06,22.68 -38.1,0 -69,-10.14 -69,-22.68 0,-12.48 30.9,-22.68 69,-22.68 C -30.96,-22.68 0,-12.48 0,0 z"
         style="fill:#b0e0df;fill-opacity:1;fill-rule:nonzero;stroke:#ffffff;stroke-width:0.986;stroke-linecap:round;stroke-linejoin:round;stroke-miterlimit:10;stroke-opacity:1;stroke-dasharray:none"
         id="path224"
         inkscape:connector-curvature="0" /></g><text
       transform="matrix(1,0,0,-0.97083139,253.02,781.5203)"
       id="text226"><tspan
         style="font-size:11.17640018px;font-variant:normal;font-weight:normal;font-stretch:normal;writing-mode:lr-tb;fill:#000000;fill-opacity:1;fill-rule:nonzero;stroke:none;font-family:Arial;-inkscape-font-specification:Helvetica"
         x="18.642235 26.711596 32.925674 38.513874 44.727951 48.449696 50.930855 56.519054 62.733131"
         sodipodi:role="line"
         id="tspan228">Nachricht</tspan><tspan
         style="font-size:11.17640018px;font-variant:normal;font-weight:normal;font-stretch:normal;writing-mode:lr-tb;fill:#000000;fill-opacity:1;fill-rule:nonzero;stroke:none;font-family:Arial;-inkscape-font-specification:Helvetica"
         x="9.8397026 16.053782 22.267859 27.85606 34.070137 36.5513 42.765377 48.979454"
         y="10.197347"
         sodipodi:role="line"
         id="tspan230">anzeigen</tspan></text>
</g></svg>