<?xml version="1.0" encoding="UTF-8" standalone="no"?>
<!-- Created with Inkscape (http://www.inkscape.org/) -->

<svg
   xmlns:dc="http://purl.org/dc/elements/1.1/"
   xmlns:cc="http://creativecommons.org/ns#"
   xmlns:rdf="http://www.w3.org/1999/02/22-rdf-syntax-ns#"
   xmlns:svg="http://www.w3.org/2000/svg"
   xmlns="http://www.w3.org/2000/svg"
   xmlns:xlink="http://www.w3.org/1999/xlink"
   xmlns:sodipodi="http://sodipodi.sourceforge.net/DTD/sodipodi-0.dtd"
   xmlns:inkscape="http://www.inkscape.org/namespaces/inkscape"
   id="svg2"
   version="1.1"
   inkscape:version="0.91 r13725"
   width="628.25"
   height="728.78748"
   xml:space="preserve"
   sodipodi:docname="AnwendungsfaelleAbstrakt.svg"><metadata
     id="metadata8"><rdf:RDF><cc:Work
         rdf:about=""><dc:format>image/svg+xml</dc:format><dc:type
           rdf:resource="http://purl.org/dc/dcmitype/StillImage" /><dc:title /></cc:Work></rdf:RDF></metadata><defs
     id="defs6"><mask
       maskUnits="userSpaceOnUse"
       x="0"
       y="0"
       width="1"
       height="1"
       id="mask604"><image
         width="1"
         height="1"
         xlink:href="data:image/png;base64,iVBORw0KGgoAAAANSUhEUgAAACAAAAAgCAAAAABWESUoAAAAAXNCSVQI5gpbmQAAAGtJREFUOI29klEOwCAIQ+nuf+fuZzMWqpsxkR9D+xAkRuwG+oRVkoyuCNVX4nJ9+QXEWcA9U0SzqOEeHiQpP2fg0JncwKUWfdnqkAqYYQ/8KKiP96hAMxKB7GcCxU+JK5IUxhehbXL2jfbiBjDmGifp2BihAAAAAElFTkSuQmCC"
         id="image606" /></mask><mask
       maskUnits="userSpaceOnUse"
       x="0"
       y="0"
       width="1"
       height="1"
       id="mask654"><image
         width="1"
         height="1"
         xlink:href="data:image/png;base64,iVBORw0KGgoAAAANSUhEUgAAACAAAAAgCAAAAABWESUoAAAAAXNCSVQI5gpbmQAAAGtJREFUOI29klEOwCAIQ+nuf+fuZzMWqpsxkR9D+xAkRuwG+oRVkoyuCNVX4nJ9+QXEWcA9U0SzqOEeHiQpP2fg0JncwKUWfdnqkAqYYQ/8KKiP96hAMxKB7GcCxU+JK5IUxhehbXL2jfbiBjDmGifp2BihAAAAAElFTkSuQmCC"
         id="image656" /></mask></defs><sodipodi:namedview
     pagecolor="#ffffff"
     bordercolor="#666666"
     borderopacity="1"
     objecttolerance="10"
     gridtolerance="10"
     guidetolerance="10"
     inkscape:pageopacity="0"
     inkscape:pageshadow="2"
     inkscape:window-width="1920"
     inkscape:window-height="1022"
     id="namedview4"
     showgrid="false"
     fit-margin-top="0"
     fit-margin-left="0"
     fit-margin-right="0"
     fit-margin-bottom="0"
     inkscape:zoom="1.7938242"
     inkscape:cx="435.96975"
     inkscape:cy="68.280149"
     inkscape:window-x="0"
     inkscape:window-y="0"
     inkscape:window-maximized="1"
     inkscape:current-layer="g10" /><g
     id="g10"
     inkscape:groupmode="layer"
     inkscape:label="AnwendungsfaelleAbstrakt"
     transform="matrix(1.25,0,0,-1.25,-48.625,1004.5063)"><g
       id="g12"
       transform="translate(116.82,373.88)"><path
         d="M 0,0 94.74,0"
         style="fill:none;stroke:#cdcdcd;stroke-width:0.986;stroke-linecap:round;stroke-linejoin:round;stroke-miterlimit:10;stroke-opacity:1;stroke-dasharray:none"
         id="path14"
         inkscape:connector-curvature="0" /></g><path
       d="m 211.56,373.82 0.06,0 0,0.06 -0.06,0 0,-0.06 z"
       style="fill:#cdcdcd;fill-opacity:1;fill-rule:nonzero;stroke:none"
       id="path16"
       inkscape:connector-curvature="0" /><g
       id="g18"
       transform="translate(116.82,374.9)"><path
         d="M 0,0 94.74,0"
         style="fill:none;stroke:#000000;stroke-width:0.986;stroke-linecap:round;stroke-linejoin:round;stroke-miterlimit:10;stroke-opacity:1;stroke-dasharray:none"
         id="path20"
         inkscape:connector-curvature="0" /></g><path
       d="m 211.56,374.84 0.06,0 0,0.06 -0.06,0 0,-0.06 z"
       style="fill:#000000;fill-opacity:1;fill-rule:nonzero;stroke:none"
       id="path22"
       inkscape:connector-curvature="0" /><g
       id="g24"
       transform="translate(198.72,379.82)"><path
         d="M 0,0 12.84,-4.92 0,-9.84 3.96,-4.92 0,0 z"
         style="fill:#000000;fill-opacity:1;fill-rule:nonzero;stroke:#000000;stroke-width:0.986;stroke-linecap:round;stroke-linejoin:round;stroke-miterlimit:10;stroke-opacity:1;stroke-dasharray:none"
         id="path26"
         inkscape:connector-curvature="0" /></g><g
       id="g28"
       transform="translate(117.84,746.9)"><path
         d="M 0,0 0,-372"
         style="fill:none;stroke:#cdcdcd;stroke-width:0.986;stroke-linecap:round;stroke-linejoin:round;stroke-miterlimit:10;stroke-opacity:1;stroke-dasharray:none"
         id="path30"
         inkscape:connector-curvature="0" /></g><path
       d="m 117.84,374.84 0.06,0 0,0.06 -0.06,0 0,-0.06 z"
       style="fill:#cdcdcd;fill-opacity:1;fill-rule:nonzero;stroke:none"
       id="path32"
       inkscape:connector-curvature="0" /><g
       id="g34"
       transform="translate(116.82,746.9)"><path
         d="M 0,0 0,-372"
         style="fill:none;stroke:#000000;stroke-width:0.986;stroke-linecap:round;stroke-linejoin:round;stroke-miterlimit:10;stroke-opacity:1;stroke-dasharray:none"
         id="path36"
         inkscape:connector-curvature="0" /></g><path
       d="m 116.82,374.84 0.06,0 0,0.06 -0.06,0 0,-0.06 z"
       style="fill:#000000;fill-opacity:1;fill-rule:nonzero;stroke:none"
       id="path38"
       inkscape:connector-curvature="0" /><g
       id="g40"
       transform="translate(111.9,734.06)"><path
         d="M 0,0 4.92,12.84 9.84,0 4.92,3.96 0,0 z"
         style="fill:#000000;fill-opacity:1;fill-rule:nonzero;stroke:#000000;stroke-width:0.986;stroke-linecap:round;stroke-linejoin:round;stroke-miterlimit:10;stroke-opacity:1;stroke-dasharray:none"
         id="path42"
         inkscape:connector-curvature="0" /></g><g
       id="g44"
       transform="translate(107.94,746.9)"><path
         d="M 0,0 0,-441.06"
         style="fill:none;stroke:#cdcdcd;stroke-width:0.986;stroke-linecap:round;stroke-linejoin:round;stroke-miterlimit:10;stroke-opacity:1;stroke-dasharray:none"
         id="path46"
         inkscape:connector-curvature="0" /></g><path
       d="m 107.94,305.78 0.06,0 0,0.06 -0.06,0 0,-0.06 z"
       style="fill:#cdcdcd;fill-opacity:1;fill-rule:nonzero;stroke:none"
       id="path48"
       inkscape:connector-curvature="0" /><g
       id="g50"
       transform="translate(106.98,746.9)"><path
         d="M 0,0 0,-441.06"
         style="fill:none;stroke:#000000;stroke-width:0.986;stroke-linecap:round;stroke-linejoin:round;stroke-miterlimit:10;stroke-opacity:1;stroke-dasharray:none"
         id="path52"
         inkscape:connector-curvature="0" /></g><path
       d="m 106.98,305.78 0.06,0 0,0.06 -0.06,0 0,-0.06 z"
       style="fill:#000000;fill-opacity:1;fill-rule:nonzero;stroke:none"
       id="path54"
       inkscape:connector-curvature="0" /><g
       id="g56"
       transform="translate(102.06,734.06)"><path
         d="M 0,0 4.92,12.84 9.84,0 4.92,3.96 0,0 z"
         style="fill:#000000;fill-opacity:1;fill-rule:nonzero;stroke:#000000;stroke-width:0.986;stroke-linecap:round;stroke-linejoin:round;stroke-miterlimit:10;stroke-opacity:1;stroke-dasharray:none"
         id="path58"
         inkscape:connector-curvature="0" /></g><g
       id="g60"
       transform="translate(511.5,245.66)"><path
         d="M 0,0 -165.78,0"
         style="fill:none;stroke:#cdcdcd;stroke-width:0.986;stroke-linecap:round;stroke-linejoin:round;stroke-miterlimit:10;stroke-opacity:1;stroke-dasharray:none"
         id="path62"
         inkscape:connector-curvature="0" /></g><path
       d="m 345.72,245.6 0.06,0 0,0.06 -0.06,0 0,-0.06 z"
       style="fill:#cdcdcd;fill-opacity:1;fill-rule:nonzero;stroke:none"
       id="path64"
       inkscape:connector-curvature="0" /><g
       id="g66"
       transform="translate(511.5,246.62)"><path
         d="M 0,0 -165.78,0"
         style="fill:none;stroke:#000000;stroke-width:0.986;stroke-linecap:round;stroke-linejoin:round;stroke-miterlimit:10;stroke-opacity:1;stroke-dasharray:none"
         id="path68"
         inkscape:connector-curvature="0" /></g><path
       d="m 345.72,246.56 0.06,0 0,0.06 -0.06,0 0,-0.06 z"
       style="fill:#000000;fill-opacity:1;fill-rule:nonzero;stroke:none"
       id="path70"
       inkscape:connector-curvature="0" /><g
       id="g72"
       transform="translate(358.56,241.7)"><path
         d="M 0,0 -12.84,4.92 0,9.84 -3.96,4.92 0,0 z"
         style="fill:#000000;fill-opacity:1;fill-rule:nonzero;stroke:#000000;stroke-width:0.986;stroke-linecap:round;stroke-linejoin:round;stroke-miterlimit:10;stroke-opacity:1;stroke-dasharray:none"
         id="path74"
         inkscape:connector-curvature="0" /></g><g
       id="g76"
       transform="translate(412.86,373.88)"><path
         d="M 0,0 -54.3,0"
         style="fill:none;stroke:#cdcdcd;stroke-width:0.986;stroke-linecap:round;stroke-linejoin:round;stroke-miterlimit:10;stroke-opacity:1;stroke-dasharray:none"
         id="path78"
         inkscape:connector-curvature="0" /></g><path
       d="m 358.56,373.82 0.06,0 0,0.06 -0.06,0 0,-0.06 z"
       style="fill:#cdcdcd;fill-opacity:1;fill-rule:nonzero;stroke:none"
       id="path80"
       inkscape:connector-curvature="0" /><g
       id="g82"
       transform="translate(412.86,374.9)"><path
         d="M 0,0 -54.3,0"
         style="fill:none;stroke:#000000;stroke-width:0.986;stroke-linecap:round;stroke-linejoin:round;stroke-miterlimit:10;stroke-opacity:1;stroke-dasharray:none"
         id="path84"
         inkscape:connector-curvature="0" /></g><path
       d="m 358.56,374.84 0.06,0 0,0.06 -0.06,0 0,-0.06 z"
       style="fill:#000000;fill-opacity:1;fill-rule:nonzero;stroke:none"
       id="path86"
       inkscape:connector-curvature="0" /><g
       id="g88"
       transform="translate(371.4,369.98)"><path
         d="M 0,0 -12.84,4.92 0,9.84 -3.96,4.92 0,0 z"
         style="fill:#000000;fill-opacity:1;fill-rule:nonzero;stroke:#000000;stroke-width:0.986;stroke-linecap:round;stroke-linejoin:round;stroke-miterlimit:10;stroke-opacity:1;stroke-dasharray:none"
         id="path90"
         inkscape:connector-curvature="0" /></g><g
       id="g92"
       transform="translate(126.72,551.48)"><path
         d="M 0,0 76.92,0"
         style="fill:none;stroke:#cdcdcd;stroke-width:0.986;stroke-linecap:round;stroke-linejoin:round;stroke-miterlimit:10;stroke-opacity:1;stroke-dasharray:none"
         id="path94"
         inkscape:connector-curvature="0" /></g><path
       d="m 203.64,551.42 0.06,0 0,0.06 -0.06,0 0,-0.06 z"
       style="fill:#cdcdcd;fill-opacity:1;fill-rule:nonzero;stroke:none"
       id="path96"
       inkscape:connector-curvature="0" /><g
       id="g98"
       transform="translate(126.72,552.5)"><path
         d="M 0,0 76.92,0"
         style="fill:none;stroke:#000000;stroke-width:0.986;stroke-linecap:round;stroke-linejoin:round;stroke-miterlimit:10;stroke-opacity:1;stroke-dasharray:none"
         id="path100"
         inkscape:connector-curvature="0" /></g><path
       d="m 203.64,552.44 0.06,0 0,0.06 -0.06,0 0,-0.06 z"
       style="fill:#000000;fill-opacity:1;fill-rule:nonzero;stroke:none"
       id="path102"
       inkscape:connector-curvature="0" /><g
       id="g104"
       transform="translate(190.86,557.42)"><path
         d="M 0,0 12.78,-4.92 0,-9.84 3.9,-4.92 0,0 z"
         style="fill:#000000;fill-opacity:1;fill-rule:nonzero;stroke:#000000;stroke-width:0.986;stroke-linecap:round;stroke-linejoin:round;stroke-miterlimit:10;stroke-opacity:1;stroke-dasharray:none"
         id="path106"
         inkscape:connector-curvature="0" /></g><g
       id="g108"
       transform="translate(512.52,746.9)"><path
         d="M 0,0 0,-500.28"
         style="fill:none;stroke:#cdcdcd;stroke-width:0.986;stroke-linecap:round;stroke-linejoin:round;stroke-miterlimit:10;stroke-opacity:1;stroke-dasharray:none"
         id="path110"
         inkscape:connector-curvature="0" /></g><path
       d="m 512.52,246.56 0.06,0 0,0.06 -0.06,0 0,-0.06 z"
       style="fill:#cdcdcd;fill-opacity:1;fill-rule:nonzero;stroke:none"
       id="path112"
       inkscape:connector-curvature="0" /><g
       id="g114"
       transform="translate(511.5,746.9)"><path
         d="M 0,0 0,-500.28"
         style="fill:none;stroke:#000000;stroke-width:0.986;stroke-linecap:round;stroke-linejoin:round;stroke-miterlimit:10;stroke-opacity:1;stroke-dasharray:none"
         id="path116"
         inkscape:connector-curvature="0" /></g><path
       d="m 511.5,246.56 0.06,0 0,0.06 -0.06,0 0,-0.06 z"
       style="fill:#000000;fill-opacity:1;fill-rule:nonzero;stroke:none"
       id="path118"
       inkscape:connector-curvature="0" /><g
       id="g120"
       transform="translate(506.58,734.06)"><path
         d="M 0,0 4.92,12.84 9.84,0 4.92,3.96 0,0 z"
         style="fill:#000000;fill-opacity:1;fill-rule:nonzero;stroke:#000000;stroke-width:0.986;stroke-linecap:round;stroke-linejoin:round;stroke-miterlimit:10;stroke-opacity:1;stroke-dasharray:none"
         id="path122"
         inkscape:connector-curvature="0" /></g><g
       id="g124"
       transform="translate(413.82,746.9)"><path
         d="M 0,0 0,-372"
         style="fill:none;stroke:#cdcdcd;stroke-width:0.986;stroke-linecap:round;stroke-linejoin:round;stroke-miterlimit:10;stroke-opacity:1;stroke-dasharray:none"
         id="path126"
         inkscape:connector-curvature="0" /></g><path
       d="m 413.82,374.84 0.06,0 0,0.06 -0.06,0 0,-0.06 z"
       style="fill:#cdcdcd;fill-opacity:1;fill-rule:nonzero;stroke:none"
       id="path128"
       inkscape:connector-curvature="0" /><g
       id="g130"
       transform="translate(412.86,746.9)"><path
         d="M 0,0 0,-372"
         style="fill:none;stroke:#000000;stroke-width:0.986;stroke-linecap:round;stroke-linejoin:round;stroke-miterlimit:10;stroke-opacity:1;stroke-dasharray:none"
         id="path132"
         inkscape:connector-curvature="0" /></g><path
       d="m 412.86,374.84 0.06,0 0,0.06 -0.06,0 0,-0.06 z"
       style="fill:#000000;fill-opacity:1;fill-rule:nonzero;stroke:none"
       id="path134"
       inkscape:connector-curvature="0" /><g
       id="g136"
       transform="translate(407.88,734.06)"><path
         d="M 0,0 4.98,12.84 9.9,0 4.98,3.96 0,0 z"
         style="fill:#000000;fill-opacity:1;fill-rule:nonzero;stroke:#000000;stroke-width:0.986;stroke-linecap:round;stroke-linejoin:round;stroke-miterlimit:10;stroke-opacity:1;stroke-dasharray:none"
         id="path138"
         inkscape:connector-curvature="0" /></g><g
       id="g140"
       transform="translate(127.68,746.9)"><path
         d="M 0,0 0,-194.4"
         style="fill:none;stroke:#cdcdcd;stroke-width:0.986;stroke-linecap:round;stroke-linejoin:round;stroke-miterlimit:10;stroke-opacity:1;stroke-dasharray:none"
         id="path142"
         inkscape:connector-curvature="0" /></g><path
       d="m 127.68,552.44 0.06,0 0,0.06 -0.06,0 0,-0.06 z"
       style="fill:#cdcdcd;fill-opacity:1;fill-rule:nonzero;stroke:none"
       id="path144"
       inkscape:connector-curvature="0" /><g
       id="g146"
       transform="translate(126.72,746.9)"><path
         d="M 0,0 0,-194.4"
         style="fill:none;stroke:#000000;stroke-width:0.986;stroke-linecap:round;stroke-linejoin:round;stroke-miterlimit:10;stroke-opacity:1;stroke-dasharray:none"
         id="path148"
         inkscape:connector-curvature="0" /></g><path
       d="m 126.72,552.44 0.06,0 0,0.06 -0.06,0 0,-0.06 z"
       style="fill:#000000;fill-opacity:1;fill-rule:nonzero;stroke:none"
       id="path150"
       inkscape:connector-curvature="0" /><g
       id="g152"
       transform="translate(121.74,734.06)"><path
         d="M 0,0 4.98,12.84 9.9,0 4.98,3.96 0,0 z"
         style="fill:#000000;fill-opacity:1;fill-rule:nonzero;stroke:#000000;stroke-width:0.986;stroke-linecap:round;stroke-linejoin:round;stroke-miterlimit:10;stroke-opacity:1;stroke-dasharray:none"
         id="path154"
         inkscape:connector-curvature="0" /></g><g
       id="g156"
       transform="translate(432.6,630.44)"><path
         d="M 0,0 -86.88,0"
         style="fill:none;stroke:#cdcdcd;stroke-width:0.986;stroke-linecap:round;stroke-linejoin:round;stroke-miterlimit:10;stroke-opacity:1;stroke-dasharray:none"
         id="path158"
         inkscape:connector-curvature="0" /></g><path
       d="m 345.72,630.38 0.06,0 0,0.06 -0.06,0 0,-0.06 z"
       style="fill:#cdcdcd;fill-opacity:1;fill-rule:nonzero;stroke:none"
       id="path160"
       inkscape:connector-curvature="0" /><g
       id="g162"
       transform="translate(432.6,631.4)"><path
         d="M 0,0 -86.88,0"
         style="fill:none;stroke:#000000;stroke-width:0.986;stroke-linecap:round;stroke-linejoin:round;stroke-miterlimit:10;stroke-opacity:1;stroke-dasharray:none"
         id="path164"
         inkscape:connector-curvature="0" /></g><path
       d="m 345.72,631.34 0.06,0 0,0.06 -0.06,0 0,-0.06 z"
       style="fill:#000000;fill-opacity:1;fill-rule:nonzero;stroke:none"
       id="path166"
       inkscape:connector-curvature="0" /><g
       id="g168"
       transform="translate(358.56,626.48)"><path
         d="M 0,0 -12.84,4.92 0,9.9 -3.96,4.92 0,0 z"
         style="fill:#000000;fill-opacity:1;fill-rule:nonzero;stroke:#000000;stroke-width:0.986;stroke-linecap:round;stroke-linejoin:round;stroke-miterlimit:10;stroke-opacity:1;stroke-dasharray:none"
         id="path170"
         inkscape:connector-curvature="0" /></g><g
       id="g172"
       transform="translate(156.3,630.44)"><path
         d="M 0,0 47.34,0"
         style="fill:none;stroke:#cdcdcd;stroke-width:0.986;stroke-linecap:round;stroke-linejoin:round;stroke-miterlimit:10;stroke-opacity:1;stroke-dasharray:none"
         id="path174"
         inkscape:connector-curvature="0" /></g><path
       d="m 203.64,630.38 0.06,0 0,0.06 -0.06,0 0,-0.06 z"
       style="fill:#cdcdcd;fill-opacity:1;fill-rule:nonzero;stroke:none"
       id="path176"
       inkscape:connector-curvature="0" /><g
       id="g178"
       transform="translate(156.3,631.4)"><path
         d="M 0,0 47.34,0"
         style="fill:none;stroke:#000000;stroke-width:0.986;stroke-linecap:round;stroke-linejoin:round;stroke-miterlimit:10;stroke-opacity:1;stroke-dasharray:none"
         id="path180"
         inkscape:connector-curvature="0" /></g><path
       d="m 203.64,631.34 0.06,0 0,0.06 -0.06,0 0,-0.06 z"
       style="fill:#000000;fill-opacity:1;fill-rule:nonzero;stroke:none"
       id="path182"
       inkscape:connector-curvature="0" /><g
       id="g184"
       transform="translate(190.86,636.38)"><path
         d="M 0,0 12.78,-4.98 0,-9.9 3.9,-4.98 0,0 z"
         style="fill:#000000;fill-opacity:1;fill-rule:nonzero;stroke:#000000;stroke-width:0.986;stroke-linecap:round;stroke-linejoin:round;stroke-miterlimit:10;stroke-opacity:1;stroke-dasharray:none"
         id="path186"
         inkscape:connector-curvature="0" /></g><g
       id="g188"
       transform="translate(166.2,709.4)"><path
         d="M 0,0 31.56,0"
         style="fill:none;stroke:#cdcdcd;stroke-width:0.986;stroke-linecap:round;stroke-linejoin:round;stroke-miterlimit:10;stroke-opacity:1;stroke-dasharray:none"
         id="path190"
         inkscape:connector-curvature="0" /></g><path
       d="m 197.76,709.34 0.06,0 0,0.0599 -0.06,0 0,-0.0599 z"
       style="fill:#cdcdcd;fill-opacity:1;fill-rule:nonzero;stroke:none"
       id="path192"
       inkscape:connector-curvature="0" /><g
       id="g194"
       transform="translate(166.2,710.36)"><path
         d="M 0,0 31.56,0"
         style="fill:none;stroke:#000000;stroke-width:0.986;stroke-linecap:round;stroke-linejoin:round;stroke-miterlimit:10;stroke-opacity:1;stroke-dasharray:none"
         id="path196"
         inkscape:connector-curvature="0" /></g><path
       d="m 197.76,710.3 0.06,0 0,0.06 -0.06,0 0,-0.06 z"
       style="fill:#000000;fill-opacity:1;fill-rule:nonzero;stroke:none"
       id="path198"
       inkscape:connector-curvature="0" /><g
       id="g200"
       transform="translate(184.92,715.28)"><path
         d="M 0,0 12.84,-4.92 0,-9.84 3.96,-4.92 0,0 z"
         style="fill:#000000;fill-opacity:1;fill-rule:nonzero;stroke:#000000;stroke-width:0.986;stroke-linecap:round;stroke-linejoin:round;stroke-miterlimit:10;stroke-opacity:1;stroke-dasharray:none"
         id="path202"
         inkscape:connector-curvature="0" /></g><g
       id="g204"
       transform="translate(492.78,746.9)"><path
         d="M 0,0 0,-441.06"
         style="fill:none;stroke:#cdcdcd;stroke-width:0.986;stroke-linecap:round;stroke-linejoin:round;stroke-miterlimit:10;stroke-opacity:1;stroke-dasharray:none"
         id="path206"
         inkscape:connector-curvature="0" /></g><path
       d="m 492.78,305.78 0.06,0 0,0.06 -0.06,0 0,-0.06 z"
       style="fill:#cdcdcd;fill-opacity:1;fill-rule:nonzero;stroke:none"
       id="path208"
       inkscape:connector-curvature="0" /><g
       id="g210"
       transform="translate(491.76,746.9)"><path
         d="M 0,0 0,-441.06"
         style="fill:none;stroke:#000000;stroke-width:0.986;stroke-linecap:round;stroke-linejoin:round;stroke-miterlimit:10;stroke-opacity:1;stroke-dasharray:none"
         id="path212"
         inkscape:connector-curvature="0" /></g><path
       d="m 491.76,305.78 0.06,0 0,0.06 -0.06,0 0,-0.06 z"
       style="fill:#000000;fill-opacity:1;fill-rule:nonzero;stroke:none"
       id="path214"
       inkscape:connector-curvature="0" /><g
       id="g216"
       transform="translate(486.84,734.06)"><path
         d="M 0,0 4.92,12.84 9.84,0 4.92,3.96 0,0 z"
         style="fill:#000000;fill-opacity:1;fill-rule:nonzero;stroke:#000000;stroke-width:0.986;stroke-linecap:round;stroke-linejoin:round;stroke-miterlimit:10;stroke-opacity:1;stroke-dasharray:none"
         id="path218"
         inkscape:connector-curvature="0" /></g><g
       id="g220"
       transform="translate(433.56,746.9)"><path
         d="M 0,0 0,-115.5"
         style="fill:none;stroke:#cdcdcd;stroke-width:0.986;stroke-linecap:round;stroke-linejoin:round;stroke-miterlimit:10;stroke-opacity:1;stroke-dasharray:none"
         id="path222"
         inkscape:connector-curvature="0" /></g><path
       d="m 433.56,631.34 0.06,0 0,0.06 -0.06,0 0,-0.06 z"
       style="fill:#cdcdcd;fill-opacity:1;fill-rule:nonzero;stroke:none"
       id="path224"
       inkscape:connector-curvature="0" /><g
       id="g226"
       transform="translate(432.6,746.9)"><path
         d="M 0,0 0,-115.5"
         style="fill:none;stroke:#000000;stroke-width:0.986;stroke-linecap:round;stroke-linejoin:round;stroke-miterlimit:10;stroke-opacity:1;stroke-dasharray:none"
         id="path228"
         inkscape:connector-curvature="0" /></g><path
       d="m 432.6,631.34 0.06,0 0,0.06 -0.06,0 0,-0.06 z"
       style="fill:#000000;fill-opacity:1;fill-rule:nonzero;stroke:none"
       id="path230"
       inkscape:connector-curvature="0" /><g
       id="g232"
       transform="translate(427.62,734.06)"><path
         d="M 0,0 4.98,12.84 9.9,0 4.98,3.96 0,0 z"
         style="fill:#000000;fill-opacity:1;fill-rule:nonzero;stroke:#000000;stroke-width:0.986;stroke-linecap:round;stroke-linejoin:round;stroke-miterlimit:10;stroke-opacity:1;stroke-dasharray:none"
         id="path234"
         inkscape:connector-curvature="0" /></g><g
       id="g236"
       transform="translate(167.16,746.9)"><path
         d="M 0,0 0,-36.54"
         style="fill:none;stroke:#cdcdcd;stroke-width:0.986;stroke-linecap:round;stroke-linejoin:round;stroke-miterlimit:10;stroke-opacity:1;stroke-dasharray:none"
         id="path238"
         inkscape:connector-curvature="0" /></g><path
       d="m 167.16,710.3 0.06,0 0,0.06 -0.06,0 0,-0.06 z"
       style="fill:#cdcdcd;fill-opacity:1;fill-rule:nonzero;stroke:none"
       id="path240"
       inkscape:connector-curvature="0" /><g
       id="g242"
       transform="translate(166.2,746.9)"><path
         d="M 0,0 0,-36.54"
         style="fill:none;stroke:#000000;stroke-width:0.986;stroke-linecap:round;stroke-linejoin:round;stroke-miterlimit:10;stroke-opacity:1;stroke-dasharray:none"
         id="path244"
         inkscape:connector-curvature="0" /></g><path
       d="m 166.2,710.3 0.06,0 0,0.06 -0.06,0 0,-0.06 z"
       style="fill:#000000;fill-opacity:1;fill-rule:nonzero;stroke:none"
       id="path246"
       inkscape:connector-curvature="0" /><g
       id="g248"
       transform="translate(161.22,734.06)"><path
         d="M 0,0 4.98,12.84 9.9,0 4.98,3.96 0,0 z"
         style="fill:#000000;fill-opacity:1;fill-rule:nonzero;stroke:#000000;stroke-width:0.986;stroke-linecap:round;stroke-linejoin:round;stroke-miterlimit:10;stroke-opacity:1;stroke-dasharray:none"
         id="path250"
         inkscape:connector-curvature="0" /></g><g
       id="g252"
       transform="translate(157.32,746.9)"><path
         d="M 0,0 0,-115.5"
         style="fill:none;stroke:#cdcdcd;stroke-width:0.986;stroke-linecap:round;stroke-linejoin:round;stroke-miterlimit:10;stroke-opacity:1;stroke-dasharray:none"
         id="path254"
         inkscape:connector-curvature="0" /></g><path
       d="m 157.32,631.34 0.06,0 0,0.06 -0.06,0 0,-0.06 z"
       style="fill:#cdcdcd;fill-opacity:1;fill-rule:nonzero;stroke:none"
       id="path256"
       inkscape:connector-curvature="0" /><g
       id="g258"
       transform="translate(156.3,746.9)"><path
         d="M 0,0 0,-115.5"
         style="fill:none;stroke:#000000;stroke-width:0.986;stroke-linecap:round;stroke-linejoin:round;stroke-miterlimit:10;stroke-opacity:1;stroke-dasharray:none"
         id="path260"
         inkscape:connector-curvature="0" /></g><path
       d="m 156.3,631.34 0.06,0 0,0.06 -0.06,0 0,-0.06 z"
       style="fill:#000000;fill-opacity:1;fill-rule:nonzero;stroke:none"
       id="path262"
       inkscape:connector-curvature="0" /><g
       id="g264"
       transform="translate(151.38,734.06)"><path
         d="M 0,0 4.92,12.84 9.84,0 4.92,3.96 0,0 z"
         style="fill:#000000;fill-opacity:1;fill-rule:nonzero;stroke:#000000;stroke-width:0.986;stroke-linecap:round;stroke-linejoin:round;stroke-miterlimit:10;stroke-opacity:1;stroke-dasharray:none"
         id="path266"
         inkscape:connector-curvature="0" /></g><g
       id="g268"
       transform="translate(491.76,492.32)"><path
         d="M 0,0 -146.04,0"
         style="fill:none;stroke:#cdcdcd;stroke-width:0.986;stroke-linecap:round;stroke-linejoin:round;stroke-miterlimit:10;stroke-opacity:1;stroke-dasharray:none"
         id="path270"
         inkscape:connector-curvature="0" /></g><path
       d="m 345.72,492.26 0.06,0 0,0.06 -0.06,0 0,-0.06 z"
       style="fill:#cdcdcd;fill-opacity:1;fill-rule:nonzero;stroke:none"
       id="path272"
       inkscape:connector-curvature="0" /><g
       id="g274"
       transform="translate(491.76,493.28)"><path
         d="M 0,0 -146.04,0"
         style="fill:none;stroke:#000000;stroke-width:0.986;stroke-linecap:round;stroke-linejoin:round;stroke-miterlimit:10;stroke-opacity:1;stroke-dasharray:none"
         id="path276"
         inkscape:connector-curvature="0" /></g><path
       d="m 345.72,493.22 0.06,0 0,0.06 -0.06,0 0,-0.06 z"
       style="fill:#000000;fill-opacity:1;fill-rule:nonzero;stroke:none"
       id="path278"
       inkscape:connector-curvature="0" /><g
       id="g280"
       transform="translate(358.56,488.36)"><path
         d="M 0,0 -12.84,4.92 0,9.84 -3.96,4.92 0,0 z"
         style="fill:#000000;fill-opacity:1;fill-rule:nonzero;stroke:#000000;stroke-width:0.986;stroke-linecap:round;stroke-linejoin:round;stroke-miterlimit:10;stroke-opacity:1;stroke-dasharray:none"
         id="path282"
         inkscape:connector-curvature="0" /></g><g
       id="g284"
       transform="translate(462.18,551.48)"><path
         d="M 0,0 -116.46,0"
         style="fill:none;stroke:#cdcdcd;stroke-width:0.986;stroke-linecap:round;stroke-linejoin:round;stroke-miterlimit:10;stroke-opacity:1;stroke-dasharray:none"
         id="path286"
         inkscape:connector-curvature="0" /></g><path
       d="m 345.72,551.42 0.06,0 0,0.06 -0.06,0 0,-0.06 z"
       style="fill:#cdcdcd;fill-opacity:1;fill-rule:nonzero;stroke:none"
       id="path288"
       inkscape:connector-curvature="0" /><g
       id="g290"
       transform="translate(462.18,552.5)"><path
         d="M 0,0 -116.46,0"
         style="fill:none;stroke:#000000;stroke-width:0.986;stroke-linecap:round;stroke-linejoin:round;stroke-miterlimit:10;stroke-opacity:1;stroke-dasharray:none"
         id="path292"
         inkscape:connector-curvature="0" /></g><path
       d="m 345.72,552.44 0.06,0 0,0.06 -0.06,0 0,-0.06 z"
       style="fill:#000000;fill-opacity:1;fill-rule:nonzero;stroke:none"
       id="path294"
       inkscape:connector-curvature="0" /><g
       id="g296"
       transform="translate(358.56,547.58)"><path
         d="M 0,0 -12.84,4.92 0,9.84 -3.96,4.92 0,0 z"
         style="fill:#000000;fill-opacity:1;fill-rule:nonzero;stroke:#000000;stroke-width:0.986;stroke-linecap:round;stroke-linejoin:round;stroke-miterlimit:10;stroke-opacity:1;stroke-dasharray:none"
         id="path298"
         inkscape:connector-curvature="0" /></g><g
       id="g300"
       transform="translate(412.86,709.4)"><path
         d="M 0,0 -40.5,0"
         style="fill:none;stroke:#cdcdcd;stroke-width:0.986;stroke-linecap:round;stroke-linejoin:round;stroke-miterlimit:10;stroke-opacity:1;stroke-dasharray:none"
         id="path302"
         inkscape:connector-curvature="0" /></g><path
       d="m 372.36,709.34 0.06,0 0,0.0599 -0.06,0 0,-0.0599 z"
       style="fill:#cdcdcd;fill-opacity:1;fill-rule:nonzero;stroke:none"
       id="path304"
       inkscape:connector-curvature="0" /><g
       id="g306"
       transform="translate(412.86,710.36)"><path
         d="M 0,0 -40.5,0"
         style="fill:none;stroke:#000000;stroke-width:0.986;stroke-linecap:round;stroke-linejoin:round;stroke-miterlimit:10;stroke-opacity:1;stroke-dasharray:none"
         id="path308"
         inkscape:connector-curvature="0" /></g><path
       d="m 372.36,710.3 0.06,0 0,0.06 -0.06,0 0,-0.06 z"
       style="fill:#000000;fill-opacity:1;fill-rule:nonzero;stroke:none"
       id="path310"
       inkscape:connector-curvature="0" /><g
       id="g312"
       transform="translate(385.2,705.44)"><path
         d="M 0,0 -12.84,4.92 0,9.84 -3.96,4.92 0,0 z"
         style="fill:#000000;fill-opacity:1;fill-rule:nonzero;stroke:#000000;stroke-width:0.986;stroke-linecap:round;stroke-linejoin:round;stroke-miterlimit:10;stroke-opacity:1;stroke-dasharray:none"
         id="path314"
         inkscape:connector-curvature="0" /></g><g
       id="g316"
       transform="translate(413.82,746.9)"><path
         d="M 0,0 0,-36.54"
         style="fill:none;stroke:#cdcdcd;stroke-width:0.986;stroke-linecap:round;stroke-linejoin:round;stroke-miterlimit:10;stroke-opacity:1;stroke-dasharray:none"
         id="path318"
         inkscape:connector-curvature="0" /></g><path
       d="m 413.82,710.3 0.06,0 0,0.06 -0.06,0 0,-0.06 z"
       style="fill:#cdcdcd;fill-opacity:1;fill-rule:nonzero;stroke:none"
       id="path320"
       inkscape:connector-curvature="0" /><g
       id="g322"
       transform="translate(412.86,746.9)"><path
         d="M 0,0 0,-36.54"
         style="fill:none;stroke:#000000;stroke-width:0.986;stroke-linecap:round;stroke-linejoin:round;stroke-miterlimit:10;stroke-opacity:1;stroke-dasharray:none"
         id="path324"
         inkscape:connector-curvature="0" /></g><path
       d="m 412.86,710.3 0.06,0 0,0.06 -0.06,0 0,-0.06 z"
       style="fill:#000000;fill-opacity:1;fill-rule:nonzero;stroke:none"
       id="path326"
       inkscape:connector-curvature="0" /><g
       id="g328"
       transform="translate(407.88,734.06)"><path
         d="M 0,0 4.98,12.84 9.9,0 4.98,3.96 0,0 z"
         style="fill:#000000;fill-opacity:1;fill-rule:nonzero;stroke:#000000;stroke-width:0.986;stroke-linecap:round;stroke-linejoin:round;stroke-miterlimit:10;stroke-opacity:1;stroke-dasharray:none"
         id="path330"
         inkscape:connector-curvature="0" /></g><g
       id="g332"
       transform="translate(402,775.46)"><path
         d="M 0,0 -24.66,1.02"
         style="fill:none;stroke:#cdcdcd;stroke-width:0.986;stroke-linecap:round;stroke-linejoin:round;stroke-miterlimit:10;stroke-opacity:1;stroke-dasharray:none"
         id="path334"
         inkscape:connector-curvature="0" /></g><path
       d="m 377.34,776.42 0.06,0 0,0.0601 -0.06,0 0,-0.0601 z"
       style="fill:#cdcdcd;fill-opacity:1;fill-rule:nonzero;stroke:none"
       id="path336"
       inkscape:connector-curvature="0" /><g
       id="g338"
       transform="translate(402,776.48)"><path
         d="M 0,0 -24.66,0.96"
         style="fill:none;stroke:#000000;stroke-width:0.986;stroke-linecap:round;stroke-linejoin:round;stroke-miterlimit:10;stroke-opacity:1;stroke-dasharray:none"
         id="path340"
         inkscape:connector-curvature="0" /></g><path
       d="m 377.34,777.38 0.06,0 0,0.06 -0.06,0 0,-0.06 z"
       style="fill:#000000;fill-opacity:1;fill-rule:nonzero;stroke:none"
       id="path342"
       inkscape:connector-curvature="0" /><g
       id="g344"
       transform="translate(390.12,772.52)"><path
         d="M 0,0 -12.78,4.92 0,8.88 -3.9,4.92 0,0 z"
         style="fill:#000000;fill-opacity:1;fill-rule:nonzero;stroke:#000000;stroke-width:0.986;stroke-linecap:round;stroke-linejoin:round;stroke-miterlimit:10;stroke-opacity:1;stroke-dasharray:none"
         id="path346"
         inkscape:connector-curvature="0" /></g><g
       id="g348"
       transform="translate(389.16,781.4)"><path
         d="M 0,0 12.84,-4.92 0,-8.88 3.96,-4.92 0,0 z"
         style="fill:#000000;fill-opacity:1;fill-rule:nonzero;stroke:#000000;stroke-width:0.986;stroke-linecap:round;stroke-linejoin:round;stroke-miterlimit:10;stroke-opacity:1;stroke-dasharray:none"
         id="path350"
         inkscape:connector-curvature="0" /></g><g
       id="g352"
       transform="translate(77.34,245.66)"><path
         d="M 0,0 126.3,0"
         style="fill:none;stroke:#cdcdcd;stroke-width:0.986;stroke-linecap:round;stroke-linejoin:round;stroke-miterlimit:10;stroke-opacity:1;stroke-dasharray:none"
         id="path354"
         inkscape:connector-curvature="0" /></g><path
       d="m 203.64,245.6 0.06,0 0,0.06 -0.06,0 0,-0.06 z"
       style="fill:#cdcdcd;fill-opacity:1;fill-rule:nonzero;stroke:none"
       id="path356"
       inkscape:connector-curvature="0" /><g
       id="g358"
       transform="translate(77.34,246.62)"><path
         d="M 0,0 126.3,0"
         style="fill:none;stroke:#000000;stroke-width:0.986;stroke-linecap:round;stroke-linejoin:round;stroke-miterlimit:10;stroke-opacity:1;stroke-dasharray:none"
         id="path360"
         inkscape:connector-curvature="0" /></g><path
       d="m 203.64,246.56 0.06,0 0,0.06 -0.06,0 0,-0.06 z"
       style="fill:#000000;fill-opacity:1;fill-rule:nonzero;stroke:none"
       id="path362"
       inkscape:connector-curvature="0" /><g
       id="g364"
       transform="translate(190.86,251.54)"><path
         d="M 0,0 12.78,-4.92 0,-9.84 3.9,-4.92 0,0 z"
         style="fill:#000000;fill-opacity:1;fill-rule:nonzero;stroke:#000000;stroke-width:0.986;stroke-linecap:round;stroke-linejoin:round;stroke-miterlimit:10;stroke-opacity:1;stroke-dasharray:none"
         id="path366"
         inkscape:connector-curvature="0" /></g><g
       id="g368"
       transform="translate(491.76,304.82)"><path
         d="M 0,0 -146.04,0"
         style="fill:none;stroke:#cdcdcd;stroke-width:0.986;stroke-linecap:round;stroke-linejoin:round;stroke-miterlimit:10;stroke-opacity:1;stroke-dasharray:none"
         id="path370"
         inkscape:connector-curvature="0" /></g><path
       d="m 345.72,304.76 0.06,0 0,0.06 -0.06,0 0,-0.06 z"
       style="fill:#cdcdcd;fill-opacity:1;fill-rule:nonzero;stroke:none"
       id="path372"
       inkscape:connector-curvature="0" /><g
       id="g374"
       transform="translate(491.76,305.84)"><path
         d="M 0,0 -146.04,0"
         style="fill:none;stroke:#000000;stroke-width:0.986;stroke-linecap:round;stroke-linejoin:round;stroke-miterlimit:10;stroke-opacity:1;stroke-dasharray:none"
         id="path376"
         inkscape:connector-curvature="0" /></g><path
       d="m 345.72,305.78 0.06,0 0,0.06 -0.06,0 0,-0.06 z"
       style="fill:#000000;fill-opacity:1;fill-rule:nonzero;stroke:none"
       id="path378"
       inkscape:connector-curvature="0" /><g
       id="g380"
       transform="translate(358.56,300.92)"><path
         d="M 0,0 -12.84,4.92 0,9.84 -3.96,4.92 0,0 z"
         style="fill:#000000;fill-opacity:1;fill-rule:nonzero;stroke:#000000;stroke-width:0.986;stroke-linecap:round;stroke-linejoin:round;stroke-miterlimit:10;stroke-opacity:1;stroke-dasharray:none"
         id="path382"
         inkscape:connector-curvature="0" /></g><g
       id="g384"
       transform="translate(106.98,304.82)"><path
         d="M 0,0 96.66,0"
         style="fill:none;stroke:#cdcdcd;stroke-width:0.986;stroke-linecap:round;stroke-linejoin:round;stroke-miterlimit:10;stroke-opacity:1;stroke-dasharray:none"
         id="path386"
         inkscape:connector-curvature="0" /></g><path
       d="m 203.64,304.76 0.06,0 0,0.06 -0.06,0 0,-0.06 z"
       style="fill:#cdcdcd;fill-opacity:1;fill-rule:nonzero;stroke:none"
       id="path388"
       inkscape:connector-curvature="0" /><g
       id="g390"
       transform="translate(106.98,305.84)"><path
         d="M 0,0 96.66,0"
         style="fill:none;stroke:#000000;stroke-width:0.986;stroke-linecap:round;stroke-linejoin:round;stroke-miterlimit:10;stroke-opacity:1;stroke-dasharray:none"
         id="path392"
         inkscape:connector-curvature="0" /></g><path
       d="m 203.64,305.78 0.06,0 0,0.06 -0.06,0 0,-0.06 z"
       style="fill:#000000;fill-opacity:1;fill-rule:nonzero;stroke:none"
       id="path394"
       inkscape:connector-curvature="0" /><g
       id="g396"
       transform="translate(190.86,310.76)"><path
         d="M 0,0 12.78,-4.92 0,-9.84 3.9,-4.92 0,0 z"
         style="fill:#000000;fill-opacity:1;fill-rule:nonzero;stroke:#000000;stroke-width:0.986;stroke-linecap:round;stroke-linejoin:round;stroke-miterlimit:10;stroke-opacity:1;stroke-dasharray:none"
         id="path398"
         inkscape:connector-curvature="0" /></g><g
       id="g400"
       transform="translate(492.78,746.9)"><path
         d="M 0,0 0,-253.62"
         style="fill:none;stroke:#cdcdcd;stroke-width:0.986;stroke-linecap:round;stroke-linejoin:round;stroke-miterlimit:10;stroke-opacity:1;stroke-dasharray:none"
         id="path402"
         inkscape:connector-curvature="0" /></g><path
       d="m 492.78,493.22 0.06,0 0,0.06 -0.06,0 0,-0.06 z"
       style="fill:#cdcdcd;fill-opacity:1;fill-rule:nonzero;stroke:none"
       id="path404"
       inkscape:connector-curvature="0" /><g
       id="g406"
       transform="translate(491.76,746.9)"><path
         d="M 0,0 0,-253.62"
         style="fill:none;stroke:#000000;stroke-width:0.986;stroke-linecap:round;stroke-linejoin:round;stroke-miterlimit:10;stroke-opacity:1;stroke-dasharray:none"
         id="path408"
         inkscape:connector-curvature="0" /></g><path
       d="m 491.76,493.22 0.06,0 0,0.06 -0.06,0 0,-0.06 z"
       style="fill:#000000;fill-opacity:1;fill-rule:nonzero;stroke:none"
       id="path410"
       inkscape:connector-curvature="0" /><g
       id="g412"
       transform="translate(486.84,734.06)"><path
         d="M 0,0 4.92,12.84 9.84,0 4.92,3.96 0,0 z"
         style="fill:#000000;fill-opacity:1;fill-rule:nonzero;stroke:#000000;stroke-width:0.986;stroke-linecap:round;stroke-linejoin:round;stroke-miterlimit:10;stroke-opacity:1;stroke-dasharray:none"
         id="path414"
         inkscape:connector-curvature="0" /></g><g
       id="g416"
       transform="translate(463.14,746.9)"><path
         d="M 0,0 0,-194.4"
         style="fill:none;stroke:#cdcdcd;stroke-width:0.986;stroke-linecap:round;stroke-linejoin:round;stroke-miterlimit:10;stroke-opacity:1;stroke-dasharray:none"
         id="path418"
         inkscape:connector-curvature="0" /></g><path
       d="m 463.14,552.44 0.06,0 0,0.06 -0.06,0 0,-0.06 z"
       style="fill:#cdcdcd;fill-opacity:1;fill-rule:nonzero;stroke:none"
       id="path420"
       inkscape:connector-curvature="0" /><g
       id="g422"
       transform="translate(462.18,746.9)"><path
         d="M 0,0 0,-194.4"
         style="fill:none;stroke:#000000;stroke-width:0.986;stroke-linecap:round;stroke-linejoin:round;stroke-miterlimit:10;stroke-opacity:1;stroke-dasharray:none"
         id="path424"
         inkscape:connector-curvature="0" /></g><path
       d="m 462.18,552.44 0.06,0 0,0.06 -0.06,0 0,-0.06 z"
       style="fill:#000000;fill-opacity:1;fill-rule:nonzero;stroke:none"
       id="path426"
       inkscape:connector-curvature="0" /><g
       id="g428"
       transform="translate(457.26,734.06)"><path
         d="M 0,0 4.92,12.84 9.84,0 4.92,3.96 0,0 z"
         style="fill:#000000;fill-opacity:1;fill-rule:nonzero;stroke:#000000;stroke-width:0.986;stroke-linecap:round;stroke-linejoin:round;stroke-miterlimit:10;stroke-opacity:1;stroke-dasharray:none"
         id="path430"
         inkscape:connector-curvature="0" /></g><g
       id="g432"
       transform="translate(78.36,746.9)"><path
         d="M 0,0 0,-500.28"
         style="fill:none;stroke:#cdcdcd;stroke-width:0.986;stroke-linecap:round;stroke-linejoin:round;stroke-miterlimit:10;stroke-opacity:1;stroke-dasharray:none"
         id="path434"
         inkscape:connector-curvature="0" /></g><path
       d="m 78.36,246.56 0.06,0 0,0.06 -0.06,0 0,-0.06 z"
       style="fill:#cdcdcd;fill-opacity:1;fill-rule:nonzero;stroke:none"
       id="path436"
       inkscape:connector-curvature="0" /><g
       id="g438"
       transform="translate(77.34,746.9)"><path
         d="M 0,0 0,-500.28"
         style="fill:none;stroke:#000000;stroke-width:0.986;stroke-linecap:round;stroke-linejoin:round;stroke-miterlimit:10;stroke-opacity:1;stroke-dasharray:none"
         id="path440"
         inkscape:connector-curvature="0" /></g><path
       d="m 77.34,246.56 0.06,0 0,0.06 -0.06,0 0,-0.06 z"
       style="fill:#000000;fill-opacity:1;fill-rule:nonzero;stroke:none"
       id="path442"
       inkscape:connector-curvature="0" /><g
       id="g444"
       transform="translate(72.42,734.06)"><path
         d="M 0,0 4.92,12.84 9.9,0 4.92,3.96 0,0 z"
         style="fill:#000000;fill-opacity:1;fill-rule:nonzero;stroke:#000000;stroke-width:0.986;stroke-linecap:round;stroke-linejoin:round;stroke-miterlimit:10;stroke-opacity:1;stroke-dasharray:none"
         id="path446"
         inkscape:connector-curvature="0" /></g><g
       id="g448"
       transform="translate(346.68,244.7)"><path
         d="m 0,0 c 0,13.08 -31.38,23.64 -70.02,23.64 -38.7,0 -70.02,-10.56 -70.02,-23.64 0,-13.02 31.32,-23.64 70.02,-23.64 C -31.38,-23.64 0,-13.02 0,0 z"
         style="fill:#c0c0c0;fill-opacity:1;fill-rule:nonzero;stroke:#c0c0c0;stroke-width:0.986;stroke-linecap:round;stroke-linejoin:round;stroke-miterlimit:10;stroke-opacity:1;stroke-dasharray:none"
         id="path450"
         inkscape:connector-curvature="0" /></g><g
       id="g452"
       transform="translate(344.7,246.68)"><path
         d="m 0,0 c 0,13.08 -31.38,23.64 -70.02,23.64 -38.7,0 -70.02,-10.56 -70.02,-23.64 0,-13.08 31.32,-23.7 70.02,-23.7 C -31.38,-23.7 0,-13.08 0,0 z"
         style="fill:#b0e0df;fill-opacity:1;fill-rule:nonzero;stroke:#000000;stroke-width:0.986;stroke-linecap:round;stroke-linejoin:round;stroke-miterlimit:10;stroke-opacity:1;stroke-dasharray:none"
         id="path454"
         inkscape:connector-curvature="0" /></g><g
       id="g456"
       transform="translate(343.74,246.68)"><path
         d="m 0,0 c 0,12.48 -30.96,22.62 -69.06,22.62 -38.16,0 -69.06,-10.14 -69.06,-22.62 0,-12.48 30.9,-22.68 69.06,-22.68 C -30.96,-22.68 0,-12.48 0,0 z"
         style="fill:#b0e0df;fill-opacity:1;fill-rule:nonzero;stroke:#ffffff;stroke-width:0.986;stroke-linecap:round;stroke-linejoin:round;stroke-miterlimit:10;stroke-opacity:1;stroke-dasharray:none"
         id="path458"
         inkscape:connector-curvature="0" /></g><g
       id="g464"
       transform="translate(346.68,303.92)"><path
         d="m 0,0 c 0,13.08 -31.38,23.64 -70.02,23.64 -38.7,0 -70.02,-10.56 -70.02,-23.64 0,-13.08 31.32,-23.7 70.02,-23.7 C -31.38,-23.7 0,-13.08 0,0 z"
         style="fill:#c0c0c0;fill-opacity:1;fill-rule:nonzero;stroke:#c0c0c0;stroke-width:0.986;stroke-linecap:round;stroke-linejoin:round;stroke-miterlimit:10;stroke-opacity:1;stroke-dasharray:none"
         id="path466"
         inkscape:connector-curvature="0" /></g><g
       id="g468"
       transform="translate(344.7,305.84)"><path
         d="m 0,0 c 0,13.08 -31.38,23.64 -70.02,23.64 -38.7,0 -70.02,-10.56 -70.02,-23.64 0,-13.02 31.32,-23.64 70.02,-23.64 C -31.38,-23.64 0,-13.02 0,0 z"
         style="fill:#b0e0df;fill-opacity:1;fill-rule:nonzero;stroke:#000000;stroke-width:0.986;stroke-linecap:round;stroke-linejoin:round;stroke-miterlimit:10;stroke-opacity:1;stroke-dasharray:none"
         id="path470"
         inkscape:connector-curvature="0" /></g><g
       id="g472"
       transform="translate(343.74,305.9)"><path
         d="m 0,0 c 0,12.48 -30.96,22.62 -69.06,22.62 -38.16,0 -69.06,-10.14 -69.06,-22.62 0,-12.48 30.9,-22.68 69.06,-22.68 C -30.96,-22.68 0,-12.48 0,0 z"
         style="fill:#b0e0df;fill-opacity:1;fill-rule:nonzero;stroke:#ffffff;stroke-width:0.986;stroke-linecap:round;stroke-linejoin:round;stroke-miterlimit:10;stroke-opacity:1;stroke-dasharray:none"
         id="path474"
         inkscape:connector-curvature="0" /></g><text
       transform="matrix(1,0,0,-0.97110876,232.26,302.9604)"
       id="text476"><tspan
         style="font-size:11.17640018px;font-variant:normal;font-weight:normal;font-stretch:normal;writing-mode:lr-tb;fill:#000000;fill-opacity:1;fill-rule:nonzero;stroke:none;font-family:Arial;-inkscape-font-specification:Helvetica"
         x="0 7.454659 13.668737 22.978678 29.192757 31.673918 37.887997 44.102074 50.316154 53.423191 57.144932 63.359013 69.57309 75.78717 78.268326 84.482407"
         y="0"
         sodipodi:role="line"
         id="tspan478">Anmelden (Login)</tspan></text>
<g
       id="g480"
       transform="translate(346.68,550.58)"><path
         d="m 0,0 c 0,13.08 -31.38,23.64 -70.02,23.64 -38.7,0 -70.02,-10.56 -70.02,-23.64 0,-13.08 31.32,-23.7 70.02,-23.7 C -31.38,-23.7 0,-13.08 0,0 z"
         style="fill:#c0c0c0;fill-opacity:1;fill-rule:nonzero;stroke:#c0c0c0;stroke-width:0.986;stroke-linecap:round;stroke-linejoin:round;stroke-miterlimit:10;stroke-opacity:1;stroke-dasharray:none"
         id="path482"
         inkscape:connector-curvature="0" /></g><g
       id="g484"
       transform="translate(344.7,552.56)"><path
         d="m 0,0 c 0,13.08 -31.38,23.64 -70.02,23.64 -38.7,0 -70.02,-10.56 -70.02,-23.64 0,-13.08 31.32,-23.7 70.02,-23.7 C -31.38,-23.7 0,-13.08 0,0 z"
         style="fill:#b0e0df;fill-opacity:1;fill-rule:nonzero;stroke:#000000;stroke-width:0.986;stroke-linecap:round;stroke-linejoin:round;stroke-miterlimit:10;stroke-opacity:1;stroke-dasharray:none"
         id="path486"
         inkscape:connector-curvature="0" /></g><g
       id="g488"
       transform="translate(343.74,552.56)"><path
         d="m 0,0 c 0,12.48 -30.96,22.62 -69.06,22.62 -38.16,0 -69.06,-10.14 -69.06,-22.62 0,-12.48 30.9,-22.68 69.06,-22.68 C -30.96,-22.68 0,-12.48 0,0 z"
         style="fill:#b0e0df;fill-opacity:1;fill-rule:nonzero;stroke:#ffffff;stroke-width:0.986;stroke-linecap:round;stroke-linejoin:round;stroke-miterlimit:10;stroke-opacity:1;stroke-dasharray:none"
         id="path490"
         inkscape:connector-curvature="0" /></g><g
       id="g492"
       transform="translate(322.62,537.38)"><path
         d="m 0,0 c 12.84,4.14 20.1,9.78 20.1,15.66 0,2.7 -1.56,5.34 -4.44,7.86 L 0,0 z"
         style="fill:#0000ff;fill-opacity:1;fill-rule:nonzero;stroke:#0000ff;stroke-width:0.986;stroke-linecap:round;stroke-linejoin:round;stroke-miterlimit:10;stroke-opacity:1;stroke-dasharray:none"
         id="path494"
         inkscape:connector-curvature="0" /></g><text
       transform="matrix(1,0,0,-0.97110876,233.28,554.5403)"
       id="text496"><tspan
         style="font-size:11.17640018px;font-variant:normal;font-weight:normal;font-stretch:normal;writing-mode:lr-tb;fill:#000000;fill-opacity:1;fill-rule:nonzero;stroke:none;font-family:Arial;-inkscape-font-specification:Helvetica"
         x="12.428157 19.882816 25.471016 28.578054 31.059216 36.647415 39.128578 42.235615 48.449696 51.556732 57.144932 63.359013 69.57309 72.68013 78.894211"
         sodipodi:role="line"
         id="tspan498">Aktivitätsdaten</tspan><tspan
         style="font-size:11.17640018px;font-variant:normal;font-weight:normal;font-stretch:normal;writing-mode:lr-tb;fill:#000000;fill-opacity:1;fill-rule:nonzero;stroke:none;font-family:Arial;-inkscape-font-specification:Helvetica"
         x="16.740011 22.328213 28.54229 32.26403 40.333393 46.54747 49.028633 52.13567 58.349751"
         y="10.132524"
         sodipodi:role="line"
         id="tspan500">verwalten</tspan></text>
<g
       id="g502"
       transform="translate(373.32,708.44)"><path
         d="m 0,0 c 0,13.08 -38.64,23.64 -86.34,23.64 -47.64,0 -86.28,-10.56 -86.28,-23.64 0,-13.08 38.64,-23.7 86.28,-23.7 C -38.64,-23.7 0,-13.08 0,0 z"
         style="fill:#c0c0c0;fill-opacity:1;fill-rule:nonzero;stroke:#c0c0c0;stroke-width:0.986;stroke-linecap:round;stroke-linejoin:round;stroke-miterlimit:10;stroke-opacity:1;stroke-dasharray:none"
         id="path504"
         inkscape:connector-curvature="0" /></g><g
       id="g506"
       transform="translate(371.34,710.42)"><path
         d="m 0,0 c 0,13.08 -38.64,23.64 -86.34,23.64 -47.64,0 -86.28,-10.56 -86.28,-23.64 0,-13.08 38.64,-23.7 86.28,-23.7 C -38.64,-23.7 0,-13.08 0,0 z"
         style="fill:#b0e0df;fill-opacity:1;fill-rule:nonzero;stroke:#000000;stroke-width:0.986;stroke-linecap:round;stroke-linejoin:round;stroke-miterlimit:10;stroke-opacity:1;stroke-dasharray:none"
         id="path508"
         inkscape:connector-curvature="0" /></g><g
       id="g510"
       transform="translate(370.38,710.42)"><path
         d="m 0,0 c 0,12.48 -38.22,22.62 -85.32,22.62 -47.16,0 -85.32,-10.14 -85.32,-22.62 0,-12.48 38.16,-22.68 85.32,-22.68 C -38.22,-22.68 0,-12.48 0,0 z"
         style="fill:#b0e0df;fill-opacity:1;fill-rule:nonzero;stroke:#ffffff;stroke-width:0.986;stroke-linecap:round;stroke-linejoin:round;stroke-miterlimit:10;stroke-opacity:1;stroke-dasharray:none"
         id="path512"
         inkscape:connector-curvature="0" /></g><g
       id="g514"
       transform="translate(344.52,695.24)"><path
         d="m 0,0 c 15.9,4.14 24.84,9.78 24.84,15.66 0,2.7 -1.86,5.34 -5.52,7.86 L 0,0 z"
         style="fill:#0000ff;fill-opacity:1;fill-rule:nonzero;stroke:#0000ff;stroke-width:0.986;stroke-linecap:round;stroke-linejoin:round;stroke-miterlimit:10;stroke-opacity:1;stroke-dasharray:none"
         id="path516"
         inkscape:connector-curvature="0" /></g><text
       transform="matrix(1,0,0,-0.97110876,244.14,712.4003)"
       id="text518"><tspan
         style="font-size:11.17640018px;font-variant:normal;font-weight:normal;font-stretch:normal;writing-mode:lr-tb;fill:#000000;fill-opacity:1;fill-rule:nonzero;stroke:none;font-family:Arial;-inkscape-font-specification:Helvetica"
         x="12.428157 19.882816 26.096893 29.203934 31.685095 37.899174 44.113251 47.220291 53.434368 59.648445 65.862526 72.076607 75.18364 81.39772"
         sodipodi:role="line"
         id="tspan520">Patientendaten</tspan><tspan
         style="font-size:11.17640018px;font-variant:normal;font-weight:normal;font-stretch:normal;writing-mode:lr-tb;fill:#000000;fill-opacity:1;fill-rule:nonzero;stroke:none;font-family:Arial;-inkscape-font-specification:Helvetica"
         x="16.740011 22.328213 28.54229 32.26403 40.333393 46.54747 49.028633 52.13567 58.349751"
         y="10.132524"
         sodipodi:role="line"
         id="tspan522">verwalten</tspan></text>
<g
       id="g524"
       transform="translate(359.52,372.98)"><path
         d="m 0,0 c 0,13.08 -32.52,23.64 -72.54,23.64 -40.02,0 -72.48,-10.56 -72.48,-23.64 0,-13.08 32.46,-23.7 72.48,-23.7 C -32.52,-23.7 0,-13.08 0,0 z"
         style="fill:#c0c0c0;fill-opacity:1;fill-rule:nonzero;stroke:#c0c0c0;stroke-width:0.986;stroke-linecap:round;stroke-linejoin:round;stroke-miterlimit:10;stroke-opacity:1;stroke-dasharray:none"
         id="path526"
         inkscape:connector-curvature="0" /></g><g
       id="g528"
       transform="translate(357.54,374.96)"><path
         d="m 0,0 c 0,13.08 -32.52,23.64 -72.54,23.64 -40.02,0 -72.48,-10.56 -72.48,-23.64 0,-13.08 32.46,-23.7 72.48,-23.7 C -32.52,-23.7 0,-13.08 0,0 z"
         style="fill:#b0e0df;fill-opacity:1;fill-rule:nonzero;stroke:#000000;stroke-width:0.986;stroke-linecap:round;stroke-linejoin:round;stroke-miterlimit:10;stroke-opacity:1;stroke-dasharray:none"
         id="path530"
         inkscape:connector-curvature="0" /></g><g
       id="g532"
       transform="translate(356.52,374.96)"><path
         d="m 0,0 c 0,12.48 -32.04,22.62 -71.52,22.62 -39.48,0 -71.46,-10.14 -71.46,-22.62 0,-12.48 31.98,-22.68 71.46,-22.68 C -32.04,-22.68 0,-12.48 0,0 z"
         style="fill:#b0e0df;fill-opacity:1;fill-rule:nonzero;stroke:#ffffff;stroke-width:0.986;stroke-linecap:round;stroke-linejoin:round;stroke-miterlimit:10;stroke-opacity:1;stroke-dasharray:none"
         id="path534"
         inkscape:connector-curvature="0" /></g><g
       id="g536"
       transform="translate(334.74,359.78)"><path
         d="m 0,0 c 13.32,4.14 20.82,9.78 20.82,15.66 0,2.7 -1.56,5.34 -4.62,7.86 L 0,0 z"
         style="fill:#0000ff;fill-opacity:1;fill-rule:nonzero;stroke:#0000ff;stroke-width:0.986;stroke-linecap:round;stroke-linejoin:round;stroke-miterlimit:10;stroke-opacity:1;stroke-dasharray:none"
         id="path538"
         inkscape:connector-curvature="0" /></g><text
       transform="matrix(1,0,0,-0.97110876,236.22,376.9403)"
       id="text540"><tspan
         style="font-size:11.17640018px;font-variant:normal;font-weight:normal;font-stretch:normal;writing-mode:lr-tb;fill:#000000;fill-opacity:1;fill-rule:nonzero;stroke:none;font-family:Arial;-inkscape-font-specification:Helvetica"
         x="12.428157 20.497519 26.711596 29.818636 36.032715 42.246792 48.460869 54.67495 60.263149 68.332512 74.546585 78.268326 81.375366 87.589447 93.803528"
         sodipodi:role="line"
         id="tspan542">Datenauswertung</tspan><tspan
         style="font-size:11.17640018px;font-variant:normal;font-weight:normal;font-stretch:normal;writing-mode:lr-tb;fill:#000000;fill-opacity:1;fill-rule:nonzero;stroke:none;font-family:Arial;-inkscape-font-specification:Helvetica"
         x="24.659609 30.247808 36.461887 40.183628 48.252991 54.467068 56.948227 60.055267 66.269348"
         y="10.132524"
         sodipodi:role="line"
         id="tspan544">verwalten</tspan></text>
<g
       id="g546"
       transform="translate(346.68,491.36)"><path
         d="m 0,0 c 0,13.08 -31.38,23.64 -70.02,23.64 -38.7,0 -70.02,-10.56 -70.02,-23.64 0,-13.02 31.32,-23.64 70.02,-23.64 C -31.38,-23.64 0,-13.02 0,0 z"
         style="fill:#c0c0c0;fill-opacity:1;fill-rule:nonzero;stroke:#c0c0c0;stroke-width:0.986;stroke-linecap:round;stroke-linejoin:round;stroke-miterlimit:10;stroke-opacity:1;stroke-dasharray:none"
         id="path548"
         inkscape:connector-curvature="0" /></g><g
       id="g550"
       transform="translate(344.7,493.34)"><path
         d="m 0,0 c 0,13.08 -31.38,23.64 -70.02,23.64 -38.7,0 -70.02,-10.56 -70.02,-23.64 0,-13.02 31.32,-23.64 70.02,-23.64 C -31.38,-23.64 0,-13.02 0,0 z"
         style="fill:#b0e0df;fill-opacity:1;fill-rule:nonzero;stroke:#000000;stroke-width:0.986;stroke-linecap:round;stroke-linejoin:round;stroke-miterlimit:10;stroke-opacity:1;stroke-dasharray:none"
         id="path552"
         inkscape:connector-curvature="0" /></g><g
       id="g554"
       transform="translate(343.74,493.34)"><path
         d="m 0,0 c 0,12.48 -30.96,22.62 -69.06,22.62 -38.16,0 -69.06,-10.14 -69.06,-22.62 0,-12.48 30.9,-22.68 69.06,-22.68 C -30.96,-22.68 0,-12.48 0,0 z"
         style="fill:#b0e0df;fill-opacity:1;fill-rule:nonzero;stroke:#ffffff;stroke-width:0.986;stroke-linecap:round;stroke-linejoin:round;stroke-miterlimit:10;stroke-opacity:1;stroke-dasharray:none"
         id="path556"
         inkscape:connector-curvature="0" /></g><g
       id="g558"
       transform="translate(322.62,478.16)"><path
         d="m 0,0 c 12.84,4.14 20.1,9.78 20.1,15.66 0,2.7 -1.56,5.34 -4.44,7.86 L 0,0 z"
         style="fill:#0000ff;fill-opacity:1;fill-rule:nonzero;stroke:#0000ff;stroke-width:0.986;stroke-linecap:round;stroke-linejoin:round;stroke-miterlimit:10;stroke-opacity:1;stroke-dasharray:none"
         id="path560"
         inkscape:connector-curvature="0" /></g><text
       transform="matrix(1,0,0,-0.97110876,237.24,495.3803)"
       id="text562"><tspan
         style="font-size:11.17640018px;font-variant:normal;font-weight:normal;font-stretch:normal;writing-mode:lr-tb;fill:#000000;fill-opacity:1;fill-rule:nonzero;stroke:none;font-family:Arial;-inkscape-font-specification:Helvetica"
         x="12.428157 19.882816 25.471016 28.578054 31.059216 36.647415 39.128578 42.235615 48.449696 51.556732 57.144932 63.359013 65.840172 72.054253"
         sodipodi:role="line"
         id="tspan564">Aktivitätsplan</tspan><tspan
         style="font-size:11.17640018px;font-variant:normal;font-weight:normal;font-stretch:normal;writing-mode:lr-tb;fill:#000000;fill-opacity:1;fill-rule:nonzero;stroke:none;font-family:Arial;-inkscape-font-specification:Helvetica"
         x="12.780213 18.368414 24.582491 28.304234 36.373592 42.587673 45.068832 48.175873 54.38995"
         y="10.195112"
         sodipodi:role="line"
         id="tspan566">verwalten</tspan></text>
<g
       id="g568"
       transform="translate(346.68,629.48)"><path
         d="m 0,0 c 0,13.08 -31.38,23.64 -70.02,23.64 -38.7,0 -70.02,-10.56 -70.02,-23.64 0,-13.02 31.32,-23.64 70.02,-23.64 C -31.38,-23.64 0,-13.02 0,0 z"
         style="fill:#c0c0c0;fill-opacity:1;fill-rule:nonzero;stroke:#c0c0c0;stroke-width:0.986;stroke-linecap:round;stroke-linejoin:round;stroke-miterlimit:10;stroke-opacity:1;stroke-dasharray:none"
         id="path570"
         inkscape:connector-curvature="0" /></g><g
       id="g572"
       transform="translate(344.7,631.46)"><path
         d="m 0,0 c 0,13.08 -31.38,23.64 -70.02,23.64 -38.7,0 -70.02,-10.56 -70.02,-23.64 0,-13.02 31.32,-23.64 70.02,-23.64 C -31.38,-23.64 0,-13.02 0,0 z"
         style="fill:#b0e0df;fill-opacity:1;fill-rule:nonzero;stroke:#000000;stroke-width:0.986;stroke-linecap:round;stroke-linejoin:round;stroke-miterlimit:10;stroke-opacity:1;stroke-dasharray:none"
         id="path574"
         inkscape:connector-curvature="0" /></g><g
       id="g576"
       transform="translate(343.74,631.46)"><path
         d="m 0,0 c 0,12.54 -30.96,22.68 -69.06,22.68 -38.16,0 -69.06,-10.14 -69.06,-22.68 0,-12.48 30.9,-22.68 69.06,-22.68 C -30.96,-22.68 0,-12.48 0,0 z"
         style="fill:#b0e0df;fill-opacity:1;fill-rule:nonzero;stroke:#ffffff;stroke-width:0.986;stroke-linecap:round;stroke-linejoin:round;stroke-miterlimit:10;stroke-opacity:1;stroke-dasharray:none"
         id="path578"
         inkscape:connector-curvature="0" /></g><g
       id="g580"
       transform="translate(322.62,616.34)"><path
         d="m 0,0 c 12.84,4.14 20.1,9.78 20.1,15.66 0,2.7 -1.56,5.34 -4.44,7.86 L 0,0 z"
         style="fill:#0000ff;fill-opacity:1;fill-rule:nonzero;stroke:#0000ff;stroke-width:0.986;stroke-linecap:round;stroke-linejoin:round;stroke-miterlimit:10;stroke-opacity:1;stroke-dasharray:none"
         id="path582"
         inkscape:connector-curvature="0" /></g><text
       transform="matrix(1,0,0,-0.97110876,240.18,633.5003)"
       id="text584"><tspan
         style="font-size:11.17640018px;font-variant:normal;font-weight:normal;font-stretch:normal;writing-mode:lr-tb;fill:#000000;fill-opacity:1;fill-rule:nonzero;stroke:none;font-family:Arial;-inkscape-font-specification:Helvetica"
         x="12.428157 20.497519 26.711596 32.299797 38.513874 42.235615 44.716778 50.304977 56.519054 59.626095 65.840172"
         sodipodi:role="line"
         id="tspan586">Nachrichten</tspan><tspan
         style="font-size:11.17640018px;font-variant:normal;font-weight:normal;font-stretch:normal;writing-mode:lr-tb;fill:#000000;fill-opacity:1;fill-rule:nonzero;stroke:none;font-family:Arial;-inkscape-font-specification:Helvetica"
         x="9.8397026 15.427902 21.641981 25.363722 33.433083 39.64716 42.128323 45.235363 51.44944"
         y="10.193994"
         sodipodi:role="line"
         id="tspan588">verwalten</tspan></text>
<path
       d="m 541.02,789.32 -136.08,0 0,-41.4 136.08,0 0,41.4 z"
       style="fill:#ffffff;fill-opacity:1;fill-rule:nonzero;stroke:#ffffff;stroke-width:0.986;stroke-linecap:round;stroke-linejoin:miter;stroke-miterlimit:10;stroke-opacity:1;stroke-dasharray:none"
       id="path590"
       inkscape:connector-curvature="0" /><path
       d="m 541.02,788.3 -136.08,0 0,-39.42 136.08,0 0,39.42 z"
       style="fill:#dedbd6;fill-opacity:1;fill-rule:nonzero;stroke:#dedbd6;stroke-width:0.986;stroke-linecap:round;stroke-linejoin:miter;stroke-miterlimit:10;stroke-opacity:1;stroke-dasharray:none"
       id="path592"
       inkscape:connector-curvature="0" /><g
       id="g594"
       transform="translate(404.94,790.28)"><path
         d="M 0,0 135.18,0"
         style="fill:none;stroke:#000065;stroke-width:1.97300005;stroke-linecap:round;stroke-linejoin:round;stroke-miterlimit:10;stroke-opacity:1;stroke-dasharray:none"
         id="path596"
         inkscape:connector-curvature="0" /><g
         id="g598"
         transform="translate(0,-43.38)"><path
           d="M 0,0 135.18,0"
           style="fill:none;stroke:#000065;stroke-width:1.97300005;stroke-linecap:round;stroke-linejoin:round;stroke-miterlimit:10;stroke-opacity:1;stroke-dasharray:none"
           id="path600"
           inkscape:connector-curvature="0" /></g></g><g
       id="g602"
       transform="matrix(31.56,0,0,31.56,410.88,752.78)"><rect
         x="0"
         y="0"
         width="1"
         height="1"
         transform="matrix(1,0,0,-1,0,1)"
         style="fill:#000000;fill-opacity:1;fill-rule:nonzero"
         mask="url(#mask604)"
         id="rect608" /></g><g
       id="g610"
       transform="matrix(31.56,0,0,31.56,410.88,752.78)"><image
         width="1"
         height="1"
         transform="matrix(1,0,0,-1,0,1)"
         xlink:href="data:image/png;base64,iVBORw0KGgoAAAANSUhEUgAAACAAAAAgCAYAAABzenr0AAAABHNCSVQICAgIfAhkiAAAATRJREFUWIXtlj8OgjAUxj+NB8BjcAOYmeAGLh4AHWFzZLMjXoDFG+DE5KA38Bh6gzogaqCl7SsRY/ySBpL++X59vD46AcAxoqZjmgPAzHRClFYoj5dux3lNAjCKQJRW8k4vJwFMoJkD7zvnp1U92d91BxpGYvAcYEVPlAQyzgFAsnOiRj8FfwDtUwC8jqGwDgBgsYtkGRgBGEWg3MoXp5g34qTm5RxezllR0eY/2pfmQJipZ16d+jm/qcceNtKuj0SgrzoKKyFb+MpFk/0JuDpaY1WiJVCY/XISqtT+9xMvIwAlCUUXD+JlxBzgzYjFLljsWkPoA7TMRe8UCD0AgXmyDJ613wZCDSAxb2QL0Q+gMB8CQg6gaW4LIQYwNLeB6AIQzakQ0k9AMe+FkIhWigfU6D+jO6ULp2w+qguaAAAAAElFTkSuQmCC"
         id="image612" /></g><text
       transform="matrix(1,0,0,-0.97110876,463.14,767.6603)"
       id="text614"><tspan
         style="font-size:11.17640018px;font-variant:normal;font-weight:normal;font-stretch:normal;writing-mode:lr-tb;fill:#000000;fill-opacity:1;fill-rule:nonzero;stroke:none;font-family:Arial;-inkscape-font-specification:Helvetica"
         x="0 6.8287802 13.042859 19.256937 22.978678 29.192757 35.406834 41.620914 47.834991"
         y="0"
         sodipodi:role="line"
         id="tspan616">Therapeut</tspan></text>
<g
       id="g618"
       transform="translate(379.26,777.5)"><path
         d="m 0,0 c 0,13.08 -41.52,23.64 -92.76,23.64 -51.24,0 -92.7,-10.56 -92.7,-23.64 0,-13.02 41.46,-23.64 92.7,-23.64 C -41.52,-23.64 0,-13.02 0,0 z"
         style="fill:#c0c0c0;fill-opacity:1;fill-rule:nonzero;stroke:#c0c0c0;stroke-width:0.986;stroke-linecap:round;stroke-linejoin:round;stroke-miterlimit:10;stroke-opacity:1;stroke-dasharray:none"
         id="path620"
         inkscape:connector-curvature="0" /></g><g
       id="g622"
       transform="translate(377.28,779.48)"><path
         d="m 0,0 c 0,13.08 -41.52,23.64 -92.76,23.64 -51.24,0 -92.7,-10.56 -92.7,-23.64 0,-13.02 41.46,-23.64 92.7,-23.64 C -41.52,-23.64 0,-13.02 0,0 z"
         style="fill:#b0e0df;fill-opacity:1;fill-rule:nonzero;stroke:#000000;stroke-width:0.986;stroke-linecap:round;stroke-linejoin:round;stroke-miterlimit:10;stroke-opacity:1;stroke-dasharray:none"
         id="path624"
         inkscape:connector-curvature="0" /></g><g
       id="g626"
       transform="translate(376.26,779.48)"><path
         d="m 0,0 c 0,12.48 -41.1,22.62 -91.74,22.62 -50.64,0 -91.68,-10.14 -91.68,-22.62 0,-12.48 41.04,-22.68 91.68,-22.68 C -41.1,-22.68 0,-12.48 0,0 z"
         style="fill:#b0e0df;fill-opacity:1;fill-rule:nonzero;stroke:#ffffff;stroke-width:0.986;stroke-linecap:round;stroke-linejoin:round;stroke-miterlimit:10;stroke-opacity:1;stroke-dasharray:none"
         id="path628"
         inkscape:connector-curvature="0" /></g><g
       id="g630"
       transform="translate(348.54,764.3)"><path
         d="m 0,0 c 17.1,4.14 26.76,9.78 26.76,15.66 0,2.7 -2.04,5.34 -5.94,7.86 L 0,0 z"
         style="fill:#0000ff;fill-opacity:1;fill-rule:nonzero;stroke:#0000ff;stroke-width:0.986;stroke-linecap:round;stroke-linejoin:round;stroke-miterlimit:10;stroke-opacity:1;stroke-dasharray:none"
         id="path632"
         inkscape:connector-curvature="0" /></g><text
       transform="matrix(1,0,0,-0.97110876,235.26,781.5203)"
       id="text634"><tspan
         style="font-size:11.17640018px;font-variant:normal;font-weight:normal;font-stretch:normal;writing-mode:lr-tb;fill:#000000;fill-opacity:1;fill-rule:nonzero;stroke:none;font-family:Arial;-inkscape-font-specification:Helvetica"
         x="12.428157 19.256937 25.471016 31.685095 35.406834 41.620914 47.834991 54.049072 60.263149 63.37019 69.584267 75.798347 82.012421 88.226501 91.333542 97.547623"
         sodipodi:role="line"
         id="tspan636">Therapeutendaten</tspan><tspan
         style="font-size:11.17640018px;font-variant:normal;font-weight:normal;font-stretch:normal;writing-mode:lr-tb;fill:#000000;fill-opacity:1;fill-rule:nonzero;stroke:none;font-family:Arial;-inkscape-font-specification:Helvetica"
         x="24.659609 30.247808 36.461887 40.183628 48.252991 54.467068 56.948227 60.055267 66.269348"
         y="10.193994"
         sodipodi:role="line"
         id="tspan638">verwalten</tspan></text>
<path
       d="m 175.98,788.3 -136.08,0 0,-40.38 136.08,0 0,40.38 z"
       style="fill:#ffffff;fill-opacity:1;fill-rule:nonzero;stroke:#ffffff;stroke-width:0.986;stroke-linecap:round;stroke-linejoin:miter;stroke-miterlimit:10;stroke-opacity:1;stroke-dasharray:none"
       id="path640"
       inkscape:connector-curvature="0" /><path
       d="m 175.98,787.34 -136.08,0 0,-38.46 136.08,0 0,38.46 z"
       style="fill:#dedbd6;fill-opacity:1;fill-rule:nonzero;stroke:#dedbd6;stroke-width:0.986;stroke-linecap:round;stroke-linejoin:miter;stroke-miterlimit:10;stroke-opacity:1;stroke-dasharray:none"
       id="path642"
       inkscape:connector-curvature="0" /><g
       id="g644"
       transform="translate(39.9,789.32)"><path
         d="M 0,0 135.18,0"
         style="fill:none;stroke:#000065;stroke-width:1.97300005;stroke-linecap:round;stroke-linejoin:round;stroke-miterlimit:10;stroke-opacity:1;stroke-dasharray:none"
         id="path646"
         inkscape:connector-curvature="0" /><g
         id="g648"
         transform="translate(0,-42.42)"><path
           d="M 0,0 135.18,0"
           style="fill:none;stroke:#000065;stroke-width:1.97300005;stroke-linecap:round;stroke-linejoin:round;stroke-miterlimit:10;stroke-opacity:1;stroke-dasharray:none"
           id="path650"
           inkscape:connector-curvature="0" /></g></g><g
       id="g652"
       transform="matrix(31.56,0,0,31.56,44.82,752.78)"><rect
         x="0"
         y="0"
         width="1"
         height="1"
         transform="matrix(1,0,0,-1,0,1)"
         style="fill:#000000;fill-opacity:1;fill-rule:nonzero"
         mask="url(#mask654)"
         id="rect658" /></g><g
       id="g660"
       transform="matrix(31.56,0,0,31.56,44.82,752.78)"><image
         width="1"
         height="1"
         transform="matrix(1,0,0,-1,0,1)"
         xlink:href="data:image/png;base64,iVBORw0KGgoAAAANSUhEUgAAACAAAAAgCAYAAABzenr0AAAABHNCSVQICAgIfAhkiAAAATRJREFUWIXtlj8OgjAUxj+NB8BjcAOYmeAGLh4AHWFzZLMjXoDFG+DE5KA38Bh6gzogaqCl7SsRY/ySBpL++X59vD46AcAxoqZjmgPAzHRClFYoj5dux3lNAjCKQJRW8k4vJwFMoJkD7zvnp1U92d91BxpGYvAcYEVPlAQyzgFAsnOiRj8FfwDtUwC8jqGwDgBgsYtkGRgBGEWg3MoXp5g34qTm5RxezllR0eY/2pfmQJipZ16d+jm/qcceNtKuj0SgrzoKKyFb+MpFk/0JuDpaY1WiJVCY/XISqtT+9xMvIwAlCUUXD+JlxBzgzYjFLljsWkPoA7TMRe8UCD0AgXmyDJ613wZCDSAxb2QL0Q+gMB8CQg6gaW4LIQYwNLeB6AIQzakQ0k9AMe+FkIhWigfU6D+jO6ULp2w+qguaAAAAAElFTkSuQmCC"
         id="image662" /></g><text
       transform="matrix(1,0,0,-0.97110876,105.96,766.7003)"
       id="text664"><tspan
         style="font-size:11.17640018px;font-variant:normal;font-weight:normal;font-stretch:normal;writing-mode:lr-tb;fill:#000000;fill-opacity:1;fill-rule:nonzero;stroke:none;font-family:Arial;-inkscape-font-specification:Helvetica"
         x="0 7.454659 13.668737 16.775776 19.256937 25.471016 31.685095"
         y="0"
         sodipodi:role="line"
         id="tspan666">Patient</tspan></text>
<text
       transform="scale(1,-1)"
       id="text668"
       x="49.659985"
       y="-194.4203"><tspan
         style="font-size:10.85350037px;font-variant:normal;font-weight:normal;font-stretch:normal;writing-mode:lr-tb;fill:#000000;fill-opacity:1;fill-rule:nonzero;stroke:none;font-family:Arial;-inkscape-font-specification:Helvetica"
         sodipodi:role="line"
         id="tspan670"
         x="49.659985"
         y="-194.4203" /></text>
<text
       xml:space="preserve"
       style="font-style:normal;font-weight:normal;font-size:32px;line-height:125%;font-family:sans-serif;letter-spacing:0px;word-spacing:0px;fill:#000000;fill-opacity:1;stroke:none;stroke-width:1px;stroke-linecap:butt;stroke-linejoin:miter;stroke-opacity:1"
       x="229.54256"
       y="-243.49496"
       id="text3663"
       sodipodi:linespacing="125%"
       transform="scale(1,-1)"><tspan
         sodipodi:role="line"
         id="tspan3665"
         x="229.54256"
         y="-243.49496"
         style="font-size:10px">Abmelden (Logout)</tspan></text>
</g></svg>