<?xml version="1.0" encoding="UTF-8" standalone="no"?>
<svg
   xmlns:dc="http://purl.org/dc/elements/1.1/"
   xmlns:cc="http://creativecommons.org/ns#"
   xmlns:rdf="http://www.w3.org/1999/02/22-rdf-syntax-ns#"
   xmlns:svg="http://www.w3.org/2000/svg"
   xmlns="http://www.w3.org/2000/svg"
   xmlns:xlink="http://www.w3.org/1999/xlink"
   xmlns:sodipodi="http://sodipodi.sourceforge.net/DTD/sodipodi-0.dtd"
   xmlns:inkscape="http://www.inkscape.org/namespaces/inkscape"
   width="1523.5547"
   height="978.94525"
   viewBox="0 0 1218.8437 783.15623"
   version="1.1"
   id="svg2"
   inkscape:version="0.48.4 r9939"
   sodipodi:docname="ERM.svg">
  <metadata
     id="metadata736">
    <rdf:RDF>
      <cc:Work
         rdf:about="">
        <dc:format>image/svg+xml</dc:format>
        <dc:type
           rdf:resource="http://purl.org/dc/dcmitype/StillImage" />
      </cc:Work>
    </rdf:RDF>
  </metadata>
  <sodipodi:namedview
     pagecolor="#ffffff"
     bordercolor="#666666"
     borderopacity="1"
     objecttolerance="10"
     gridtolerance="10"
     guidetolerance="10"
     inkscape:pageopacity="0"
     inkscape:pageshadow="2"
     inkscape:window-width="1364"
     inkscape:window-height="720"
     id="namedview734"
     showgrid="false"
     fit-margin-top="0"
     fit-margin-left="0"
     fit-margin-right="0"
     fit-margin-bottom="0"
     inkscape:zoom="0.34104388"
     inkscape:cx="1048.9735"
     inkscape:cy="739.91713"
     inkscape:window-x="0"
     inkscape:window-y="0"
     inkscape:window-maximized="1"
     inkscape:current-layer="svg2" />
  <defs
     id="defs4">
    <g
       id="g6">
      <symbol
         overflow="visible"
         id="glyph0-0"
         style="overflow:visible">
        <path
           style="stroke:none"
           d=""
           id="path9"
           inkscape:connector-curvature="0" />
      </symbol>
      <symbol
         overflow="visible"
         id="glyph0-1"
         style="overflow:visible">
        <path
           style="stroke:none"
           d="m 4.203125,-4.265625 0,-1.015625 -4.25,0 0,1.171875 1.515625,0 0,4.109375 1.28125,0 0,-4.109375 1.453125,0 z m 0,0"
           id="path12"
           inkscape:connector-curvature="0" />
      </symbol>
      <symbol
         overflow="visible"
         id="glyph0-2"
         style="overflow:visible">
        <path
           style="stroke:none"
           d="m 3.8125,-0.15625 0,-2.453125 c 0,-0.859375 -0.640625,-1.4375 -1.328125,-1.4375 -0.46875,0 -0.90625,0.234375 -1.171875,0.640625 l 0.234375,0.109375 0,-1.984375 -1.234375,0 0,5.28125 1.234375,0 0,-2.359375 c 0,-0.421875 0.171875,-0.5625 0.59375,-0.5625 0.34375,0 0.453125,0.03125 0.453125,0.515625 L 2.59375,0 3.8125,0 z m 0,0"
           id="path15"
           inkscape:connector-curvature="0" />
      </symbol>
      <symbol
         overflow="visible"
         id="glyph0-3"
         style="overflow:visible">
        <path
           style="stroke:none"
           d="m 3.703125,-1.859375 c 0,-1.265625 -0.78125,-2.1875 -1.859375,-2.1875 -1.046875,0 -1.828125,0.875 -1.828125,2.109375 0,1.171875 0.765625,2 1.8125,2 0.828125,0 1.625,-0.53125 1.875,-1.421875 l -1.1875,0 c -0.140625,0.453125 -0.3125,0.375 -0.65625,0.375 -0.453125,0 -0.59375,-0.046875 -0.625,-0.59375 l 2.453125,0 z m -1.125,-0.671875 -1.3125,0 C 1.3125,-2.875 1.40625,-3 1.828125,-3 c 0.421875,0 0.5625,0.109375 0.59375,0.46875 z m 0,0"
           id="path18"
           inkscape:connector-curvature="0" />
      </symbol>
      <symbol
         overflow="visible"
         id="glyph0-4"
         style="overflow:visible">
        <path
           style="stroke:none"
           d="m 2.65625,-2.921875 0,-1.109375 c -0.203125,-0.015625 -0.234375,-0.015625 -0.25,-0.015625 -0.4375,0 -0.953125,0.46875 -1.15625,0.96875 l 0.265625,-0.03125 0,-0.875 -1.21875,0 0,3.984375 1.21875,0 0,-2.109375 c 0,-0.5625 0.140625,-0.671875 0.703125,-0.671875 0.09375,0 0.171875,0 0.4375,0.046875 z m 0,0"
           id="path21"
           inkscape:connector-curvature="0" />
      </symbol>
      <symbol
         overflow="visible"
         id="glyph0-5"
         style="overflow:visible">
        <path
           style="stroke:none"
           d="m 3.703125,-0.15625 0,-0.1875 c -0.21875,-0.203125 -0.21875,-0.1875 -0.21875,-0.375 l 0,-2.046875 c 0,-0.734375 -0.65625,-1.28125 -1.640625,-1.28125 -1,0 -1.640625,0.59375 -1.71875,1.59375 l 1.1875,0 C 1.375,-3 1.390625,-2.96875 1.859375,-2.96875 c 0.375,0 0.421875,-0.03125 0.421875,0.21875 0,0.390625 -0.15625,0.1875 -0.625,0.265625 l -0.390625,0.0625 c -0.71875,0.125 -1.21875,0.609375 -1.21875,1.265625 0,0.71875 0.640625,1.21875 1.265625,1.21875 0.40625,0 0.875,-0.21875 0.96875,-0.328125 0,-0.15625 0.0625,0.109375 0.1875,0.265625 L 3.703125,0 z M 2.28125,-1.71875 c 0,0.546875 -0.140625,0.6875 -0.625,0.6875 -0.3125,0 -0.375,0.046875 -0.375,-0.21875 0,-0.28125 0.015625,-0.234375 0.40625,-0.3125 L 2.015625,-1.625 c 0.25,-0.046875 0.390625,-0.09375 0.265625,-0.046875 z m 0,0"
           id="path24"
           inkscape:connector-curvature="0" />
      </symbol>
      <symbol
         overflow="visible"
         id="glyph0-6"
         style="overflow:visible">
        <path
           style="stroke:none"
           d="m 4.03125,-1.984375 c 0,-1.09375 -0.703125,-2.0625 -1.671875,-2.0625 -0.453125,0 -0.875,0.234375 -1.109375,0.65625 l 0.234375,0.109375 0,-0.703125 -1.21875,0 0,5.46875 1.21875,0 0,-2.125 L 1.25,-0.53125 C 1.484375,-0.125 1.90625,0.0625 2.359375,0.0625 3.25,0.0625 4.03125,-0.875 4.03125,-1.984375 z m -1.21875,0 c 0,0.671875 -0.203125,0.9375 -0.671875,0.9375 -0.46875,0 -0.65625,-0.265625 -0.65625,-0.9375 0,-0.6875 0.1875,-0.953125 0.65625,-0.953125 0.484375,0 0.671875,0.265625 0.671875,0.953125 z m 0,0"
           id="path27"
           inkscape:connector-curvature="0" />
      </symbol>
      <symbol
         overflow="visible"
         id="glyph0-7"
         style="overflow:visible">
        <path
           style="stroke:none"
           d="m 3.8125,-0.15625 0,-3.828125 -1.21875,0 0,2.359375 c 0,0.4375 -0.171875,0.5625 -0.640625,0.5625 -0.40625,0 -0.46875,-0.0625 -0.46875,-0.5 l 0,-2.421875 -1.21875,0 0,2.625 c 0,0.796875 0.578125,1.421875 1.359375,1.421875 0.5,0 0.921875,-0.234375 1.203125,-0.59375 L 2.59375,-0.640625 2.59375,0 3.8125,0 z m 0,0"
           id="path30"
           inkscape:connector-curvature="0" />
      </symbol>
      <symbol
         overflow="visible"
         id="glyph0-8"
         style="overflow:visible">
        <path
           style="stroke:none"
           d="M 2.1875,-0.15625 2.1875,-1 c -0.234375,0.03125 -0.296875,0.03125 -0.359375,0.03125 -0.25,0 -0.171875,0.09375 -0.171875,-0.234375 l 0,-1.765625 0.53125,0 0,-0.953125 -0.53125,0 0,-0.984375 -1.234375,0 0,0.984375 -0.46875,0 0,0.953125 0.46875,0 0,2.03125 C 0.421875,-0.359375 0.875,0.03125 1.5,0.03125 1.703125,0.03125 1.875,0 2.1875,0 z m 0,0"
           id="path33"
           inkscape:connector-curvature="0" />
      </symbol>
      <symbol
         overflow="visible"
         id="glyph0-9"
         style="overflow:visible">
        <path
           style="stroke:none"
           d="M 4.4375,-3.578125 C 4.4375,-4.5625 3.734375,-5.28125 2.703125,-5.28125 l -2.328125,0 0,5.28125 1.296875,0 0,-1.765625 1.140625,0 c 0.90625,0 1.625,-0.796875 1.625,-1.8125 z m -1.296875,0.0625 c 0,0.5 -0.109375,0.578125 -0.65625,0.578125 l -0.8125,0 0,-1.171875 0.8125,0 c 0.546875,0 0.65625,0.078125 0.65625,0.59375 z m 0,0"
           id="path36"
           inkscape:connector-curvature="0" />
      </symbol>
      <symbol
         overflow="visible"
         id="glyph0-10"
         style="overflow:visible">
        <path
           style="stroke:none"
           d="m 1.546875,-0.15625 0,-3.828125 -1.234375,0 0,3.984375 1.234375,0 z m 0.015625,-4.109375 0,-1.125 -1.234375,0 0,1.28125 1.234375,0 z m 0,0"
           id="path39"
           inkscape:connector-curvature="0" />
      </symbol>
      <symbol
         overflow="visible"
         id="glyph0-11"
         style="overflow:visible">
        <path
           style="stroke:none"
           d="m 3.84375,-0.15625 0,-2.453125 c 0,-0.8125 -0.578125,-1.4375 -1.359375,-1.4375 -0.5,0 -0.921875,0.234375 -1.203125,0.640625 l 0.234375,0.109375 0,-0.6875 -1.21875,0 0,3.984375 1.21875,0 0,-2.359375 c 0,-0.4375 0.171875,-0.5625 0.625,-0.5625 0.421875,0 0.484375,0.0625 0.484375,0.5 L 2.625,0 3.84375,0 z m 0,0"
           id="path42"
           inkscape:connector-curvature="0" />
      </symbol>
      <symbol
         overflow="visible"
         id="glyph0-12"
         style="overflow:visible">
        <path
           style="stroke:none"
           d="m 4.921875,-0.15625 -1.78125,-5.125 -1.28125,0 L -0.015625,0 1.296875,0 1.625,-1 3.3125,-1 3.640625,0 4.96875,0 z M 3.125,-2.171875 l -1.109375,0 0.59375,-1.765625 -0.265625,0 0.59375,1.765625 z m 0,0"
           id="path45"
           inkscape:connector-curvature="0" />
      </symbol>
      <symbol
         overflow="visible"
         id="glyph0-13"
         style="overflow:visible">
        <path
           style="stroke:none"
           d="m 3.8125,-0.265625 -1.25,-2.15625 1.40625,-1.5625 -1.46875,0 -1.25,1.46875 0.234375,0.109375 0,-2.875 -1.21875,0 0,5.28125 1.21875,0 0,-1.296875 L 1.703125,-1.53125 2.53125,0 3.96875,0 z m 0,0"
           id="path48"
           inkscape:connector-curvature="0" />
      </symbol>
      <symbol
         overflow="visible"
         id="glyph0-14"
         style="overflow:visible">
        <path
           style="stroke:none"
           d="m 3.640625,-3.984375 -1.09375,0 -0.78125,2.859375 0.265625,-0.015625 -0.84375,-2.84375 -1.296875,0 L 1.296875,0 l 1.15625,0 1.375,-3.984375 z m 0,0"
           id="path51"
           inkscape:connector-curvature="0" />
      </symbol>
      <symbol
         overflow="visible"
         id="glyph0-15"
         style="overflow:visible">
        <path
           style="stroke:none"
           d="m 3.703125,-0.15625 0,-0.1875 c -0.21875,-0.203125 -0.21875,-0.1875 -0.21875,-0.375 l 0,-2.046875 c 0,-0.734375 -0.65625,-1.28125 -1.640625,-1.28125 -1,0 -1.640625,0.59375 -1.71875,1.59375 l 1.1875,0 C 1.375,-3 1.390625,-2.96875 1.859375,-2.96875 c 0.375,0 0.421875,-0.03125 0.421875,0.21875 0,0.390625 -0.15625,0.1875 -0.625,0.265625 l -0.390625,0.0625 c -0.71875,0.125 -1.21875,0.609375 -1.21875,1.265625 0,0.71875 0.640625,1.21875 1.265625,1.21875 0.40625,0 0.875,-0.21875 0.96875,-0.328125 0,-0.15625 0.0625,0.109375 0.1875,0.265625 L 3.703125,0 z M 2.28125,-1.71875 c 0,0.546875 -0.140625,0.6875 -0.625,0.6875 -0.3125,0 -0.375,0.046875 -0.375,-0.21875 0,-0.28125 0.015625,-0.234375 0.40625,-0.3125 L 2.015625,-1.625 c 0.25,-0.046875 0.390625,-0.09375 0.265625,-0.046875 z m -0.546875,-2.640625 0,-0.9375 -1.125,0 0,1.09375 1.125,0 z m 1.328125,0 0,-0.9375 -1.125,0 0,1.09375 1.125,0 z m 0,0"
           id="path54"
           inkscape:connector-curvature="0" />
      </symbol>
      <symbol
         overflow="visible"
         id="glyph0-16"
         style="overflow:visible">
        <path
           style="stroke:none"
           d="m 3.671875,-1.25 0,-0.046875 c 0,-0.421875 -0.375,-0.890625 -0.859375,-1.03125 L 1.609375,-2.671875 C 1.34375,-2.75 1.40625,-2.65625 1.40625,-2.796875 1.40625,-3 1.5,-2.984375 1.828125,-2.984375 c 0.453125,0 0.546875,0 0.546875,0.5 l 1.1875,0 c 0,-0.9375 -0.734375,-1.5625 -1.734375,-1.5625 -0.921875,0 -1.640625,0.625 -1.640625,1.375 0,0.453125 0.265625,0.859375 0.9375,1.0625 L 2.265625,-1.25 c 0.234375,0.078125 0.1875,0 0.1875,0.09375 C 2.453125,-0.9375 2.3125,-1 1.875,-1 1.4375,-1 1.34375,-0.921875 1.234375,-1.484375 l -1.1875,0 C 0.09375,-0.515625 0.8125,0.0625 1.9375,0.0625 2.96875,0.0625 3.671875,-0.5 3.671875,-1.25 z m 0,0"
           id="path57"
           inkscape:connector-curvature="0" />
      </symbol>
      <symbol
         overflow="visible"
         id="glyph0-17"
         style="overflow:visible">
        <path
           style="stroke:none"
           d="m 1.546875,-0.15625 0,-5.125 -1.234375,0 0,5.28125 1.234375,0 z m 0,0"
           id="path60"
           inkscape:connector-curvature="0" />
      </symbol>
      <symbol
         overflow="visible"
         id="glyph0-18"
         style="overflow:visible">
        <path
           style="stroke:none"
           d="m 4.625,-0.15625 0,-5.125 -1.28125,0 0,3.546875 0.21875,-0.125 -2,-3.421875 -1.234375,0 0,5.28125 1.296875,0 0,-3.578125 L 1.390625,-3.46875 3.40625,0 4.625,0 z m 0,0"
           id="path63"
           inkscape:connector-curvature="0" />
      </symbol>
      <symbol
         overflow="visible"
         id="glyph0-19"
         style="overflow:visible">
        <path
           style="stroke:none"
           d="m 3.546875,-1.59375 -0.984375,0 c -0.1875,0.5625 -0.234375,0.5625 -0.609375,0.5625 -0.484375,0 -0.640625,-0.21875 -0.640625,-0.9375 0,-0.671875 0.046875,-1 0.640625,-1 0.390625,0 0.4375,0.03125 0.578125,0.671875 l 1.15625,0 c -0.078125,-1.046875 -0.8125,-1.75 -1.71875,-1.75 -1.09375,0 -1.875,0.828125 -1.875,2.078125 0,1.21875 0.765625,2.03125 1.859375,2.03125 0.890625,0 1.640625,-0.703125 1.75,-1.65625 z m 0,0"
           id="path66"
           inkscape:connector-curvature="0" />
      </symbol>
      <symbol
         overflow="visible"
         id="glyph1-0"
         style="overflow:visible">
        <path
           style="stroke:none"
           d=""
           id="path69"
           inkscape:connector-curvature="0" />
      </symbol>
      <symbol
         overflow="visible"
         id="glyph1-1"
         style="overflow:visible">
        <path
           style="stroke:none"
           d="m 3.125,-3.6875 0,-0.59375 -3.046875,0 0,0.84375 2,0 C 1.5,-2.71875 0.875,-1.4375 0.5625,0 l 0.90625,0 c 0.25,-1.46875 0.765625,-2.5625 1.65625,-3.625 z m 0,0"
           id="path72"
           inkscape:connector-curvature="0" />
      </symbol>
      <symbol
         overflow="visible"
         id="glyph1-2"
         style="overflow:visible">
        <path
           style="stroke:none"
           d=""
           id="path75"
           inkscape:connector-curvature="0" />
      </symbol>
      <symbol
         overflow="visible"
         id="glyph1-3"
         style="overflow:visible">
        <path
           style="stroke:none"
           d="m 4.5,-0.171875 0,-2.234375 c 0,-0.53125 -0.484375,-0.984375 -1.046875,-0.984375 -0.390625,0 -0.765625,0.15625 -0.890625,0.3125 -0.0625,-0.125 -0.4375,-0.3125 -0.8125,-0.3125 -0.40625,0 -0.796875,0.1875 -1.046875,0.546875 l 0.3125,0.125 0,-0.59375 -0.796875,0 0,3.3125 0.84375,0 0,-2.03125 c 0,-0.4375 0.125,-0.609375 0.515625,-0.609375 0.34375,0 0.359375,0.046875 0.359375,0.421875 l 0,2.21875 0.84375,0 0,-2.03125 c 0,-0.4375 0.125,-0.609375 0.515625,-0.609375 0.34375,0 0.359375,0.046875 0.359375,0.421875 L 3.65625,0 4.5,0 z m 0,0"
           id="path78"
           inkscape:connector-curvature="0" />
      </symbol>
      <symbol
         overflow="visible"
         id="glyph1-4"
         style="overflow:visible">
        <path
           style="stroke:none"
           d="m 3.078125,-1.640625 c 0,-1.015625 -0.671875,-1.75 -1.53125,-1.75 -0.84375,0 -1.53125,0.734375 -1.53125,1.734375 0,1 0.6875,1.734375 1.53125,1.734375 0.828125,0 1.53125,-0.734375 1.53125,-1.71875 z m -0.859375,0 c 0,0.703125 -0.15625,0.953125 -0.671875,0.953125 -0.53125,0 -0.671875,-0.25 -0.671875,-0.96875 0,-0.71875 0.140625,-0.96875 0.671875,-0.96875 0.53125,0 0.671875,0.25 0.671875,0.984375 z m 0,0"
           id="path81"
           inkscape:connector-curvature="0" />
      </symbol>
      <symbol
         overflow="visible"
         id="glyph1-5"
         style="overflow:visible">
        <path
           style="stroke:none"
           d="m 2,-2.734375 0,-0.625 c -0.265625,-0.03125 -0.296875,-0.03125 -0.359375,-0.03125 -0.3125,0 -0.671875,0.21875 -0.9375,0.671875 l 0.3125,0.109375 0,-0.703125 -0.8125,0 0,3.3125 0.84375,0 0,-1.71875 C 1.046875,-2.375 1.09375,-2.546875 2,-2.5625 z m 0,0"
           id="path84"
           inkscape:connector-curvature="0" />
      </symbol>
      <symbol
         overflow="visible"
         id="glyph1-6"
         style="overflow:visible">
        <path
           style="stroke:none"
           d="m 3.09375,-1.515625 c 0,-0.4375 -0.03125,-0.703125 -0.125,-0.921875 -0.1875,-0.5 -0.828125,-0.953125 -1.375,-0.953125 -0.828125,0 -1.546875,0.78125 -1.546875,1.75 0,0.984375 0.703125,1.71875 1.53125,1.71875 0.671875,0 1.328125,-0.546875 1.484375,-1.3125 l -0.828125,0 C 2.046875,-0.6875 1.96875,-0.6875 1.59375,-0.6875 c -0.5,0 -0.6875,-0.15625 -0.6875,-0.65625 l 2.1875,0 z m -0.5625,-0.3125 c 0,0 -0.25,-0.203125 -0.234375,-0.25 l -1.375,0 C 0.953125,-2.4375 1.109375,-2.625 1.578125,-2.625 c 0.46875,0 0.640625,0.21875 0.640625,0.6875 z m 0,0"
           id="path87"
           inkscape:connector-curvature="0" />
      </symbol>
      <symbol
         overflow="visible"
         id="glyph1-7"
         style="overflow:visible">
        <path
           style="stroke:none"
           d="m 1.265625,-0.171875 0,-0.765625 -0.953125,0 0,0.9375 0.953125,0 z m 0,0"
           id="path90"
           inkscape:connector-curvature="0" />
      </symbol>
      <symbol
         overflow="visible"
         id="glyph1-8"
         style="overflow:visible">
        <path
           style="stroke:none"
           d="m 3.0625,-2.28125 c 0,-1.25 -0.609375,-2.078125 -1.53125,-2.078125 -0.765625,0 -1.5,0.71875 -1.5,1.5 0,0.75 0.6875,1.421875 1.421875,1.421875 0.375,0 0.78125,-0.1875 1.046875,-0.5 L 2.1875,-2.0625 C 2.171875,-1.078125 2.046875,-0.703125 1.46875,-0.703125 1.125,-0.703125 1.0625,-0.75 0.9375,-1.296875 l -0.84375,0 c 0.109375,0.828125 0.734375,1.375 1.34375,1.375 0.9375,0 1.625,-0.96875 1.625,-2.359375 z M 2.15625,-2.875 c 0,0.5 -0.15625,0.65625 -0.640625,0.65625 -0.484375,0 -0.609375,-0.140625 -0.609375,-0.671875 0,-0.515625 0.15625,-0.6875 0.625,-0.6875 0.453125,0 0.625,0.1875 0.625,0.703125 z m 0,0"
           id="path93"
           inkscape:connector-curvature="0" />
      </symbol>
      <symbol
         overflow="visible"
         id="glyph1-9"
         style="overflow:visible">
        <path
           style="stroke:none"
           d="m 3.046875,-1.34375 c 0,-0.484375 -0.375,-0.9375 -0.859375,-1.09375 l 0,0.328125 c 0.375,-0.140625 0.75,-0.578125 0.75,-0.96875 0,-0.703125 -0.640625,-1.28125 -1.40625,-1.28125 -0.8125,0 -1.4375,0.59375 -1.453125,1.640625 l 0.859375,0 c 0.015625,-0.765625 0.078125,-0.859375 0.59375,-0.859375 0.4375,0 0.515625,0.078125 0.515625,0.515625 0,0.421875 0,0.4375 -0.984375,0.4375 l 0,0.75 0.46875,0 c 0.546875,0 0.640625,0.09375 0.640625,0.546875 0,0.5 -0.125,0.625 -0.640625,0.625 -0.546875,0 -0.640625,-0.09375 -0.6875,-0.84375 l -0.859375,0 c 0.078125,1.0625 0.703125,1.625 1.53125,1.625 0.828125,0 1.53125,-0.65625 1.53125,-1.421875 z m 0,0"
           id="path96"
           inkscape:connector-curvature="0" />
      </symbol>
      <symbol
         overflow="visible"
         id="glyph1-10"
         style="overflow:visible">
        <path
           style="stroke:none"
           d="m 3.078125,-3.015625 c 0,-0.671875 -0.703125,-1.34375 -1.46875,-1.34375 -0.828125,0 -1.484375,0.578125 -1.515625,1.734375 l 0.859375,0 C 1,-3.46875 1.09375,-3.578125 1.59375,-3.578125 c 0.453125,0 0.609375,0.140625 0.609375,0.578125 0,0.3125 -0.140625,0.46875 -0.484375,0.671875 L 1.1875,-2.03125 C 0.359375,-1.546875 0.046875,-1.0625 0,0 l 3.046875,0 0,-0.828125 -2.09375,0 C 0.984375,-1 1.109375,-1.078125 1.609375,-1.375 l 0.5625,-0.296875 c 0.5625,-0.3125 0.90625,-0.84375 0.90625,-1.34375 z m 0,0"
           id="path99"
           inkscape:connector-curvature="0" />
      </symbol>
      <symbol
         overflow="visible"
         id="glyph2-0"
         style="overflow:visible">
        <path
           style="stroke:none"
           d=""
           id="path102"
           inkscape:connector-curvature="0" />
      </symbol>
      <symbol
         overflow="visible"
         id="glyph2-1"
         style="overflow:visible">
        <path
           style="stroke:none"
           d="m 1.484375,-0.1875 0,-4.734375 -1.265625,0 0,4.921875 1.265625,0 z m 0,0"
           id="path105"
           inkscape:connector-curvature="0" />
      </symbol>
      <symbol
         overflow="visible"
         id="glyph2-2"
         style="overflow:visible">
        <path
           style="stroke:none"
           d="m 3.5625,-0.1875 0,-2.25 c 0,-0.75 -0.5625,-1.359375 -1.28125,-1.359375 -0.453125,0 -0.890625,0.21875 -1.140625,0.59375 l 0.28125,0.140625 0,-0.671875 -1.203125,0 0,3.734375 1.203125,0 0,-2.203125 c 0,-0.40625 0.125,-0.484375 0.546875,-0.484375 0.375,0 0.390625,0.03125 0.390625,0.421875 L 2.359375,0 3.5625,0 z m 0,0"
           id="path108"
           inkscape:connector-curvature="0" />
      </symbol>
      <symbol
         overflow="visible"
         id="glyph2-3"
         style="overflow:visible">
        <path
           style="stroke:none"
           d="m 3.5625,-0.1875 0,-4.734375 -1.203125,0 0,1.796875 0.28125,-0.125 c -0.21875,-0.328125 -0.625,-0.546875 -1.046875,-0.546875 -0.796875,0 -1.578125,0.921875 -1.578125,1.9375 0,0.953125 0.6875,1.921875 1.578125,1.921875 0.421875,0 0.828125,-0.21875 1.046875,-0.5 L 2.359375,-0.578125 2.359375,0 3.5625,0 z M 2.359375,-1.859375 c 0,0.625 -0.140625,0.8125 -0.5625,0.8125 -0.4375,0 -0.578125,-0.203125 -0.578125,-0.8125 0,-0.625 0.140625,-0.828125 0.578125,-0.828125 0.4375,0 0.5625,0.1875 0.5625,0.828125 z m 0,0"
           id="path111"
           inkscape:connector-curvature="0" />
      </symbol>
      <symbol
         overflow="visible"
         id="glyph2-4"
         style="overflow:visible">
        <path
           style="stroke:none"
           d="m 3.4375,-1.75 c 0,-1.15625 -0.75,-2.046875 -1.734375,-2.046875 -0.96875,0 -1.734375,0.84375 -1.734375,1.96875 0,1.078125 0.75,1.890625 1.703125,1.890625 0.765625,0 1.53125,-0.53125 1.78125,-1.390625 l -1.171875,0 c -0.15625,0.46875 -0.25,0.34375 -0.578125,0.34375 -0.40625,0 -0.5,0 -0.53125,-0.46875 l 2.25,0 z m -1.078125,-0.65625 -1.15625,0 C 1.234375,-2.6875 1.296875,-2.75 1.6875,-2.75 c 0.375,0 0.46875,0.046875 0.5,0.34375 z m 0,0"
           id="path114"
           inkscape:connector-curvature="0" />
      </symbol>
      <symbol
         overflow="visible"
         id="glyph2-5"
         style="overflow:visible">
        <path
           style="stroke:none"
           d="M 3.453125,-0.3125 2.40625,-1.875 3.625,-3.734375 l -1.453125,0 L 1.71875,-2.875 1.25,-3.734375 l -1.453125,0 L 1.015625,-1.875 -0.234375,0 1.234375,0 1.71875,-0.890625 2.203125,0 3.65625,0 z m 0,0"
           id="path117"
           inkscape:connector-curvature="0" />
      </symbol>
      <symbol
         overflow="visible"
         id="glyph2-6"
         style="overflow:visible">
        <path
           style="stroke:none"
           d="m 3.40625,-1.1875 0,-0.046875 c 0,-0.375 -0.375,-0.859375 -0.828125,-0.984375 l -1.09375,-0.3125 c -0.25,-0.078125 -0.15625,0.0625 -0.15625,-0.078125 0,-0.1875 0.046875,-0.125 0.34375,-0.125 0.421875,0 0.453125,-0.046875 0.46875,0.453125 l 1.171875,0 c -0.015625,-0.890625 -0.71875,-1.515625 -1.625,-1.515625 -0.859375,0 -1.5625,0.625 -1.5625,1.3125 0,0.40625 0.28125,0.8125 0.90625,1.015625 l 1.046875,0.328125 c 0.21875,0.0625 0.125,-0.0625 0.125,0.03125 C 2.203125,-0.890625 2.125,-1 1.71875,-1 1.328125,-1 1.265625,-0.890625 1.15625,-1.4375 L 0,-1.4375 c 0.03125,0.921875 0.75,1.5 1.765625,1.5 0.953125,0 1.640625,-0.5625 1.640625,-1.25 z m 0,0"
           id="path120"
           inkscape:connector-curvature="0" />
      </symbol>
      <symbol
         overflow="visible"
         id="glyph3-0"
         style="overflow:visible">
        <path
           style="stroke:none"
           d=""
           id="path123"
           inkscape:connector-curvature="0" />
      </symbol>
      <symbol
         overflow="visible"
         id="glyph3-1"
         style="overflow:visible">
        <path
           style="stroke:none"
           d="m 2.53125,-0.15625 0,-4.984375 -0.703125,0 C 1.578125,-4.25 1.625,-4.296875 0.515625,-4.15625 l 0,0.71875 1.0625,0 0,3.4375 0.953125,0 z m 0,0"
           id="path126"
           inkscape:connector-curvature="0" />
      </symbol>
      <symbol
         overflow="visible"
         id="glyph3-2"
         style="overflow:visible">
        <path
           style="stroke:none"
           d="m 1.46875,-0.15625 0,-0.875 -1.046875,0 0,1.03125 1.046875,0 z m 0,0"
           id="path129"
           inkscape:connector-curvature="0" />
      </symbol>
      <symbol
         overflow="visible"
         id="glyph3-3"
         style="overflow:visible">
        <path
           style="stroke:none"
           d="M 2.5,-4.203125 2.3125,-4.8125 l -0.65625,0.234375 0,-0.703125 -0.75,0 0,0.703125 -0.625,-0.234375 -0.234375,0.703125 0.6875,0.1875 -0.4375,0.546875 0.625,0.453125 0.375,-0.578125 0.375,0.578125 0.625,-0.4375 -0.421875,-0.5625 0.65625,-0.1875 z m 0,0"
           id="path132"
           inkscape:connector-curvature="0" />
      </symbol>
    </g>
    <image
       id="image2657"
       width="16"
       height="16"
       xlink:href="data:image/png;base64,iVBORw0KGgoAAAANSUhEUgAAABAAAAAQCAYAAAAf8/9hAAAABGdBTUEAAK/INwWK6QAAABl0RVh0U29mdHdhcmUAQWRvYmUgSW1hZ2VSZWFkeXHJZTwAAAHSSURBVHjapJNLbhRBDIb/6u7JBBgRBAiNxHayZ8OSNZfgDFyFA7DgAKzYRMkFcoPsWPCQEhRBEAxMdT1c5nd1T5JmRUSp3VXttj+XXS7gP4ez19NnJ3oTp/vLHRy93d/n8kunqnjx8hRNQ5pzg4Vew+vVXGjLB4t7rf19TjmiQt27k6TbIbSKWbWn6nco+tMXvdgUPV8XPf0h+uGb6JvjtWFfUZ50NRCx603Gp/MNkijatsHenRnOvvdIWfFg7xbOLjxCUqwe34WkfJlOBdjW6Ic+FYQo6LoWuzsdfOA3AQvquRvEkLD2HinGS0BTASKQAkYbHCIjRBItYoi56kIkIEX0IUNymu5A6M3cK8TEapmFQp3Nqa5HsbW9JjvIeXBWjBAFazhCrkBbiNlPayC5RhlE6lGZTTQnEiO9bM6MYEWWvwGZnqwTPPONISA3Dr7v6zoxX+9b5h9q9QeATABqOZnMW0ZvS22czIJ1DQ1bHdcFbtbUFFWuAaz7Xh9+xIw/lw8X6Pt5zVm0waP5bgVndZjfdkOBmxm0lGkKX9kkB8efeRrCehTrThqhzkW3347dPPS434TpZeJYjb29usGdem93YQtYUJbj/K/jl93GPwIMALKlc/N8m1J8AAAAAElFTkSuQmCC" />
  </defs>
  <path
     inkscape:connector-curvature="0"
     id="path136"
     d="m 539.00059,556.28661 -361.96917,0 0,-146.60947"
     style="fill:none;stroke:#000000;stroke-width:0.56692898;stroke-linecap:butt;stroke-linejoin:miter;stroke-miterlimit:10;stroke-opacity:1" />
  <path
     inkscape:connector-curvature="0"
     id="path138"
     d="m 244.10016,574.37831 -19.03627,-19.04939 19.03627,-19.03627 19.0494,19.03627 z m 0,0"
     style="fill:#ffffff;fill-opacity:1;fill-rule:nonzero;stroke:#000000;stroke-width:0.56692898;stroke-linecap:butt;stroke-linejoin:miter;stroke-miterlimit:10;stroke-opacity:1" />
  <path
     inkscape:connector-curvature="0"
     id="path140"
     d="m 244.10016,574.37831 19.04938,-19.04938 -19.04938,-19.03629 z m 0,0"
     style="fill:#000000;fill-opacity:1;fill-rule:nonzero;stroke:none" />
  <path
     inkscape:connector-curvature="0"
     id="path142"
     d="m 618.77537,502.96924 0,-152.31643 464.59783,0 0,-154.23186"
     style="fill:none;stroke:#000000;stroke-width:0.56692898;stroke-linecap:butt;stroke-linejoin:miter;stroke-miterlimit:10;stroke-opacity:1" />
  <path
     inkscape:connector-curvature="0"
     id="path144"
     d="m 849.1655,330.65886 19.03631,19.03627 -19.03631,19.03628 -19.03627,-19.03628 z m 0,0"
     style="fill:#ffffff;fill-opacity:1;fill-rule:nonzero;stroke:#000000;stroke-width:0.56692898;stroke-linecap:butt;stroke-linejoin:miter;stroke-miterlimit:10;stroke-opacity:1" />
  <path
     inkscape:connector-curvature="0"
     id="path146"
     d="m 849.1655,330.65887 -19.03628,19.03628 19.03628,19.03625 z m 0,0"
     style="fill:#000000;fill-opacity:1;fill-rule:nonzero;stroke:none" />
  <path
     inkscape:connector-curvature="0"
     id="path148"
     d="m 595.03815,607.70162 -156.04237,0 0,97.0968 -156.02531,0"
     style="fill:none;stroke:#000000;stroke-width:0.56692898;stroke-linecap:butt;stroke-linejoin:miter;stroke-miterlimit:10;stroke-opacity:1;stroke-dasharray:5.66928982, 2.26771593" />
  <path
     inkscape:connector-curvature="0"
     id="path150"
     d="m 456.19909,654.34117 -19.03627,19.04939 -19.03627,-19.04939 19.03627,-19.03628 z m 0,0"
     style="fill:#ffffff;fill-opacity:1;fill-rule:nonzero;stroke:#000000;stroke-width:0.56692898;stroke-linecap:butt;stroke-linejoin:miter;stroke-miterlimit:10;stroke-opacity:1" />
  <path
     inkscape:connector-curvature="0"
     id="path152"
     d="m 456.1991,654.34119 -19.03625,-19.03628 -19.03628,19.03628 z m 0,0"
     style="fill:#000000;fill-opacity:1;fill-rule:nonzero;stroke:none" />
  <path
     inkscape:connector-curvature="0"
     id="path154"
     d="m 79.921467,626.73788 0,-108.53693 9.52469,0 0,-108.52381"
     style="fill:none;stroke:#000000;stroke-width:0.56692898;stroke-linecap:butt;stroke-linejoin:miter;stroke-miterlimit:10;stroke-opacity:1;stroke-dasharray:5.66928991, 2.26771597" />
  <path
     inkscape:connector-curvature="0"
     id="path156"
     d="m 82.781497,498.20698 19.036273,19.0494 -19.036273,19.03627 -19.04939,-19.03627 z m 0,0"
     style="fill:#ffffff;fill-opacity:1;fill-rule:nonzero;stroke:#000000;stroke-width:0.56692898;stroke-linecap:butt;stroke-linejoin:miter;stroke-miterlimit:10;stroke-opacity:1" />
  <path
     inkscape:connector-curvature="0"
     id="path158"
     d="m 82.781497,498.20695 -19.04939,19.04941 19.04939,19.03628 z m 0,0"
     style="fill:#000000;fill-opacity:1;fill-rule:nonzero;stroke:none" />
  <path
     inkscape:connector-curvature="0"
     id="path160"
     d="m 533.09239,162.13992 0,169.4635 -268.47572,0"
     style="fill:none;stroke:#000000;stroke-width:0.56692898;stroke-linecap:butt;stroke-linejoin:miter;stroke-miterlimit:10;stroke-opacity:1" />
  <path
     inkscape:connector-curvature="0"
     id="path162"
     d="m 551.18411,330.65886 -19.04939,19.03627 -19.03627,-19.03627 19.03627,-19.0494 z m 0,0"
     style="fill:#ffffff;fill-opacity:1;fill-rule:nonzero;stroke:#000000;stroke-width:0.56692898;stroke-linecap:butt;stroke-linejoin:miter;stroke-miterlimit:10;stroke-opacity:1" />
  <path
     inkscape:connector-curvature="0"
     id="path164"
     d="m 551.18415,330.65887 -19.04942,-19.04941 -19.03628,19.04941 z m 0,0"
     style="fill:#000000;fill-opacity:1;fill-rule:nonzero;stroke:none" />
  <path
     inkscape:connector-curvature="0"
     id="path166"
     d="m 673.99502,84.079368 137.08478,0 0,34.267912 135.19561,0"
     style="fill:none;stroke:#000000;stroke-width:0.56692898;stroke-linecap:butt;stroke-linejoin:miter;stroke-miterlimit:10;stroke-opacity:1" />
  <path
     inkscape:connector-curvature="0"
     id="path168"
     d="M 829.17152,99.311015 810.13524,118.34729 791.09897,99.311015 810.13524,80.274742 z m 0,0"
     style="fill:#ffffff;fill-opacity:1;fill-rule:nonzero;stroke:#000000;stroke-width:0.56692898;stroke-linecap:butt;stroke-linejoin:miter;stroke-miterlimit:10;stroke-opacity:1" />
  <path
     inkscape:connector-curvature="0"
     id="path170"
     d="M 829.17152,99.311015 810.13524,80.274737 791.09896,99.311015 z m 0,0"
     style="fill:#000000;fill-opacity:1;fill-rule:nonzero;stroke:none" />
  <path
     inkscape:connector-curvature="0"
     id="path172"
     d="m 390.2875,84.079368 -163.75656,0 0,-5.720067 -165.645753,0"
     style="fill:none;stroke:#000000;stroke-width:0.56692898;stroke-linecap:butt;stroke-linejoin:miter;stroke-miterlimit:10;stroke-opacity:1;stroke-dasharray:5.66928991, 2.26771597" />
  <path
     inkscape:connector-curvature="0"
     id="path174"
     d="m 269.5672,79.31702 19.04939,-19.036274 19.03628,19.036274 -19.03628,19.036272 z m 0,0"
     style="fill:#ffffff;fill-opacity:1;fill-rule:nonzero;stroke:#000000;stroke-width:0.56692898;stroke-linecap:butt;stroke-linejoin:miter;stroke-miterlimit:10;stroke-opacity:1" />
  <path
     inkscape:connector-curvature="0"
     id="path176"
     d="m 269.56721,79.31702 19.04941,19.036279 19.03625,-19.036279 z m 0,0"
     style="fill:#000000;fill-opacity:1;fill-rule:nonzero;stroke:none" />
  <path
     inkscape:connector-curvature="0"
     id="path178"
     d="m 1.860867,268.77449 c 0,-8.40954 6.80898,-15.23164 15.23164,-15.23164 l 232.292403,0 c 8.40954,0 15.23164,6.8221 15.23164,15.23164 l 0,125.67089 c 0,8.40954 -6.8221,15.23164 -15.23164,15.23164 l -232.292403,0 c -8.42266,0 -15.23164,-6.8221 -15.23164,-15.23164 z m 0,0"
     style="fill:#ffffff;fill-opacity:1;fill-rule:nonzero;stroke:#7f7f7f;stroke-width:0.56692898;stroke-linecap:butt;stroke-linejoin:miter;stroke-miterlimit:10;stroke-opacity:1" />
  <path
     inkscape:connector-curvature="0"
     id="path180"
     d="m 1.860917,268.77455 c 0,-8.40955 6.80898,-15.23164 15.23165,-15.23164 l 232.292393,0 c 8.40954,0 15.23164,6.82209 15.23164,15.23164 l 0,34.26792 -262.755683,0 z m 0,0"
     style="fill:#97bdd9;fill-opacity:1;fill-rule:nonzero;stroke:#b3b3b3;stroke-width:0.56692898;stroke-linecap:butt;stroke-linejoin:miter;stroke-miterlimit:10;stroke-opacity:1" />
  <use
     height="782.90076"
     width="1117.9843"
     y="0"
     x="0"
     id="use182"
     transform="matrix(1.9040715,0,0,1.9040715,12.327427,262.10741)"
     xlink:href="#image2657" />
  <g
     id="g184"
     style="fill:#000000;fill-opacity:1"
     transform="matrix(3.3585714,0,0,3.3585714,-183.79199,-19.69524)">
    <use
       height="782.90076"
       width="1117.9843"
       id="use186"
       y="91.222656"
       x="70.300781"
       xlink:href="#glyph0-1" />
    <use
       height="782.90076"
       width="1117.9843"
       id="use188"
       y="91.222656"
       x="74.453644"
       xlink:href="#glyph0-2" />
    <use
       height="782.90076"
       width="1117.9843"
       id="use190"
       y="91.222656"
       x="78.606506"
       xlink:href="#glyph0-3" />
    <use
       height="782.90076"
       width="1117.9843"
       id="use192"
       y="91.222656"
       x="82.385544"
       xlink:href="#glyph0-4" />
    <use
       height="782.90076"
       width="1117.9843"
       id="use194"
       y="91.222656"
       x="85.02951"
       xlink:href="#glyph0-5" />
    <use
       height="782.90076"
       width="1117.9843"
       id="use196"
       y="91.222656"
       x="88.808548"
       xlink:href="#glyph0-6" />
    <use
       height="782.90076"
       width="1117.9843"
       id="use198"
       y="91.222656"
       x="92.961411"
       xlink:href="#glyph0-3" />
    <use
       height="782.90076"
       width="1117.9843"
       id="use200"
       y="91.222656"
       x="96.740448"
       xlink:href="#glyph0-7" />
    <use
       height="782.90076"
       width="1117.9843"
       id="use202"
       y="91.222656"
       x="100.89331"
       xlink:href="#glyph0-8" />
  </g>
  <path
     inkscape:connector-curvature="0"
     id="path204"
     d="m 234.15338,270.67687 17.13395,0 -8.56698,15.23165 z m 0,0"
     style="fill:#666666;fill-opacity:1;fill-rule:nonzero;stroke:none" />
  <g
     id="g206"
     style="fill:#7f7f7f;fill-opacity:1"
     transform="matrix(3.3585714,0,0,3.3585714,-183.79199,-19.69524)">
    <use
       height="782.90076"
       width="1117.9843"
       id="use208"
       y="104.61328"
       x="83.222656"
       xlink:href="#glyph1-1" />
    <use
       height="782.90076"
       width="1117.9843"
       id="use210"
       y="104.61328"
       x="86.376282"
       xlink:href="#glyph1-2" />
    <use
       height="782.90076"
       width="1117.9843"
       id="use212"
       y="104.61328"
       x="87.953094"
       xlink:href="#glyph1-3" />
    <use
       height="782.90076"
       width="1117.9843"
       id="use214"
       y="104.61328"
       x="92.677856"
       xlink:href="#glyph1-4" />
    <use
       height="782.90076"
       width="1117.9843"
       id="use216"
       y="104.61328"
       x="95.831482"
       xlink:href="#glyph1-5" />
    <use
       height="782.90076"
       width="1117.9843"
       id="use218"
       y="104.61328"
       x="97.720245"
       xlink:href="#glyph1-6" />
    <use
       height="782.90076"
       width="1117.9843"
       id="use220"
       y="104.61328"
       x="100.87387"
       xlink:href="#glyph1-7" />
    <use
       height="782.90076"
       width="1117.9843"
       id="use222"
       y="104.61328"
       x="102.45068"
       xlink:href="#glyph1-7" />
    <use
       height="782.90076"
       width="1117.9843"
       id="use224"
       y="104.61328"
       x="104.0275"
       xlink:href="#glyph1-7" />
  </g>
  <path
     inkscape:connector-curvature="0"
     id="path226"
     d="m 1.860917,348.73741 262.755683,0 0,45.69493 -262.755683,0 z m 0,0"
     style="fill:#c5c5c5;fill-opacity:1;fill-rule:nonzero;stroke:#b3b3b3;stroke-width:0.56692898;stroke-linecap:butt;stroke-linejoin:miter;stroke-miterlimit:10;stroke-opacity:1" />
  <g
     id="g228"
     style="fill:#ffffff;fill-opacity:1"
     transform="matrix(3.3585714,0,0,3.3585714,-183.79199,-19.69524)">
    <use
       height="782.90076"
       width="1117.9843"
       id="use230"
       y="118.76953"
       x="58.394531"
       xlink:href="#glyph2-1" />
    <use
       height="782.90076"
       width="1117.9843"
       id="use232"
       y="118.76953"
       x="60.127701"
       xlink:href="#glyph2-2" />
    <use
       height="782.90076"
       width="1117.9843"
       id="use234"
       y="118.76953"
       x="63.93692"
       xlink:href="#glyph2-3" />
    <use
       height="782.90076"
       width="1117.9843"
       id="use236"
       y="118.76953"
       x="67.74614"
       xlink:href="#glyph2-4" />
    <use
       height="782.90076"
       width="1117.9843"
       id="use238"
       y="118.76953"
       x="71.212463"
       xlink:href="#glyph2-5" />
    <use
       height="782.90076"
       width="1117.9843"
       id="use240"
       y="118.76953"
       x="74.678787"
       xlink:href="#glyph2-4" />
    <use
       height="782.90076"
       width="1117.9843"
       id="use242"
       y="118.76953"
       x="78.145111"
       xlink:href="#glyph2-6" />
  </g>
  <path
     inkscape:connector-curvature="0"
     id="path244"
     d="m 234.15338,362.06675 15.23162,8.56698 -15.23162,8.58011 z m 0,0"
     style="fill:#666666;fill-opacity:1;fill-rule:nonzero;stroke:none" />
  <path
     inkscape:connector-curvature="0"
     id="path246"
     d="m 264.6166,394.44546 c 0,8.40955 -6.8221,15.23164 -15.23164,15.23164 l -232.292393,0 c -8.42267,0 -15.23165,-6.82209 -15.23165,-15.23164 z m 0,0"
     style="fill:#97bdd9;fill-opacity:1;fill-rule:nonzero;stroke:#b3b3b3;stroke-width:0.56692898;stroke-linecap:butt;stroke-linejoin:miter;stroke-miterlimit:10;stroke-opacity:1" />
  <path
     inkscape:connector-curvature="0"
     id="path248"
     d="m 946.27521,55.518374 c 0,-8.409547 6.8221,-15.231643 15.2316,-15.231643 l 241.81709,0 c 8.4095,0 15.2316,6.822096 15.2316,15.231643 l 0,125.670876 c 0,8.40956 -6.8221,15.23166 -15.2316,15.23166 l -241.81709,0 c -8.4095,0 -15.2316,-6.8221 -15.2316,-15.23166 z m 0,0"
     style="fill:#ffffff;fill-opacity:1;fill-rule:nonzero;stroke:#7f7f7f;stroke-width:0.56692898;stroke-linecap:butt;stroke-linejoin:miter;stroke-miterlimit:10;stroke-opacity:1" />
  <path
     inkscape:connector-curvature="0"
     id="path250"
     d="m 946.27551,55.518388 c 0,-8.409547 6.8221,-15.231643 15.2316,-15.231643 l 241.81709,0 c 8.4095,0 15.2316,6.822096 15.2316,15.231643 l 0,34.267916 -272.28029,0 z m 0,0"
     style="fill:#97bdd9;fill-opacity:1;fill-rule:nonzero;stroke:#b3b3b3;stroke-width:0.56692898;stroke-linecap:butt;stroke-linejoin:miter;stroke-miterlimit:10;stroke-opacity:1" />
  <use
     height="782.90076"
     width="1117.9843"
     y="0"
     x="0"
     id="use252"
     transform="matrix(1.9040715,0,0,1.9040715,956.74711,48.851352)"
     xlink:href="#image2657" />
  <g
     id="g254"
     style="fill:#000000;fill-opacity:1"
     transform="matrix(3.3585714,0,0,3.3585714,-183.79199,-19.69524)">
    <use
       height="782.90076"
       width="1117.9843"
       id="use256"
       y="27.726562"
       x="351.49609"
       xlink:href="#glyph0-9" />
    <use
       height="782.90076"
       width="1117.9843"
       id="use258"
       y="27.726562"
       x="356.0296"
       xlink:href="#glyph0-5" />
    <use
       height="782.90076"
       width="1117.9843"
       id="use260"
       y="27.726562"
       x="359.80862"
       xlink:href="#glyph0-8" />
    <use
       height="782.90076"
       width="1117.9843"
       id="use262"
       y="27.726562"
       x="362.07199"
       xlink:href="#glyph0-10" />
    <use
       height="782.90076"
       width="1117.9843"
       id="use264"
       y="27.726562"
       x="363.96149"
       xlink:href="#glyph0-3" />
    <use
       height="782.90076"
       width="1117.9843"
       id="use266"
       y="27.726562"
       x="367.74054"
       xlink:href="#glyph0-11" />
    <use
       height="782.90076"
       width="1117.9843"
       id="use268"
       y="27.726562"
       x="371.8934"
       xlink:href="#glyph0-8" />
  </g>
  <path
     inkscape:connector-curvature="0"
     id="path270"
     d="m 1188.0926,57.42071 17.134,0 -8.567,15.231645 z m 0,0"
     style="fill:#666666;fill-opacity:1;fill-rule:nonzero;stroke:none" />
  <g
     id="g272"
     style="fill:#7f7f7f;fill-opacity:1"
     transform="matrix(3.3585714,0,0,3.3585714,-183.79199,-19.69524)">
    <use
       height="782.90076"
       width="1117.9843"
       id="use274"
       y="41.117188"
       x="365.83594"
       xlink:href="#glyph1-1" />
    <use
       height="782.90076"
       width="1117.9843"
       id="use276"
       y="41.117188"
       x="368.98956"
       xlink:href="#glyph1-2" />
    <use
       height="782.90076"
       width="1117.9843"
       id="use278"
       y="41.117188"
       x="370.56638"
       xlink:href="#glyph1-3" />
    <use
       height="782.90076"
       width="1117.9843"
       id="use280"
       y="41.117188"
       x="375.29114"
       xlink:href="#glyph1-4" />
    <use
       height="782.90076"
       width="1117.9843"
       id="use282"
       y="41.117188"
       x="378.44476"
       xlink:href="#glyph1-5" />
    <use
       height="782.90076"
       width="1117.9843"
       id="use284"
       y="41.117188"
       x="380.33353"
       xlink:href="#glyph1-6" />
    <use
       height="782.90076"
       width="1117.9843"
       id="use286"
       y="41.117188"
       x="383.48715"
       xlink:href="#glyph1-7" />
    <use
       height="782.90076"
       width="1117.9843"
       id="use288"
       y="41.117188"
       x="385.06396"
       xlink:href="#glyph1-7" />
    <use
       height="782.90076"
       width="1117.9843"
       id="use290"
       y="41.117188"
       x="386.64078"
       xlink:href="#glyph1-7" />
  </g>
  <path
     inkscape:connector-curvature="0"
     id="path292"
     d="m 946.27551,135.48124 272.28029,0 0,45.69493 -272.28029,0 z m 0,0"
     style="fill:#c5c5c5;fill-opacity:1;fill-rule:nonzero;stroke:#b3b3b3;stroke-width:0.56692898;stroke-linecap:butt;stroke-linejoin:miter;stroke-miterlimit:10;stroke-opacity:1" />
  <g
     id="g294"
     style="fill:#ffffff;fill-opacity:1"
     transform="matrix(3.3585714,0,0,3.3585714,-183.79199,-19.69524)">
    <use
       height="782.90076"
       width="1117.9843"
       id="use296"
       y="55.273438"
       x="339.58984"
       xlink:href="#glyph2-1" />
    <use
       height="782.90076"
       width="1117.9843"
       id="use298"
       y="55.273438"
       x="341.323"
       xlink:href="#glyph2-2" />
    <use
       height="782.90076"
       width="1117.9843"
       id="use300"
       y="55.273438"
       x="345.13223"
       xlink:href="#glyph2-3" />
    <use
       height="782.90076"
       width="1117.9843"
       id="use302"
       y="55.273438"
       x="348.94144"
       xlink:href="#glyph2-4" />
    <use
       height="782.90076"
       width="1117.9843"
       id="use304"
       y="55.273438"
       x="352.40778"
       xlink:href="#glyph2-5" />
    <use
       height="782.90076"
       width="1117.9843"
       id="use306"
       y="55.273438"
       x="355.87411"
       xlink:href="#glyph2-4" />
    <use
       height="782.90076"
       width="1117.9843"
       id="use308"
       y="55.273438"
       x="359.34042"
       xlink:href="#glyph2-6" />
  </g>
  <path
     inkscape:connector-curvature="0"
     id="path310"
     d="m 1188.0926,148.81058 15.2316,8.56698 -15.2316,8.58011 z m 0,0"
     style="fill:#666666;fill-opacity:1;fill-rule:nonzero;stroke:none" />
  <path
     inkscape:connector-curvature="0"
     id="path312"
     d="m 1218.5558,181.18929 c 0,8.40955 -6.8221,15.23164 -15.2316,15.23164 l -241.81709,0 c -8.4095,0 -15.2316,-6.82209 -15.2316,-15.23164 z m 0,0"
     style="fill:#97bdd9;fill-opacity:1;fill-rule:nonzero;stroke:#b3b3b3;stroke-width:0.56692898;stroke-linecap:butt;stroke-linejoin:miter;stroke-miterlimit:10;stroke-opacity:1" />
  <path
     inkscape:connector-curvature="0"
     id="path314"
     d="m 34.578087,641.9694 c 0,-8.40954 6.8221,-15.23164 15.23166,-15.23164 l 283.707403,0 c 8.40954,0 15.23164,6.8221 15.23164,15.23164 l 0,125.67089 c 0,8.40954 -6.8221,15.23164 -15.23164,15.23164 l -283.707403,0 c -8.40956,0 -15.23166,-6.8221 -15.23166,-15.23164 z m 0,0"
     style="fill:#ffffff;fill-opacity:1;fill-rule:nonzero;stroke:#7f7f7f;stroke-width:0.56692898;stroke-linecap:butt;stroke-linejoin:miter;stroke-miterlimit:10;stroke-opacity:1" />
  <path
     inkscape:connector-curvature="0"
     id="path316"
     d="m 34.578107,641.96957 c 0,-8.40954 6.82211,-15.23164 15.23166,-15.23164 l 283.707413,0 c 8.40954,0 15.23164,6.8221 15.23164,15.23164 l 0,34.26792 -314.170713,0 z m 0,0"
     style="fill:#97bdd9;fill-opacity:1;fill-rule:nonzero;stroke:#b3b3b3;stroke-width:0.56692898;stroke-linecap:butt;stroke-linejoin:miter;stroke-miterlimit:10;stroke-opacity:1" />
  <use
     height="782.90076"
     width="1117.9843"
     y="0"
     x="0"
     id="use318"
     transform="matrix(1.9040715,0,0,1.9040715,45.049587,635.30551)"
     xlink:href="#image2657" />
  <g
     id="g320"
     style="fill:#000000;fill-opacity:1"
     transform="matrix(3.3585714,0,0,3.3585714,-71.098857,-19.69524)">
    <use
       height="782.90076"
       width="1117.9843"
       id="use322"
       y="202.33984"
       x="46.488281"
       xlink:href="#glyph0-12" />
    <use
       height="782.90076"
       width="1117.9843"
       id="use324"
       y="202.33984"
       x="51.395599"
       xlink:href="#glyph0-13" />
    <use
       height="782.90076"
       width="1117.9843"
       id="use326"
       y="202.33984"
       x="55.174637"
       xlink:href="#glyph0-8" />
    <use
       height="782.90076"
       width="1117.9843"
       id="use328"
       y="202.33984"
       x="57.437988"
       xlink:href="#glyph0-10" />
    <use
       height="782.90076"
       width="1117.9843"
       id="use330"
       y="202.33984"
       x="59.327515"
       xlink:href="#glyph0-14" />
    <use
       height="782.90076"
       width="1117.9843"
       id="use332"
       y="202.33984"
       x="63.106552"
       xlink:href="#glyph0-10" />
    <use
       height="782.90076"
       width="1117.9843"
       id="use334"
       y="202.33984"
       x="64.996078"
       xlink:href="#glyph0-8" />
    <use
       height="782.90076"
       width="1117.9843"
       id="use336"
       y="202.33984"
       x="67.25943"
       xlink:href="#glyph0-15" />
    <use
       height="782.90076"
       width="1117.9843"
       id="use338"
       y="202.33984"
       x="71.038467"
       xlink:href="#glyph0-8" />
  </g>
  <path
     inkscape:connector-curvature="0"
     id="path340"
     d="m 318.28561,643.87188 17.13395,0 -8.56698,15.23163 z m 0,0"
     style="fill:#666666;fill-opacity:1;fill-rule:nonzero;stroke:none" />
  <g
     id="g342"
     style="fill:#7f7f7f;fill-opacity:1"
     transform="matrix(3.3585714,0,0,3.3585714,-71.098857,-19.69524)">
    <use
       height="782.90076"
       width="1117.9843"
       id="use344"
       y="215.77344"
       x="67.042969"
       xlink:href="#glyph1-8" />
    <use
       height="782.90076"
       width="1117.9843"
       id="use346"
       y="215.77344"
       x="70.196594"
       xlink:href="#glyph1-2" />
    <use
       height="782.90076"
       width="1117.9843"
       id="use348"
       y="215.77344"
       x="71.773407"
       xlink:href="#glyph1-3" />
    <use
       height="782.90076"
       width="1117.9843"
       id="use350"
       y="215.77344"
       x="76.498169"
       xlink:href="#glyph1-4" />
    <use
       height="782.90076"
       width="1117.9843"
       id="use352"
       y="215.77344"
       x="79.651794"
       xlink:href="#glyph1-5" />
    <use
       height="782.90076"
       width="1117.9843"
       id="use354"
       y="215.77344"
       x="81.540558"
       xlink:href="#glyph1-6" />
    <use
       height="782.90076"
       width="1117.9843"
       id="use356"
       y="215.77344"
       x="84.694183"
       xlink:href="#glyph1-7" />
    <use
       height="782.90076"
       width="1117.9843"
       id="use358"
       y="215.77344"
       x="86.270996"
       xlink:href="#glyph1-7" />
    <use
       height="782.90076"
       width="1117.9843"
       id="use360"
       y="215.77344"
       x="87.847809"
       xlink:href="#glyph1-7" />
  </g>
  <path
     inkscape:connector-curvature="0"
     id="path362"
     d="m 34.578107,721.94552 314.170713,0 0,45.69493 -314.170713,0 z m 0,0"
     style="fill:#c5c5c5;fill-opacity:1;fill-rule:nonzero;stroke:#b3b3b3;stroke-width:0.56692898;stroke-linecap:butt;stroke-linejoin:miter;stroke-miterlimit:10;stroke-opacity:1" />
  <g
     id="g364"
     style="fill:#ffffff;fill-opacity:1"
     transform="matrix(3.3585714,0,0,3.3585714,-71.098857,-19.69524)">
    <use
       height="782.90076"
       width="1117.9843"
       id="use366"
       y="229.89062"
       x="34.582031"
       xlink:href="#glyph2-1" />
    <use
       height="782.90076"
       width="1117.9843"
       id="use368"
       y="229.89062"
       x="36.315201"
       xlink:href="#glyph2-2" />
    <use
       height="782.90076"
       width="1117.9843"
       id="use370"
       y="229.89062"
       x="40.12442"
       xlink:href="#glyph2-3" />
    <use
       height="782.90076"
       width="1117.9843"
       id="use372"
       y="229.89062"
       x="43.93364"
       xlink:href="#glyph2-4" />
    <use
       height="782.90076"
       width="1117.9843"
       id="use374"
       y="229.89062"
       x="47.399963"
       xlink:href="#glyph2-5" />
    <use
       height="782.90076"
       width="1117.9843"
       id="use376"
       y="229.89062"
       x="50.866287"
       xlink:href="#glyph2-4" />
    <use
       height="782.90076"
       width="1117.9843"
       id="use378"
       y="229.89062"
       x="54.332611"
       xlink:href="#glyph2-6" />
  </g>
  <path
     inkscape:connector-curvature="0"
     id="path380"
     d="m 318.28561,735.27487 15.23166,8.56697 -15.23166,8.56698 z m 0,0"
     style="fill:#666666;fill-opacity:1;fill-rule:nonzero;stroke:none" />
  <path
     inkscape:connector-curvature="0"
     id="path382"
     d="m 348.74882,767.64045 c 0,8.40955 -6.8221,15.23164 -15.23164,15.23164 l -283.707413,0 c -8.40955,0 -15.23166,-6.82209 -15.23166,-15.23164 z m 0,0"
     style="fill:#97bdd9;fill-opacity:1;fill-rule:nonzero;stroke:#b3b3b3;stroke-width:0.56692898;stroke-linecap:butt;stroke-linejoin:miter;stroke-miterlimit:10;stroke-opacity:1" />
  <path
     inkscape:connector-curvature="0"
     id="path384"
     d="m 537.34186,518.20083 c 0,-8.40954 6.8221,-15.23164 15.23166,-15.23164 l 253.24408,0 c 8.40954,0 15.23164,6.8221 15.23164,15.23164 l 0,125.67089 c 0,8.40954 -6.8221,15.23164 -15.23164,15.23164 l -253.24408,0 c -8.40956,0 -15.23166,-6.8221 -15.23166,-15.23164 z m 0,0"
     style="fill:#ffffff;fill-opacity:1;fill-rule:nonzero;stroke:#7f7f7f;stroke-width:0.56692898;stroke-linecap:butt;stroke-linejoin:miter;stroke-miterlimit:10;stroke-opacity:1" />
  <path
     inkscape:connector-curvature="0"
     id="path386"
     d="m 537.34204,518.20095 c 0,-8.40955 6.82209,-15.23165 15.23164,-15.23165 l 253.24409,0 c 8.40954,0 15.23164,6.8221 15.23164,15.23165 l 0,34.28103 -283.70737,0 z m 0,0"
     style="fill:#97bdd9;fill-opacity:1;fill-rule:nonzero;stroke:#b3b3b3;stroke-width:0.56692898;stroke-linecap:butt;stroke-linejoin:miter;stroke-miterlimit:10;stroke-opacity:1" />
  <use
     height="782.90076"
     width="1117.9843"
     y="0"
     x="0"
     id="use388"
     transform="matrix(1.9040715,0,0,1.9040715,547.81286,511.54085)"
     xlink:href="#image2657" />
  <g
     id="g390"
     style="fill:#000000;fill-opacity:1"
     transform="matrix(3.3585714,0,0,3.3585714,-122.42053,-19.69524)">
    <use
       height="782.90076"
       width="1117.9843"
       id="use392"
       y="165.49219"
       x="211.46484"
       xlink:href="#glyph0-12" />
    <use
       height="782.90076"
       width="1117.9843"
       id="use394"
       y="165.49219"
       x="216.37216"
       xlink:href="#glyph0-13" />
    <use
       height="782.90076"
       width="1117.9843"
       id="use396"
       y="165.49219"
       x="220.1512"
       xlink:href="#glyph0-8" />
    <use
       height="782.90076"
       width="1117.9843"
       id="use398"
       y="165.49219"
       x="222.41455"
       xlink:href="#glyph0-10" />
    <use
       height="782.90076"
       width="1117.9843"
       id="use400"
       y="165.49219"
       x="224.30408"
       xlink:href="#glyph0-14" />
    <use
       height="782.90076"
       width="1117.9843"
       id="use402"
       y="165.49219"
       x="228.08311"
       xlink:href="#glyph0-10" />
    <use
       height="782.90076"
       width="1117.9843"
       id="use404"
       y="165.49219"
       x="229.97264"
       xlink:href="#glyph0-8" />
    <use
       height="782.90076"
       width="1117.9843"
       id="use406"
       y="165.49219"
       x="232.23599"
       xlink:href="#glyph0-15" />
    <use
       height="782.90076"
       width="1117.9843"
       id="use408"
       y="165.49219"
       x="236.01503"
       xlink:href="#glyph0-8" />
    <use
       height="782.90076"
       width="1117.9843"
       id="use410"
       y="165.49219"
       x="238.27838"
       xlink:href="#glyph0-16" />
    <use
       height="782.90076"
       width="1117.9843"
       id="use412"
       y="165.49219"
       x="242.05742"
       xlink:href="#glyph0-6" />
    <use
       height="782.90076"
       width="1117.9843"
       id="use414"
       y="165.49219"
       x="246.21028"
       xlink:href="#glyph0-17" />
    <use
       height="782.90076"
       width="1117.9843"
       id="use416"
       y="165.49219"
       x="248.09981"
       xlink:href="#glyph0-5" />
    <use
       height="782.90076"
       width="1117.9843"
       id="use418"
       y="165.49219"
       x="251.87885"
       xlink:href="#glyph0-11" />
  </g>
  <path
     inkscape:connector-curvature="0"
     id="path420"
     d="m 790.58619,520.10329 17.13395,0 -8.56697,15.24476 z m 0,0"
     style="fill:#666666;fill-opacity:1;fill-rule:nonzero;stroke:none" />
  <g
     id="g422"
     style="fill:#7f7f7f;fill-opacity:1"
     transform="matrix(3.3585714,0,0,3.3585714,-122.42053,-19.69524)">
    <use
       height="782.90076"
       width="1117.9843"
       id="use424"
       y="178.92188"
       x="227.46094"
       xlink:href="#glyph1-9" />
    <use
       height="782.90076"
       width="1117.9843"
       id="use426"
       y="178.92188"
       x="230.61456"
       xlink:href="#glyph1-2" />
    <use
       height="782.90076"
       width="1117.9843"
       id="use428"
       y="178.92188"
       x="232.19138"
       xlink:href="#glyph1-3" />
    <use
       height="782.90076"
       width="1117.9843"
       id="use430"
       y="178.92188"
       x="236.91614"
       xlink:href="#glyph1-4" />
    <use
       height="782.90076"
       width="1117.9843"
       id="use432"
       y="178.92188"
       x="240.06976"
       xlink:href="#glyph1-5" />
    <use
       height="782.90076"
       width="1117.9843"
       id="use434"
       y="178.92188"
       x="241.95853"
       xlink:href="#glyph1-6" />
    <use
       height="782.90076"
       width="1117.9843"
       id="use436"
       y="178.92188"
       x="245.11215"
       xlink:href="#glyph1-7" />
    <use
       height="782.90076"
       width="1117.9843"
       id="use438"
       y="178.92188"
       x="246.68896"
       xlink:href="#glyph1-7" />
    <use
       height="782.90076"
       width="1117.9843"
       id="use440"
       y="178.92188"
       x="248.26578"
       xlink:href="#glyph1-7" />
  </g>
  <path
     inkscape:connector-curvature="0"
     id="path442"
     d="m 537.34204,598.17693 283.70737,0 0,45.69492 -283.70737,0 z m 0,0"
     style="fill:#c5c5c5;fill-opacity:1;fill-rule:nonzero;stroke:#b3b3b3;stroke-width:0.56692898;stroke-linecap:butt;stroke-linejoin:miter;stroke-miterlimit:10;stroke-opacity:1" />
  <g
     id="g444"
     style="fill:#ffffff;fill-opacity:1"
     transform="matrix(3.3585714,0,0,3.3585714,-122.42053,-19.69524)">
    <use
       height="782.90076"
       width="1117.9843"
       id="use446"
       y="193.03906"
       x="199.55859"
       xlink:href="#glyph2-1" />
    <use
       height="782.90076"
       width="1117.9843"
       id="use448"
       y="193.03906"
       x="201.29176"
       xlink:href="#glyph2-2" />
    <use
       height="782.90076"
       width="1117.9843"
       id="use450"
       y="193.03906"
       x="205.10098"
       xlink:href="#glyph2-3" />
    <use
       height="782.90076"
       width="1117.9843"
       id="use452"
       y="193.03906"
       x="208.9102"
       xlink:href="#glyph2-4" />
    <use
       height="782.90076"
       width="1117.9843"
       id="use454"
       y="193.03906"
       x="212.37653"
       xlink:href="#glyph2-5" />
    <use
       height="782.90076"
       width="1117.9843"
       id="use456"
       y="193.03906"
       x="215.84285"
       xlink:href="#glyph2-4" />
    <use
       height="782.90076"
       width="1117.9843"
       id="use458"
       y="193.03906"
       x="219.30917"
       xlink:href="#glyph2-6" />
  </g>
  <path
     inkscape:connector-curvature="0"
     id="path460"
     d="m 790.58619,611.50627 15.23166,8.56698 -15.23166,8.56698 z m 0,0"
     style="fill:#666666;fill-opacity:1;fill-rule:nonzero;stroke:none" />
  <path
     inkscape:connector-curvature="0"
     id="path462"
     d="m 821.04941,643.87185 c 0,8.40955 -6.8221,15.23165 -15.23164,15.23165 l -253.24409,0 c -8.40955,0 -15.23164,-6.8221 -15.23164,-15.23165 z m 0,0"
     style="fill:#97bdd9;fill-opacity:1;fill-rule:nonzero;stroke:#b3b3b3;stroke-width:0.56692898;stroke-linecap:butt;stroke-linejoin:miter;stroke-miterlimit:10;stroke-opacity:1" />
  <path
     inkscape:connector-curvature="0"
     id="path464"
     d="m 390.28744,21.237339 c 0,-8.409547 6.8221,-15.2316428 15.23164,-15.2316428 l 253.24408,0 c 8.40956,0 15.23166,6.8220958 15.23166,15.2316428 l 0,125.670891 c 0,8.40954 -6.8221,15.23164 -15.23166,15.23164 l -253.24408,0 c -8.40954,0 -15.23164,-6.8221 -15.23164,-15.23164 z m 0,0"
     style="fill:#ffffff;fill-opacity:1;fill-rule:nonzero;stroke:#7f7f7f;stroke-width:0.56692898;stroke-linecap:butt;stroke-linejoin:miter;stroke-miterlimit:10;stroke-opacity:1" />
  <path
     inkscape:connector-curvature="0"
     id="path466"
     d="m 390.28758,21.237346 c 0,-8.409547 6.82209,-15.2316428 15.23164,-15.2316428 l 253.24408,0 c 8.40956,0 15.23166,6.8220958 15.23166,15.2316428 l 0,34.281035 -283.70738,0 z m 0,0"
     style="fill:#97bdd9;fill-opacity:1;fill-rule:nonzero;stroke:#b3b3b3;stroke-width:0.56692898;stroke-linecap:butt;stroke-linejoin:miter;stroke-miterlimit:10;stroke-opacity:1" />
  <use
     height="782.90076"
     width="1117.9843"
     y="0"
     x="0"
     id="use468"
     transform="matrix(1.9040715,0,0,1.9040715,400.7581,14.578054)"
     xlink:href="#image2657" />
  <g
     id="g470"
     style="fill:#000000;fill-opacity:1"
     transform="matrix(3.3585714,0,0,3.3585714,-183.79199,-19.69524)">
    <use
       height="782.90076"
       width="1117.9843"
       id="use472"
       y="17.523438"
       x="185.95312"
       xlink:href="#glyph0-18" />
    <use
       height="782.90076"
       width="1117.9843"
       id="use474"
       y="17.523438"
       x="190.86044"
       xlink:href="#glyph0-5" />
    <use
       height="782.90076"
       width="1117.9843"
       id="use476"
       y="17.523438"
       x="194.63948"
       xlink:href="#glyph0-19" />
    <use
       height="782.90076"
       width="1117.9843"
       id="use478"
       y="17.523438"
       x="198.41852"
       xlink:href="#glyph0-2" />
    <use
       height="782.90076"
       width="1117.9843"
       id="use480"
       y="17.523438"
       x="202.57138"
       xlink:href="#glyph0-4" />
    <use
       height="782.90076"
       width="1117.9843"
       id="use482"
       y="17.523438"
       x="205.21535"
       xlink:href="#glyph0-10" />
    <use
       height="782.90076"
       width="1117.9843"
       id="use484"
       y="17.523438"
       x="207.10487"
       xlink:href="#glyph0-19" />
    <use
       height="782.90076"
       width="1117.9843"
       id="use486"
       y="17.523438"
       x="210.88391"
       xlink:href="#glyph0-2" />
    <use
       height="782.90076"
       width="1117.9843"
       id="use488"
       y="17.523438"
       x="215.03677"
       xlink:href="#glyph0-8" />
    <use
       height="782.90076"
       width="1117.9843"
       id="use490"
       y="17.523438"
       x="217.30013"
       xlink:href="#glyph0-3" />
    <use
       height="782.90076"
       width="1117.9843"
       id="use492"
       y="17.523438"
       x="221.07916"
       xlink:href="#glyph0-11" />
  </g>
  <path
     inkscape:connector-curvature="0"
     id="path494"
     d="m 643.53173,23.152783 17.13395,0 -8.56698,15.231648 z m 0,0"
     style="fill:#666666;fill-opacity:1;fill-rule:nonzero;stroke:none" />
  <g
     id="g496"
     style="fill:#7f7f7f;fill-opacity:1"
     transform="matrix(3.3585714,0,0,3.3585714,-183.79199,-19.69524)">
    <use
       height="782.90076"
       width="1117.9843"
       id="use498"
       y="30.957031"
       x="201.94922"
       xlink:href="#glyph1-9" />
    <use
       height="782.90076"
       width="1117.9843"
       id="use500"
       y="30.957031"
       x="205.10284"
       xlink:href="#glyph1-2" />
    <use
       height="782.90076"
       width="1117.9843"
       id="use502"
       y="30.957031"
       x="206.67966"
       xlink:href="#glyph1-3" />
    <use
       height="782.90076"
       width="1117.9843"
       id="use504"
       y="30.957031"
       x="211.40442"
       xlink:href="#glyph1-4" />
    <use
       height="782.90076"
       width="1117.9843"
       id="use506"
       y="30.957031"
       x="214.55804"
       xlink:href="#glyph1-5" />
    <use
       height="782.90076"
       width="1117.9843"
       id="use508"
       y="30.957031"
       x="216.44681"
       xlink:href="#glyph1-6" />
    <use
       height="782.90076"
       width="1117.9843"
       id="use510"
       y="30.957031"
       x="219.60043"
       xlink:href="#glyph1-7" />
    <use
       height="782.90076"
       width="1117.9843"
       id="use512"
       y="30.957031"
       x="221.17725"
       xlink:href="#glyph1-7" />
    <use
       height="782.90076"
       width="1117.9843"
       id="use514"
       y="30.957031"
       x="222.75406"
       xlink:href="#glyph1-7" />
  </g>
  <path
     inkscape:connector-curvature="0"
     id="path516"
     d="m 390.28758,101.21332 283.70738,0 0,45.69492 -283.70738,0 z m 0,0"
     style="fill:#c5c5c5;fill-opacity:1;fill-rule:nonzero;stroke:#b3b3b3;stroke-width:0.56692898;stroke-linecap:butt;stroke-linejoin:miter;stroke-miterlimit:10;stroke-opacity:1" />
  <g
     id="g518"
     style="fill:#ffffff;fill-opacity:1"
     transform="matrix(3.3585714,0,0,3.3585714,-183.79199,-19.69524)">
    <use
       height="782.90076"
       width="1117.9843"
       id="use520"
       y="45.070312"
       x="174.04688"
       xlink:href="#glyph2-1" />
    <use
       height="782.90076"
       width="1117.9843"
       id="use522"
       y="45.070312"
       x="175.78004"
       xlink:href="#glyph2-2" />
    <use
       height="782.90076"
       width="1117.9843"
       id="use524"
       y="45.070312"
       x="179.58926"
       xlink:href="#glyph2-3" />
    <use
       height="782.90076"
       width="1117.9843"
       id="use526"
       y="45.070312"
       x="183.39848"
       xlink:href="#glyph2-4" />
    <use
       height="782.90076"
       width="1117.9843"
       id="use528"
       y="45.070312"
       x="186.86481"
       xlink:href="#glyph2-5" />
    <use
       height="782.90076"
       width="1117.9843"
       id="use530"
       y="45.070312"
       x="190.33113"
       xlink:href="#glyph2-4" />
    <use
       height="782.90076"
       width="1117.9843"
       id="use532"
       y="45.070312"
       x="193.79745"
       xlink:href="#glyph2-6" />
  </g>
  <path
     inkscape:connector-curvature="0"
     id="path534"
     d="m 643.53173,114.54266 15.23166,8.56698 -15.23166,8.56698 z m 0,0"
     style="fill:#666666;fill-opacity:1;fill-rule:nonzero;stroke:none" />
  <path
     inkscape:connector-curvature="0"
     id="path536"
     d="m 673.99496,146.90824 c 0,8.40955 -6.8221,15.23165 -15.23166,15.23165 l -253.24408,0 c -8.40955,0 -15.23164,-6.8221 -15.23164,-15.23165 z m 0,0"
     style="fill:#97bdd9;fill-opacity:1;fill-rule:nonzero;stroke:#b3b3b3;stroke-width:0.56692898;stroke-linecap:butt;stroke-linejoin:miter;stroke-miterlimit:10;stroke-opacity:1" />
  <path
     inkscape:connector-curvature="0"
     id="path538"
     d="m 0.28817696,15.530393 c 0,-8.4095468 6.80899004,-15.2316427 15.23167004,-15.2316427 l 169.463603,0 c 8.40954,0 15.23164,6.8220959 15.23164,15.2316427 l 0,125.670887 c 0,8.40955 -6.8221,15.23164 -15.23164,15.23164 l -169.463603,0 c -8.42268,0 -15.23167004,-6.82209 -15.23167004,-15.23164 z m 0,0"
     style="fill:#ffffff;fill-opacity:1;fill-rule:nonzero;stroke:#7f7f7f;stroke-width:0.56692898;stroke-linecap:butt;stroke-linejoin:miter;stroke-miterlimit:10;stroke-opacity:1" />
  <path
     inkscape:connector-curvature="0"
     id="path540"
     d="m 0.28818696,15.530397 c 0,-8.4095472 6.80899004,-15.23164309 15.23167004,-15.23164309 l 169.463603,0 c 8.40954,0 15.23164,6.82209589 15.23164,15.23164309 l 0,34.267915 -199.92691304,0 z m 0,0"
     style="fill:#97bdd9;fill-opacity:1;fill-rule:nonzero;stroke:#b3b3b3;stroke-width:0.56692898;stroke-linecap:butt;stroke-linejoin:miter;stroke-miterlimit:10;stroke-opacity:1" />
  <use
     height="782.90076"
     width="1117.9843"
     y="0"
     x="0"
     id="use542"
     transform="matrix(1.9040715,0,0,1.9040715,10.755957,8.8658396)"
     xlink:href="#image2657" />
  <g
     id="g544"
     style="fill:#000000;fill-opacity:1"
     transform="matrix(3.3585714,0,0,3.3585714,-44.462193,-19.69524)">
    <use
       height="782.90076"
       width="1117.9843"
       id="use546"
       y="15.820312"
       x="28.347656"
       xlink:href="#glyph0-18" />
    <use
       height="782.90076"
       width="1117.9843"
       id="use548"
       y="15.820312"
       x="33.254974"
       xlink:href="#glyph0-5" />
    <use
       height="782.90076"
       width="1117.9843"
       id="use550"
       y="15.820312"
       x="37.034012"
       xlink:href="#glyph0-19" />
    <use
       height="782.90076"
       width="1117.9843"
       id="use552"
       y="15.820312"
       x="40.813049"
       xlink:href="#glyph0-2" />
    <use
       height="782.90076"
       width="1117.9843"
       id="use554"
       y="15.820312"
       x="44.965912"
       xlink:href="#glyph0-4" />
    <use
       height="782.90076"
       width="1117.9843"
       id="use556"
       y="15.820312"
       x="47.609879"
       xlink:href="#glyph0-10" />
    <use
       height="782.90076"
       width="1117.9843"
       id="use558"
       y="15.820312"
       x="49.499405"
       xlink:href="#glyph0-19" />
    <use
       height="782.90076"
       width="1117.9843"
       id="use560"
       y="15.820312"
       x="53.278442"
       xlink:href="#glyph0-2" />
    <use
       height="782.90076"
       width="1117.9843"
       id="use562"
       y="15.820312"
       x="57.431305"
       xlink:href="#glyph0-8" />
  </g>
  <path
     inkscape:connector-curvature="0"
     id="path564"
     d="m 169.75186,17.432719 17.13396,0 -8.56698,15.231645 z m 0,0"
     style="fill:#666666;fill-opacity:1;fill-rule:nonzero;stroke:none" />
  <g
     id="g566"
     style="fill:#7f7f7f;fill-opacity:1"
     transform="matrix(3.3585714,0,0,3.3585714,-44.462193,-19.69524)">
    <use
       height="782.90076"
       width="1117.9843"
       id="use568"
       y="29.253906"
       x="31.878906"
       xlink:href="#glyph1-10" />
    <use
       height="782.90076"
       width="1117.9843"
       id="use570"
       y="29.253906"
       x="35.032532"
       xlink:href="#glyph1-2" />
    <use
       height="782.90076"
       width="1117.9843"
       id="use572"
       y="29.253906"
       x="36.609344"
       xlink:href="#glyph1-3" />
    <use
       height="782.90076"
       width="1117.9843"
       id="use574"
       y="29.253906"
       x="41.334106"
       xlink:href="#glyph1-4" />
    <use
       height="782.90076"
       width="1117.9843"
       id="use576"
       y="29.253906"
       x="44.487732"
       xlink:href="#glyph1-5" />
    <use
       height="782.90076"
       width="1117.9843"
       id="use578"
       y="29.253906"
       x="46.376495"
       xlink:href="#glyph1-6" />
    <use
       height="782.90076"
       width="1117.9843"
       id="use580"
       y="29.253906"
       x="49.530121"
       xlink:href="#glyph1-7" />
    <use
       height="782.90076"
       width="1117.9843"
       id="use582"
       y="29.253906"
       x="51.106934"
       xlink:href="#glyph1-7" />
    <use
       height="782.90076"
       width="1117.9843"
       id="use584"
       y="29.253906"
       x="52.683746"
       xlink:href="#glyph1-7" />
  </g>
  <path
     inkscape:connector-curvature="0"
     id="path586"
     d="m 0.28818696,95.506372 199.92691304,0 0,45.694928 -199.92691304,0 z m 0,0"
     style="fill:#c5c5c5;fill-opacity:1;fill-rule:nonzero;stroke:#b3b3b3;stroke-width:0.56692898;stroke-linecap:butt;stroke-linejoin:miter;stroke-miterlimit:10;stroke-opacity:1" />
  <g
     id="g588"
     style="fill:#ffffff;fill-opacity:1"
     transform="matrix(3.3585714,0,0,3.3585714,-44.462193,-19.69524)">
    <use
       height="782.90076"
       width="1117.9843"
       id="use590"
       y="43.371094"
       x="16.441406"
       xlink:href="#glyph2-1" />
    <use
       height="782.90076"
       width="1117.9843"
       id="use592"
       y="43.371094"
       x="18.174576"
       xlink:href="#glyph2-2" />
    <use
       height="782.90076"
       width="1117.9843"
       id="use594"
       y="43.371094"
       x="21.983795"
       xlink:href="#glyph2-3" />
    <use
       height="782.90076"
       width="1117.9843"
       id="use596"
       y="43.371094"
       x="25.793015"
       xlink:href="#glyph2-4" />
    <use
       height="782.90076"
       width="1117.9843"
       id="use598"
       y="43.371094"
       x="29.259338"
       xlink:href="#glyph2-5" />
    <use
       height="782.90076"
       width="1117.9843"
       id="use600"
       y="43.371094"
       x="32.725662"
       xlink:href="#glyph2-4" />
    <use
       height="782.90076"
       width="1117.9843"
       id="use602"
       y="43.371094"
       x="36.191986"
       xlink:href="#glyph2-6" />
  </g>
  <path
     inkscape:connector-curvature="0"
     id="path604"
     d="m 169.75186,108.83571 15.23164,8.56698 -15.23164,8.56699 z m 0,0"
     style="fill:#666666;fill-opacity:1;fill-rule:nonzero;stroke:none" />
  <path
     inkscape:connector-curvature="0"
     id="path606"
     d="m 200.2151,141.2013 c 0,8.40954 -6.8221,15.23164 -15.23164,15.23164 l -169.463603,0 c -8.42268,0 -15.23167004,-6.8221 -15.23167004,-15.23164 z m 0,0"
     style="fill:#97bdd9;fill-opacity:1;fill-rule:nonzero;stroke:#b3b3b3;stroke-width:0.56692898;stroke-linecap:butt;stroke-linejoin:miter;stroke-miterlimit:10;stroke-opacity:1" />
  <path
     inkscape:connector-curvature="0"
     id="path608"
     d="m 101.29527,572.47601 36.18336,0 0,34.26791 -36.18336,0 z m 0,0"
     style="fill:#ffffff;fill-opacity:1;fill-rule:nonzero;stroke:none" />
  <g
     id="g610"
     style="fill:#000000;fill-opacity:1"
     transform="matrix(3.3585714,0,0,3.3585714,-127.39659,-12.658023)">
    <use
       height="782.90076"
       width="1117.9843"
       id="use612"
       y="184.35547"
       x="64.628906"
       xlink:href="#glyph3-1" />
    <use
       height="782.90076"
       width="1117.9843"
       id="use614"
       y="184.35547"
       x="68.407944"
       xlink:href="#glyph3-2" />
    <use
       height="782.90076"
       width="1117.9843"
       id="use616"
       y="184.35547"
       x="70.29747"
       xlink:href="#glyph3-2" />
    <use
       height="782.90076"
       width="1117.9843"
       id="use618"
       y="184.35547"
       x="72.186996"
       xlink:href="#glyph3-3" />
  </g>
  <path
     inkscape:connector-curvature="0"
     id="path620"
     d="m 133.674,427.75567 13.32933,0 0,34.26794 -13.32933,0 z m 0,0"
     style="fill:#ffffff;fill-opacity:1;fill-rule:nonzero;stroke:none" />
  <g
     id="g622"
     style="fill:#000000;fill-opacity:1"
     transform="matrix(3.3585714,0,0,3.3585714,-150.95164,-19.69524)">
    <use
       height="782.90076"
       width="1117.9843"
       id="use624"
       y="141.26953"
       x="74.269531"
       xlink:href="#glyph3-1" />
  </g>
  <path
     inkscape:connector-curvature="0"
     id="path626"
     d="m 481.16467,511.53628 36.18337,0 0,34.26794 -36.18337,0 z m 0,0"
     style="fill:#ffffff;fill-opacity:1;fill-rule:nonzero;stroke:none" />
  <g
     id="g628"
     style="fill:#000000;fill-opacity:1"
     transform="matrix(3.3585714,0,0,3.3585714,-122.42053,-19.69524)">
    <use
       height="782.90076"
       width="1117.9843"
       id="use630"
       y="166.21484"
       x="179.71484"
       xlink:href="#glyph3-1" />
    <use
       height="782.90076"
       width="1117.9843"
       id="use632"
       y="166.21484"
       x="183.49388"
       xlink:href="#glyph3-2" />
    <use
       height="782.90076"
       width="1117.9843"
       id="use634"
       y="166.21484"
       x="185.38341"
       xlink:href="#glyph3-2" />
    <use
       height="782.90076"
       width="1117.9843"
       id="use636"
       y="166.21484"
       x="187.27293"
       xlink:href="#glyph3-3" />
  </g>
  <path
     inkscape:connector-curvature="0"
     id="path638"
     d="m 221.25926,427.75567 13.32933,0 0,34.26794 -13.32933,0 z m 0,0"
     style="fill:#ffffff;fill-opacity:1;fill-rule:nonzero;stroke:none" />
  <g
     id="g640"
     style="fill:#000000;fill-opacity:1"
     transform="matrix(3.3585714,0,0,3.3585714,-146.26016,-19.69524)">
    <use
       height="782.90076"
       width="1117.9843"
       id="use642"
       y="141.26953"
       x="100.34766"
       xlink:href="#glyph3-1" />
  </g>
  <path
     inkscape:connector-curvature="0"
     id="path644"
     d="m 633.49425,448.70738 36.18337,0 0,34.26794 -36.18337,0 z m 0,0"
     style="fill:#ffffff;fill-opacity:1;fill-rule:nonzero;stroke:none" />
  <g
     id="g646"
     style="fill:#000000;fill-opacity:1"
     transform="matrix(3.3585714,0,0,3.3585714,-122.42053,-19.69524)">
    <use
       height="782.90076"
       width="1117.9843"
       id="use648"
       y="147.50781"
       x="225.07031"
       xlink:href="#glyph3-1" />
    <use
       height="782.90076"
       width="1117.9843"
       id="use650"
       y="147.50781"
       x="228.84935"
       xlink:href="#glyph3-2" />
    <use
       height="782.90076"
       width="1117.9843"
       id="use652"
       y="147.50781"
       x="230.73888"
       xlink:href="#glyph3-2" />
    <use
       height="782.90076"
       width="1117.9843"
       id="use654"
       y="147.50781"
       x="232.6284"
       xlink:href="#glyph3-3" />
  </g>
  <path
     inkscape:connector-curvature="0"
     id="path656"
     d="m 1059.5616,214.49952 13.3293,0 0,34.26792 -13.3293,0 z m 0,0"
     style="fill:#ffffff;fill-opacity:1;fill-rule:nonzero;stroke:none" />
  <g
     id="g658"
     style="fill:#000000;fill-opacity:1"
     transform="matrix(3.3585714,0,0,3.3585714,-183.79199,-19.69524)">
    <use
       height="782.90076"
       width="1117.9843"
       id="use660"
       y="77.773438"
       x="370.20312"
       xlink:href="#glyph3-1" />
  </g>
  <path
     inkscape:connector-curvature="0"
     id="path662"
     d="m 481.16467,562.95131 36.18337,0 0,34.2679 -36.18337,0 z m 0,0"
     style="fill:#ffffff;fill-opacity:1;fill-rule:nonzero;stroke:none" />
  <g
     id="g664"
     style="fill:#000000;fill-opacity:1"
     transform="matrix(3.3585714,0,0,3.3585714,-122.42053,-19.69524)">
    <use
       height="782.90076"
       width="1117.9843"
       id="use666"
       y="181.52344"
       x="179.71484"
       xlink:href="#glyph3-1" />
    <use
       height="782.90076"
       width="1117.9843"
       id="use668"
       y="181.52344"
       x="183.49388"
       xlink:href="#glyph3-2" />
    <use
       height="782.90076"
       width="1117.9843"
       id="use670"
       y="181.52344"
       x="185.38341"
       xlink:href="#glyph3-2" />
    <use
       height="782.90076"
       width="1117.9843"
       id="use672"
       y="181.52344"
       x="187.27293"
       xlink:href="#glyph3-3" />
  </g>
  <path
     inkscape:connector-curvature="0"
     id="path674"
     d="m 392.64372,660.06124 13.32933,0 0,34.26794 -13.32933,0 z m 0,0"
     style="fill:#ffffff;fill-opacity:1;fill-rule:nonzero;stroke:none" />
  <g
     id="g676"
     style="fill:#000000;fill-opacity:1"
     transform="matrix(3.3585714,0,0,3.3585714,-45.295728,-19.69524)">
    <use
       height="782.90076"
       width="1117.9843"
       id="use678"
       y="210.43359"
       x="130.39453"
       xlink:href="#glyph3-1" />
  </g>
  <path
     inkscape:connector-curvature="0"
     id="path680"
     d="m 486.43979,180.2316 36.18337,0 0,34.26792 -36.18337,0 z m 0,0"
     style="fill:#ffffff;fill-opacity:1;fill-rule:nonzero;stroke:none" />
  <g
     id="g682"
     style="fill:#000000;fill-opacity:1"
     transform="matrix(3.3585714,0,0,3.3585714,-183.79199,-19.69524)">
    <use
       height="782.90076"
       width="1117.9843"
       id="use684"
       y="67.570312"
       x="199.55859"
       xlink:href="#glyph3-1" />
    <use
       height="782.90076"
       width="1117.9843"
       id="use686"
       y="67.570312"
       x="203.33763"
       xlink:href="#glyph3-2" />
    <use
       height="782.90076"
       width="1117.9843"
       id="use688"
       y="67.570312"
       x="205.22716"
       xlink:href="#glyph3-2" />
    <use
       height="782.90076"
       width="1117.9843"
       id="use690"
       y="67.570312"
       x="207.11668"
       xlink:href="#glyph3-3" />
  </g>
  <path
     inkscape:connector-curvature="0"
     id="path692"
     d="m 282.70834,286.86624 13.32933,0 0,34.26792 -13.32933,0 z m 0,0"
     style="fill:#ffffff;fill-opacity:1;fill-rule:nonzero;stroke:none" />
  <g
     id="g694"
     style="fill:#000000;fill-opacity:1"
     transform="matrix(3.3585714,0,0,3.3585714,-183.79199,-19.69524)">
    <use
       height="782.90076"
       width="1117.9843"
       id="use696"
       y="99.316406"
       x="138.89844"
       xlink:href="#glyph3-1" />
  </g>
  <path
     inkscape:connector-curvature="0"
     id="path698"
     d="m 692.08669,39.329029 36.18337,0 0,34.267924 -36.18337,0 z m 0,0"
     style="fill:#ffffff;fill-opacity:1;fill-rule:nonzero;stroke:none" />
  <g
     id="g700"
     style="fill:#000000;fill-opacity:1"
     transform="matrix(3.3585714,0,0,3.3585714,-183.79199,-19.69524)">
    <use
       height="782.90076"
       width="1117.9843"
       id="use702"
       y="25.617188"
       x="260.78906"
       xlink:href="#glyph3-1" />
    <use
       height="782.90076"
       width="1117.9843"
       id="use704"
       y="25.617188"
       x="264.56812"
       xlink:href="#glyph3-2" />
    <use
       height="782.90076"
       width="1117.9843"
       id="use706"
       y="25.617188"
       x="266.45761"
       xlink:href="#glyph3-2" />
    <use
       height="782.90076"
       width="1117.9843"
       id="use708"
       y="25.617188"
       x="268.34717"
       xlink:href="#glyph3-3" />
  </g>
  <path
     inkscape:connector-curvature="0"
     id="path710"
     d="m 912.95211,73.610072 13.3293,0 0,34.267928 -13.3293,0 z m 0,0"
     style="fill:#ffffff;fill-opacity:1;fill-rule:nonzero;stroke:none" />
  <g
     id="g712"
     style="fill:#000000;fill-opacity:1"
     transform="matrix(3.3585714,0,0,3.3585714,-183.79199,-19.69524)">
    <use
       height="782.90076"
       width="1117.9843"
       id="use714"
       y="35.820312"
       x="326.55078"
       xlink:href="#glyph3-1" />
  </g>
  <path
     inkscape:connector-curvature="0"
     id="path716"
     d="m 334.1102,39.329029 36.18337,0 0,34.267924 -36.18337,0 z m 0,0"
     style="fill:#ffffff;fill-opacity:1;fill-rule:nonzero;stroke:none" />
  <g
     id="g718"
     style="fill:#000000;fill-opacity:1"
     transform="matrix(3.3585714,0,0,3.3585714,-183.79199,-19.69524)">
    <use
       height="782.90076"
       width="1117.9843"
       id="use720"
       y="25.617188"
       x="154.20312"
       xlink:href="#glyph3-1" />
    <use
       height="782.90076"
       width="1117.9843"
       id="use722"
       y="25.617188"
       x="157.98216"
       xlink:href="#glyph3-2" />
    <use
       height="782.90076"
       width="1117.9843"
       id="use724"
       y="25.617188"
       x="159.87169"
       xlink:href="#glyph3-2" />
    <use
       height="782.90076"
       width="1117.9843"
       id="use726"
       y="25.617188"
       x="161.76122"
       xlink:href="#glyph3-3" />
  </g>
  <path
     inkscape:connector-curvature="0"
     id="path728"
     d="m 218.29371,33.622081 13.32933,0 0,34.267924 -13.32933,0 z m 0,0"
     style="fill:#ffffff;fill-opacity:1;fill-rule:nonzero;stroke:none" />
  <g
     id="g730"
     style="fill:#000000;fill-opacity:1"
     transform="matrix(3.3585714,0,0,3.3585714,-44.462193,-19.69524)">
    <use
       height="782.90076"
       width="1117.9843"
       id="use732"
       y="23.914062"
       x="78.234375"
       xlink:href="#glyph3-1" />
  </g>
</svg>
