<?xml version="1.0" encoding="UTF-8" standalone="no"?>
<!-- Created with Inkscape (http://www.inkscape.org/) -->

<svg
   xmlns:dc="http://purl.org/dc/elements/1.1/"
   xmlns:cc="http://creativecommons.org/ns#"
   xmlns:rdf="http://www.w3.org/1999/02/22-rdf-syntax-ns#"
   xmlns:svg="http://www.w3.org/2000/svg"
   xmlns="http://www.w3.org/2000/svg"
   xmlns:sodipodi="http://sodipodi.sourceforge.net/DTD/sodipodi-0.dtd"
   xmlns:inkscape="http://www.inkscape.org/namespaces/inkscape"
   id="svg2"
   version="1.1"
   inkscape:version="0.48.5 r10040"
   width="390.51953"
   height="301.57507"
   sodipodi:docname="Logo_8Fragezeichen.svg">
  <metadata
     id="metadata8">
    <rdf:RDF>
      <cc:Work
         rdf:about="">
        <dc:format>image/svg+xml</dc:format>
        <dc:type
           rdf:resource="http://purl.org/dc/dcmitype/StillImage" />
        <dc:title></dc:title>
      </cc:Work>
    </rdf:RDF>
  </metadata>
  <defs
     id="defs6" />
  <sodipodi:namedview
     pagecolor="#ffffff"
     bordercolor="#666666"
     borderopacity="1"
     objecttolerance="10"
     gridtolerance="10"
     guidetolerance="10"
     inkscape:pageopacity="0"
     inkscape:pageshadow="2"
     inkscape:window-width="1366"
     inkscape:window-height="710"
     id="namedview4"
     showgrid="false"
     inkscape:zoom="1.0488889"
     inkscape:cx="183.83411"
     inkscape:cy="144.96199"
     inkscape:window-x="0"
     inkscape:window-y="0"
     inkscape:window-maximized="1"
     inkscape:current-layer="svg2"
     fit-margin-top="10"
     fit-margin-left="10"
     fit-margin-right="10"
     fit-margin-bottom="10" />
  <g
     id="g2987"
     transform="translate(-30.002619,-36.153912)">
    <path
       style="fill:#ee6486"
       d="M 250,276.94821 C 222.06508,269.71619 204.92001,248.74957 204.65825,221.5 204.48493,203.45721 211.50248,188.67975 232.85409,162.12558 237.88434,155.86965 242,150.23521 242,149.60461 c 0,-0.63061 -4.52169,-4.92615 -10.04819,-9.54566 -32.0321,-26.77502 -46.8772,-51.690852 -46.93445,-78.774154 -0.0164,-7.774364 0.14918,-8.404886 3.08623,-11.75 4.23156,-4.819482 5.6477,-4.549099 6.36467,1.215204 3.71463,29.865029 18.41185,55.625 46.80919,82.04296 3.66966,3.41387 7.30271,6.20704 8.07346,6.20704 1.73532,0 7.90167,-11.61259 10.05274,-18.9315 4.31138,-14.66926 -0.54151,-30.884842 -11.43192,-38.198925 -6.07021,-4.076802 -11.06445,-5.221569 -22.28177,-5.107369 -8.59986,0.08755 -9.77095,-0.103165 -9.49308,-1.545998 0.17433,-0.905229 1.8429,-2.674197 3.70793,-3.93104 2.88396,-1.943501 4.6771,-2.283393 11.99307,-2.273299 4.73117,0.0065 10.91954,0.628904 13.75193,1.383058 21.92376,5.837424 36.13638,26.763542 33.88338,49.888593 -0.88001,9.03251 -2.9246,15.66468 -7.6307,24.75229 -2.14637,4.1447 -3.90249,8.05242 -3.90249,8.68384 0,0.63141 5.5125,5.56334 12.25,10.95985 23.65632,18.94789 38.42098,35.80695 43.68859,49.88592 11.03082,29.4825 -4.22247,55.64468 -36.636,62.83743 -10.1304,2.248 -27.68986,2.03399 -37.30259,-0.45464 z m 37.74368,-9.03512 c 17.6511,-6.52293 26.01448,-20.14368 23.43793,-38.17142 -2.20235,-15.40944 -9.68657,-28.34121 -25.6337,-44.29171 C 275.51057,175.4105 262.10574,164 260.34891,164 c -1.138,0 -18.44058,21.19449 -24.16894,29.60533 -13.31692,19.55296 -15.78225,40.27259 -6.64666,55.8613 3.30132,5.63327 11.8309,13.59168 17.46669,16.29706 12.12402,5.81995 28.47675,6.68262 40.74368,2.1494 z M 152.5,258.52403 c -3.88992,-1.81231 -6.82334,-4.34982 -8.99402,-7.78017 -1.50596,-2.37988 -1.6466,-4.18579 -1.03024,-13.22862 0.66413,-9.74362 0.55978,-10.7217 -1.49927,-14.05331 -1.74201,-2.81863 -2.07633,-4.43598 -1.57065,-7.59835 0.54075,-3.38165 0.24293,-4.49231 -1.88169,-7.01728 -2.98486,-3.5473 -3.02282,-3.97362 -0.8585,-9.64082 2.26403,-5.92829 1.22486,-8.10017 -6.66563,-13.93125 -8.93748,-6.60481 -9.13187,-8.8094 -1.52811,-17.33109 C 135.27787,160.31554 142.36227,149.72709 143.82244,145 145.38094,139.95454 147,126.90322 147,119.38548 147,99.778574 159.09901,72.153191 174.70762,56.121331 L 181.15415,49.5 180.54366,54 c -0.33578,2.475 -1.01863,6.75 -1.51747,9.5 -1.41057,7.776277 -1.17933,21.491866 0.46905,27.820401 3.75608,14.420599 14.80999,29.478269 39.0394,53.179599 2.81127,2.75 5.35722,5.94869 5.65768,7.1082 0.75467,2.91241 -1.21756,6.70787 -7.73818,14.8918 -6.52817,8.1934 -14.51454,24.05395 -17.12025,34 -2.65297,10.12646 -2.43511,33.49579 0.43351,46.5 1.15259,5.225 1.75427,9.84967 1.33707,10.27704 -2.44438,2.50396 -43.63806,3.56082 -48.60447,1.24699 z"
       id="path2991"
       inkscape:connector-curvature="0"
       sodipodi:nodetypes="sssssssssssssssssssssssssssssssssssssssssssscssssssssss" />
    <path
       style="fill:#787878"
       d="m 250,276.95468 c -11.45557,-2.95584 -21.35124,-8.40503 -28.93921,-15.9358 -11.14838,-11.06435 -16.28515,-23.83287 -16.30072,-40.51888 -0.0159,-17.0511 6.6235,-31.15963 26.36169,-56.01778 C 237.10479,156.94723 242,150.22656 242,149.54739 c 0,-0.67916 -4.47492,-4.93255 -9.94427,-9.45198 -31.59203,-26.1051 -47.02582,-51.958013 -47.04872,-78.810614 -0.007,-7.767581 0.1621,-8.407804 3.09658,-11.75 4.23156,-4.819482 5.6477,-4.549099 6.36467,1.215204 3.68916,29.660266 18.60937,55.90313 46.65917,82.06794 3.64509,3.40013 7.30185,6.18206 8.12613,6.18206 1.88684,0 8.00945,-11.56966 10.27731,-19.42062 4.51812,-15.64103 -1.87038,-33.120478 -14.45079,-39.538526 -5.42104,-2.765606 -14.96499,-4.210797 -22.62509,-3.425998 -6.14803,0.629885 -6.63132,0.539275 -6.3,-1.18115 0.19737,-1.024853 1.88479,-2.891695 3.74982,-4.148538 2.88396,-1.943501 4.6771,-2.283393 11.99307,-2.273299 14.63886,0.0202 25.18713,4.170809 34.70892,13.657526 15.44749,15.390578 17.33978,40.163755 4.82103,63.115025 -1.88531,3.45644 -3.42783,6.92601 -3.42783,7.71018 0,0.78416 5.7375,6.0358 12.75,11.6703 30.49707,24.50422 43.40898,41.8033 46.27269,61.99508 3.40049,23.97658 -11.2191,42.93326 -38.43265,49.83418 -10.63269,2.69628 -28.05648,2.67845 -38.59004,-0.0395 z m 31.20078,-7.08878 c 2.91457,-0.62375 7.65413,-2.24784 10.53236,-3.60909 25.46023,-12.04129 26.84611,-41.26759 3.34273,-70.49356 C 286.47883,185.07301 263.54451,164 260.50708,164 c -0.65325,0 -6.64682,6.80994 -13.31904,15.1332 -20.65908,25.77115 -26.45866,41.88984 -21.67719,60.24714 3.81941,14.66373 16.23176,26.40668 31.9477,30.22478 6.51282,1.58225 17.02782,1.69775 23.74223,0.26078 z"
       id="path2989"
       inkscape:connector-curvature="0"
       sodipodi:nodetypes="cssssscssssssssssssssssccssssssss" />
  </g>
  <g
     style="font-size:44px;font-style:normal;font-weight:normal;line-height:125%;letter-spacing:0px;word-spacing:0px;fill:#000000;fill-opacity:1;stroke:none;font-family:Sans"
     id="text2993">
    <path
       d="m 10,258.87585 22.322266,0 0,6.25196 -14.050782,0 0,5.97265 13.212891,0 0,6.25196 -13.212891,0 0,13.59961 -8.271484,0 0,-32.07618"
       style="font-weight:bold;-inkscape-font-specification:Sans Bold"
       id="path3036" />
    <path
       d="m 51.830078,273.09851 c 1.733056,2e-5 2.971987,-0.32225 3.716797,-0.9668 0.759094,-0.64451 1.138651,-1.7044 1.138672,-3.17968 -2.1e-5,-1.46092 -0.379578,-2.50649 -1.138672,-3.13672 -0.74481,-0.63018 -1.983741,-0.94529 -3.716797,-0.94531 l -3.480469,0 0,8.22851 3.480469,0 m -3.480469,5.71484 0,12.13868 -8.271484,0 0,-32.07618 12.632812,0 c 4.22524,4e-5 7.318987,0.70902 9.28125,2.12696 1.976535,1.41799 2.964815,3.65953 2.964844,6.72461 -2.9e-5,2.11981 -0.515653,3.86004 -1.546875,5.2207 -1.016953,1.36069 -2.556665,2.3633 -4.61914,3.00781 1.131486,0.25783 2.141251,0.84507 3.029296,1.76172 0.902318,0.90236 1.811822,2.27736 2.728516,4.125 l 4.490234,9.10938 -8.808593,0 -3.910157,-7.97071 c -0.787779,-1.60415 -1.589862,-2.69986 -2.40625,-3.28711 -0.8021,-0.58722 -1.876318,-0.88084 -3.222656,-0.88086 l -2.341797,0"
       style="font-weight:bold;-inkscape-font-specification:Sans Bold"
       id="path3038" />
    <path
       d="m 93.402344,285.10828 -12.933594,0 -2.041016,5.84375 -8.314453,0 11.88086,-32.07618 9.861328,0 11.880861,32.07618 -8.314455,0 -2.019531,-5.84375 m -10.871094,-5.95118 8.787109,0 -4.382812,-12.76171 -4.404297,12.76171"
       style="font-weight:bold;-inkscape-font-specification:Sans Bold"
       id="path3040" />
    <path
       d="m 136.80078,288.56726 c -2.06253,1.00261 -4.2038,1.75456 -6.42383,2.25586 -2.22007,0.5013 -4.51174,0.75195 -6.875,0.75195 -5.34246,0 -9.57488,-1.48958 -12.69726,-4.46875 -3.1224,-2.99348 -4.6836,-7.04686 -4.6836,-12.16015 0,-5.17055 1.58984,-9.23826 4.76954,-12.20313 3.17967,-2.96481 7.53383,-4.44723 13.0625,-4.44726 2.13409,3e-5 4.1751,0.20055 6.12304,0.60156 1.96221,0.40107 3.80987,0.99547 5.54297,1.7832 l 0,6.63867 c -1.79039,-1.0169 -3.5736,-1.77601 -5.34961,-2.27734 -1.76174,-0.50128 -3.53062,-0.75193 -5.30664,-0.75195 -3.29429,2e-5 -5.8366,0.92385 -7.62695,2.77148 -1.77606,1.83336 -2.66408,4.46161 -2.66406,7.88477 -2e-5,3.39454 0.85936,6.01563 2.57812,7.86328 1.71873,1.84766 4.16079,2.77149 7.32617,2.77148 0.85936,10e-6 1.65428,-0.0501 2.38477,-0.15039 0.74477,-0.11458 1.41078,-0.28645 1.99804,-0.51562 l 0,-6.23047 -5.04882,0 0,-5.54297 12.89062,0 0,15.42578"
       style="font-weight:bold;-inkscape-font-specification:Sans Bold"
       id="path3042" />
    <path
       d="m 144.0625,258.87585 22.32227,0 0,6.25196 -14.05079,0 0,5.97265 13.21289,0 0,6.25196 -13.21289,0 0,7.34765 14.52344,0 0,6.25196 -22.79492,0 0,-32.07618"
       style="font-weight:bold;-inkscape-font-specification:Sans Bold"
       id="path3044" />
    <path
       d="m 172.57227,258.87585 26.96289,0 0,5.00586 -17.20899,20.81836 17.70313,0 0,6.25196 -27.95118,0 0,-5.00586 17.20899,-20.81836 -16.71484,0 0,-6.25196"
       style="font-weight:bold;-inkscape-font-specification:Sans Bold"
       id="path3046" />
    <path
       d="m 206.02344,258.87585 22.32226,0 0,6.25196 -14.05078,0 0,5.97265 13.21289,0 0,6.25196 -13.21289,0 0,7.34765 14.52344,0 0,6.25196 -22.79492,0 0,-32.07618"
       style="font-weight:bold;-inkscape-font-specification:Sans Bold"
       id="path3048" />
    <path
       d="m 236.10156,258.87585 8.27149,0 0,32.07618 -8.27149,0 0,-32.07618"
       style="font-weight:bold;-inkscape-font-specification:Sans Bold"
       id="path3050" />
    <path
       d="m 277.95312,289.19031 c -1.51825,0.78776 -3.10093,1.38216 -4.74804,1.7832 -1.64716,0.40104 -3.36591,0.60156 -5.15625,0.60156 -5.34246,0 -9.57488,-1.48958 -12.69727,-4.46875 -3.1224,-2.99348 -4.68359,-7.04686 -4.68359,-12.16015 0,-5.12759 1.56119,-9.18097 4.68359,-12.16016 3.12239,-2.99346 7.35481,-4.4902 12.69727,-4.49023 1.79034,3e-5 3.50909,0.20055 5.15625,0.60156 1.64711,0.40107 3.22979,0.99547 4.74804,1.7832 l 0,6.63867 c -1.53258,-1.04554 -3.04364,-1.81182 -4.5332,-2.29882 -1.4896,-0.48696 -3.05796,-0.73045 -4.70508,-0.73047 -2.95053,2e-5 -5.27084,0.94534 -6.96093,2.83593 -1.69012,1.89065 -2.53517,4.49742 -2.53516,7.82032 -10e-6,3.3086 0.84504,5.90821 2.53516,7.79883 1.69009,1.89063 4.0104,2.83594 6.96093,2.83593 1.64712,10e-6 3.21548,-0.24348 4.70508,-0.73047 1.48956,-0.48697 3.00062,-1.25324 4.5332,-2.29882 l 0,6.63867"
       style="font-weight:bold;-inkscape-font-specification:Sans Bold"
       id="path3052" />
    <path
       d="m 284.82812,258.87585 8.27149,0 0,12.22461 12.20312,0 0,-12.22461 8.27149,0 0,32.07618 -8.27149,0 0,-13.59961 -12.20312,0 0,13.59961 -8.27149,0 0,-32.07618"
       style="font-weight:bold;-inkscape-font-specification:Sans Bold"
       id="path3054" />
    <path
       d="m 321.69531,258.87585 22.32227,0 0,6.25196 -14.05078,0 0,5.97265 13.21289,0 0,6.25196 -13.21289,0 0,7.34765 14.52343,0 0,6.25196 -22.79492,0 0,-32.07618"
       style="font-weight:bold;-inkscape-font-specification:Sans Bold"
       id="path3056" />
    <path
       d="m 351.77344,258.87585 9.23828,0 11.66601,22 0,-22 7.8418,0 0,32.07618 -9.23828,0 -11.66602,-22 0,22 -7.84179,0 0,-32.07618"
       style="font-weight:bold;-inkscape-font-specification:Sans Bold"
       id="path3058" />
  </g>
</svg>
